# MagicaVoxel @ Ephtracy

# group
o 

# material
mtllib PlantaMuerta0.mtl
usemtl palette

# normals
vn -1 0 0
vn 1 0 0
vn 0 0 1
vn 0 0 -1
vn 0 -1 0
vn 0 1 0

# texcoords
vt 0.728516 0.5
vt 0.794922 0.5

# verts
v -0.7 1.3 0.2
v -0.7 1.3 0.1
v -0.7 1.5 0.2
v -0.7 1.5 0.1
v -0.7 1.6 0.2
v -0.7 1.6 0.1
v -0.6 1 -0.1
v -0.6 1 -0.2
v -0.6 1 -0.5
v -0.6 1 -0.6
v -0.6 1.1 -0.1
v -0.6 1.1 -0.2
v -0.6 1.1 -0.4
v -0.6 1.1 -0.5
v -0.6 1.1 -0.6
v -0.6 1.2 -0.5
v -0.6 1.2 -0.6
v -0.6 1.3 0.3
v -0.6 1.3 0.2
v -0.6 1.3 -0.4
v -0.6 1.3 -0.5
v -0.6 1.3 -0.6
v -0.6 1.3 -0.7
v -0.6 1.4 -0.5
v -0.6 1.4 -0.6
v -0.6 1.4 -0.7
v -0.6 1.5 0.3
v -0.6 1.5 0.2
v -0.5 1.2 -0.5
v -0.5 1.2 -0.6
v -0.5 1.2 -0.7
v -0.5 1.3 -0.5
v -0.5 1.3 -0.6
v -0.5 1.3 -0.7
v -0.4 0 0
v -0.4 0 -0.2
v -0.4 0.1 -0.1
v -0.4 0.1 -0.2
v -0.4 0.2 0
v -0.4 0.2 -0.1
v -0.4 1.2 0.3
v -0.4 1.2 0.1
v -0.4 1.3 0.4
v -0.4 1.3 0.3
v -0.4 1.3 0.1
v -0.4 1.4 0.4
v -0.4 1.4 0.3
v -0.3 0 0.1
v -0.3 0 0
v -0.3 0 -0.2
v -0.3 0 -0.3
v -0.3 0.1 -0.1
v -0.3 0.1 -0.2
v -0.3 0.2 0.1
v -0.3 0.2 0
v -0.3 0.2 -0.1
v -0.3 0.2 -0.3
v -0.3 0.3 0
v -0.3 0.3 -0.1
v -0.3 0.5 -0.1
v -0.3 0.5 -0.2
v -0.3 0.6 0
v -0.3 0.6 -0.1
v -0.3 0.6 -0.2
v -0.3 0.7 0
v -0.3 0.7 -0.1
v -0.3 0.8 0
v -0.3 0.8 -0.1
v -0.3 0.9 0
v -0.3 0.9 -0.1
v -0.3 0.9 -0.2
v -0.3 1 -0.1
v -0.3 1 -0.2
v -0.3 1.1 -0.1
v -0.3 1.1 -0.2
v -0.3 1.1 -0.3
v -0.3 1.2 0.1
v -0.3 1.2 0
v -0.3 1.2 -0.1
v -0.3 1.2 -0.2
v -0.3 1.2 -0.3
v -0.3 1.3 0
v -0.3 1.3 -0.1
v -0.3 1.4 0.1
v -0.3 1.4 -0.1
v -0.3 1.4 -0.2
v -0.3 1.5 -0.1
v -0.3 1.5 -0.2
v -0.2 0 0.2
v -0.2 0 0.1
v -0.2 0 -0.3
v -0.2 0 -0.4
v -0.2 0.1 0.2
v -0.2 0.1 0.1
v -0.2 0.2 0.1
v -0.2 0.2 0
v -0.2 0.2 -0.1
v -0.2 0.2 -0.2
v -0.2 0.2 -0.3
v -0.2 0.2 -0.4
v -0.2 0.3 0.1
v -0.2 0.3 0
v -0.2 0.3 -0.1
v -0.2 0.4 0
v -0.2 0.4 -0.1
v -0.2 0.5 0
v -0.2 0.5 -0.1
v -0.2 0.5 -0.2
v -0.2 0.6 0
v -0.2 0.6 -0.1
v -0.2 0.6 -0.2
v -0.2 0.7 0
v -0.2 0.7 -0.1
v -0.2 0.8 0
v -0.2 0.8 -0.1
v -0.2 0.8 -0.2
v -0.2 0.8 -0.3
v -0.2 0.9 -0.1
v -0.2 0.9 -0.2
v -0.2 0.9 -0.3
v -0.2 1 0
v -0.2 1 -0.1
v -0.2 1.2 0
v -0.2 1.2 -0.1
v -0.2 1.3 0
v -0.2 1.3 -0.1
v -0.1 0.1 0.2
v -0.1 0.1 0.1
v -0.1 0.2 0.2
v -0.1 0.2 0.1
v -0.1 0.2 -0.2
v -0.1 0.2 -0.3
v -0.1 0.3 -0.2
v -0.1 0.3 -0.3
v -0.1 0.4 0
v -0.1 0.4 -0.1
v -0.1 0.5 0
v -0.1 0.5 -0.1
v -0.1 1.3 0
v -0.1 1.3 -0.1
v -0.1 1.3 -0.2
v -0.1 1.4 0
v -0.1 1.4 -0.2
v 0 1.2 -0.1
v 0 1.2 -0.2
v 0 1.3 -0.1
v 0 1.3 -0.2
v 0 1.5 -0.1
v 0 1.5 -0.2
v 0 1.6 -0.1
v 0 1.6 -0.2
v 0.1 1.4 0
v 0.1 1.4 -0.2
v 0.1 1.4 -0.3
v 0.1 1.5 -0.1
v 0.1 1.5 -0.2
v 0.1 1.5 -0.3
v 0.1 1.6 0
v 0.1 1.6 -0.1
v 0.1 1.6 -0.2
v 0.1 1.7 -0.1
v 0.1 1.7 -0.2
v 0.2 1.5 0.1
v 0.2 1.5 0
v 0.2 1.6 0.1
v 0.2 1.6 0
v -0.6 1.5 0.2
v -0.6 1.5 0.1
v -0.6 1.6 0.2
v -0.6 1.6 0.1
v -0.5 1.1 -0.5
v -0.5 1.1 -0.6
v -0.5 1.2 -0.5
v -0.5 1.2 -0.6
v -0.5 1.3 -0.6
v -0.5 1.3 -0.7
v -0.5 1.4 0.3
v -0.5 1.4 0.1
v -0.5 1.4 -0.6
v -0.5 1.4 -0.7
v -0.5 1.5 0.3
v -0.5 1.5 0.1
v -0.4 1 -0.4
v -0.4 1 -0.6
v -0.4 1.1 -0.4
v -0.4 1.1 -0.5
v -0.4 1.1 -0.6
v -0.4 1.2 -0.5
v -0.4 1.2 -0.6
v -0.4 1.2 -0.7
v -0.4 1.3 -0.4
v -0.4 1.3 -0.5
v -0.4 1.3 -0.6
v -0.4 1.3 -0.7
v -0.4 1.4 -0.5
v -0.4 1.4 -0.6
v -0.3 1 -0.2
v -0.3 1 -0.4
v -0.3 1.1 -0.2
v -0.3 1.1 -0.3
v -0.3 1.1 -0.4
v -0.3 1.2 0.3
v -0.3 1.2 0.2
v -0.3 1.3 0.4
v -0.3 1.3 0.3
v -0.3 1.3 0.2
v -0.3 1.4 0.4
v -0.3 1.4 0.3
v -0.2 1 -0.1
v -0.2 1 -0.2
v -0.2 1.1 -0.2
v -0.2 1.1 -0.3
v -0.2 1.2 -0.1
v -0.2 1.2 -0.2
v -0.2 1.2 -0.3
v -0.2 1.3 0.2
v -0.2 1.3 0.1
v -0.2 1.3 0
v -0.2 1.3 -0.1
v -0.2 1.4 0.2
v -0.2 1.4 0.1
v -0.2 1.4 0
v -0.2 1.4 -0.1
v -0.2 1.4 -0.2
v -0.2 1.5 -0.1
v -0.2 1.5 -0.2
v -0.1 0.1 -0.3
v -0.1 0.1 -0.4
v -0.1 0.2 0.1
v -0.1 0.2 0
v -0.1 0.2 -0.3
v -0.1 0.2 -0.4
v -0.1 0.3 0.1
v -0.1 0.3 0
v -0.1 0.5 -0.1
v -0.1 0.5 -0.2
v -0.1 0.6 0
v -0.1 0.6 -0.1
v -0.1 0.7 0
v -0.1 0.7 -0.1
v -0.1 0.8 0
v -0.1 0.8 -0.1
v -0.1 0.8 -0.2
v -0.1 0.8 -0.3
v -0.1 0.9 0
v -0.1 0.9 -0.1
v -0.1 0.9 -0.2
v -0.1 0.9 -0.3
v -0.1 1.1 0
v -0.1 1.1 -0.1
v -0.1 1.2 0.2
v -0.1 1.2 0
v -0.1 1.2 -0.1
v -0.1 1.3 0.3
v -0.1 1.3 0.2
v -0.1 1.3 0.1
v -0.1 1.4 0.3
v -0.1 1.4 0.2
v -0.1 1.4 0.1
v -0.1 1.4 0
v 0 0 0.2
v 0 0 0.1
v 0 0 -0.3
v 0 0 -0.4
v 0 0.1 -0.2
v 0 0.1 -0.3
v 0 0.1 -0.4
v 0 0.2 0.2
v 0 0.2 0.1
v 0 0.2 -0.1
v 0 0.2 -0.2
v 0 0.3 0
v 0 0.3 -0.1
v 0 0.3 -0.2
v 0 0.3 -0.3
v 0 0.5 -0.1
v 0 0.5 -0.2
v 0 0.6 0
v 0 0.6 -0.1
v 0 0.8 -0.1
v 0 0.8 -0.2
v 0 0.9 -0.1
v 0 0.9 -0.2
v 0 1 0
v 0 1 -0.1
v 0 1 -0.2
v 0 1.1 0
v 0 1.1 -0.1
v 0 1.2 0
v 0 1.2 -0.1
v 0 1.3 0
v 0 1.3 -0.1
v 0.1 0 0.1
v 0.1 0 0
v 0.1 0 -0.2
v 0.1 0 -0.3
v 0.1 0.1 0
v 0.1 0.1 -0.1
v 0.1 0.1 -0.2
v 0.1 0.1 -0.3
v 0.1 0.2 0.1
v 0.1 0.2 0
v 0.1 0.2 -0.1
v 0.1 0.3 0
v 0.1 0.3 -0.1
v 0.1 0.7 0
v 0.1 0.7 -0.1
v 0.1 0.8 0
v 0.1 0.8 -0.1
v 0.1 1.2 -0.1
v 0.1 1.2 -0.2
v 0.1 1.3 0
v 0.1 1.3 -0.1
v 0.1 1.3 -0.2
v 0.1 1.4 0
v 0.1 1.4 -0.1
v 0.2 0 0
v 0.2 0 -0.2
v 0.2 0.1 0
v 0.2 0.1 -0.1
v 0.2 0.2 -0.1
v 0.2 0.2 -0.2
v 0.2 1.4 -0.2
v 0.2 1.4 -0.3
v 0.2 1.5 -0.2
v 0.2 1.5 -0.3
v 0.2 1.6 -0.1
v 0.2 1.6 -0.2
v 0.2 1.7 -0.1
v 0.2 1.7 -0.2
v 0.3 1.3 -0.1
v 0.3 1.3 -0.2
v 0.3 1.4 0
v 0.3 1.4 -0.1
v 0.3 1.5 0.1
v 0.3 1.5 0
v 0.3 1.5 -0.1
v 0.3 1.5 -0.2
v 0.3 1.6 0.1
v 0.3 1.6 0
v 0.4 1.5 0
v 0.4 1.5 -0.2
v 0.4 1.6 0
v 0.4 1.6 -0.2
v -0.4 1.3 0.4
v -0.4 1.4 0.4
v -0.3 1.3 0.4
v -0.3 1.4 0.4
v -0.6 1.3 0.3
v -0.6 1.5 0.3
v -0.5 1.4 0.3
v -0.5 1.5 0.3
v -0.4 1.2 0.3
v -0.4 1.3 0.3
v -0.4 1.4 0.3
v -0.3 1.2 0.3
v -0.3 1.3 0.3
v -0.3 1.4 0.3
v -0.2 1.3 0.3
v -0.2 1.4 0.3
v -0.1 1.3 0.3
v -0.1 1.4 0.3
v -0.7 1.3 0.2
v -0.7 1.5 0.2
v -0.7 1.6 0.2
v -0.6 1.3 0.2
v -0.6 1.5 0.2
v -0.6 1.6 0.2
v -0.3 1.2 0.2
v -0.3 1.3 0.2
v -0.2 0 0.2
v -0.2 0.1 0.2
v -0.2 1.3 0.2
v -0.1 0.1 0.2
v -0.1 0.2 0.2
v -0.1 1.2 0.2
v -0.1 1.3 0.2
v 0 0 0.2
v 0 0.2 0.2
v -0.3 0 0.1
v -0.3 0.2 0.1
v -0.2 0 0.1
v -0.2 0.1 0.1
v -0.2 0.2 0.1
v -0.2 0.3 0.1
v -0.2 1.3 0.1
v -0.2 1.4 0.1
v -0.1 0.1 0.1
v -0.1 0.2 0.1
v -0.1 0.3 0.1
v -0.1 1.3 0.1
v -0.1 1.4 0.1
v 0 0 0.1
v 0 0.2 0.1
v 0.1 0 0.1
v 0.1 0.2 0.1
v 0.2 1.5 0.1
v 0.2 1.6 0.1
v 0.3 1.5 0.1
v 0.3 1.6 0.1
v -0.4 0 0
v -0.4 0.2 0
v -0.3 0 0
v -0.3 0.2 0
v -0.3 0.3 0
v -0.3 0.6 0
v -0.3 0.7 0
v -0.3 0.8 0
v -0.3 0.9 0
v -0.2 0.2 0
v -0.2 0.3 0
v -0.2 0.4 0
v -0.2 0.5 0
v -0.2 0.6 0
v -0.2 0.7 0
v -0.2 0.8 0
v -0.2 0.9 0
v -0.2 1 0
v -0.2 1.2 0
v -0.1 0.2 0
v -0.1 0.3 0
v -0.1 0.4 0
v -0.1 0.5 0
v -0.1 0.6 0
v -0.1 0.7 0
v -0.1 0.8 0
v -0.1 0.9 0
v -0.1 1 0
v -0.1 1.1 0
v -0.1 1.2 0
v -0.1 1.4 0
v 0 0.3 0
v 0 0.6 0
v 0 0.7 0
v 0 0.8 0
v 0 1 0
v 0 1.1 0
v 0 1.2 0
v 0 1.3 0
v 0.1 0 0
v 0.1 0.1 0
v 0.1 0.2 0
v 0.1 0.3 0
v 0.1 0.7 0
v 0.1 0.8 0
v 0.1 1.3 0
v 0.1 1.4 0
v 0.1 1.6 0
v 0.2 0 0
v 0.2 0.1 0
v 0.2 1.4 0
v 0.2 1.5 0
v 0.2 1.6 0
v 0.3 1.4 0
v 0.3 1.5 0
v 0.3 1.6 0
v 0.4 1.5 0
v 0.4 1.6 0
v -0.6 1 -0.1
v -0.6 1.1 -0.1
v -0.5 1 -0.1
v -0.5 1.1 -0.1
v -0.3 0.5 -0.1
v -0.3 0.6 -0.1
v -0.3 0.9 -0.1
v -0.3 1 -0.1
v -0.3 1.1 -0.1
v -0.3 1.2 -0.1
v -0.3 1.4 -0.1
v -0.3 1.5 -0.1
v -0.2 0.4 -0.1
v -0.2 0.5 -0.1
v -0.2 0.6 -0.1
v -0.2 0.9 -0.1
v -0.2 1 -0.1
v -0.2 1.2 -0.1
v -0.2 1.4 -0.1
v -0.2 1.5 -0.1
v -0.1 0.4 -0.1
v -0.1 0.5 -0.1
v -0.1 0.8 -0.1
v -0.1 0.9 -0.1
v -0.1 1 -0.1
v 0 0.8 -0.1
v 0 0.9 -0.1
v 0 1 -0.1
v 0 1.2 -0.1
v 0 1.3 -0.1
v 0 1.5 -0.1
v 0 1.6 -0.1
v 0.1 0.1 -0.1
v 0.1 0.2 -0.1
v 0.1 1.2 -0.1
v 0.1 1.3 -0.1
v 0.1 1.4 -0.1
v 0.1 1.5 -0.1
v 0.1 1.6 -0.1
v 0.1 1.7 -0.1
v 0.2 0.1 -0.1
v 0.2 0.2 -0.1
v 0.2 1.4 -0.1
v 0.2 1.6 -0.1
v 0.2 1.7 -0.1
v 0.3 1.3 -0.1
v 0.3 1.4 -0.1
v -0.6 1.1 -0.4
v -0.6 1.3 -0.4
v -0.4 1.1 -0.4
v -0.4 1.3 -0.4
v -0.6 1.3 -0.5
v -0.6 1.4 -0.5
v -0.4 1.3 -0.5
v -0.4 1.4 -0.5
v -0.2 1.3 0.2
v -0.2 1.4 0.2
v -0.1 1.3 0.2
v -0.1 1.4 0.2
v -0.7 1.3 0.1
v -0.7 1.5 0.1
v -0.7 1.6 0.1
v -0.6 1.5 0.1
v -0.6 1.6 0.1
v -0.5 1.4 0.1
v -0.5 1.5 0.1
v -0.4 1.2 0.1
v -0.4 1.3 0.1
v -0.3 1.2 0.1
v -0.3 1.4 0.1
v -0.3 1.2 0
v -0.3 1.3 0
v -0.2 1.2 0
v -0.2 1.3 0
v -0.2 1.4 0
v -0.1 1.3 0
v -0.1 1.4 0
v -0.4 0.1 -0.1
v -0.4 0.2 -0.1
v -0.3 0.1 -0.1
v -0.3 0.2 -0.1
v -0.3 0.3 -0.1
v -0.3 0.6 -0.1
v -0.3 0.7 -0.1
v -0.3 0.8 -0.1
v -0.3 0.9 -0.1
v -0.3 1.3 -0.1
v -0.3 1.4 -0.1
v -0.2 0.2 -0.1
v -0.2 0.3 -0.1
v -0.2 0.6 -0.1
v -0.2 0.7 -0.1
v -0.2 0.8 -0.1
v -0.2 0.9 -0.1
v -0.2 1 -0.1
v -0.2 1.2 -0.1
v -0.2 1.3 -0.1
v -0.2 1.4 -0.1
v -0.1 0.5 -0.1
v -0.1 0.6 -0.1
v -0.1 0.7 -0.1
v -0.1 0.8 -0.1
v -0.1 1 -0.1
v -0.1 1.1 -0.1
v -0.1 1.2 -0.1
v -0.1 1.3 -0.1
v 0 0.2 -0.1
v 0 0.3 -0.1
v 0 0.5 -0.1
v 0 0.6 -0.1
v 0 0.7 -0.1
v 0 0.8 -0.1
v 0 1 -0.1
v 0 1.1 -0.1
v 0 1.2 -0.1
v 0 1.3 -0.1
v 0.1 0.2 -0.1
v 0.1 0.3 -0.1
v 0.1 0.7 -0.1
v 0.1 0.8 -0.1
v -0.4 0 -0.2
v -0.4 0.1 -0.2
v -0.3 0 -0.2
v -0.3 0.1 -0.2
v -0.3 0.5 -0.2
v -0.3 0.6 -0.2
v -0.3 0.9 -0.2
v -0.3 1 -0.2
v -0.3 1.1 -0.2
v -0.3 1.4 -0.2
v -0.3 1.5 -0.2
v -0.2 0.2 -0.2
v -0.2 0.5 -0.2
v -0.2 0.6 -0.2
v -0.2 0.8 -0.2
v -0.2 0.9 -0.2
v -0.2 1 -0.2
v -0.2 1.1 -0.2
v -0.2 1.4 -0.2
v -0.2 1.5 -0.2
v -0.1 0.2 -0.2
v -0.1 0.3 -0.2
v -0.1 0.5 -0.2
v -0.1 0.8 -0.2
v -0.1 0.9 -0.2
v -0.1 1 -0.2
v -0.1 1.3 -0.2
v -0.1 1.4 -0.2
v 0 0.1 -0.2
v 0 0.2 -0.2
v 0 0.3 -0.2
v 0 0.5 -0.2
v 0 0.8 -0.2
v 0 0.9 -0.2
v 0 1 -0.2
v 0 1.2 -0.2
v 0 1.3 -0.2
v 0 1.5 -0.2
v 0 1.6 -0.2
v 0.1 0 -0.2
v 0.1 0.1 -0.2
v 0.1 1.2 -0.2
v 0.1 1.3 -0.2
v 0.1 1.4 -0.2
v 0.1 1.5 -0.2
v 0.1 1.6 -0.2
v 0.1 1.7 -0.2
v 0.2 0 -0.2
v 0.2 0.2 -0.2
v 0.2 1.4 -0.2
v 0.2 1.5 -0.2
v 0.2 1.6 -0.2
v 0.2 1.7 -0.2
v 0.3 1.3 -0.2
v 0.3 1.5 -0.2
v 0.4 1.5 -0.2
v 0.4 1.6 -0.2
v -0.3 0 -0.3
v -0.3 0.2 -0.3
v -0.3 1.1 -0.3
v -0.3 1.2 -0.3
v -0.2 0 -0.3
v -0.2 0.2 -0.3
v -0.2 0.8 -0.3
v -0.2 0.9 -0.3
v -0.2 1.1 -0.3
v -0.2 1.2 -0.3
v -0.1 0.1 -0.3
v -0.1 0.2 -0.3
v -0.1 0.3 -0.3
v -0.1 0.8 -0.3
v -0.1 0.9 -0.3
v 0 0 -0.3
v 0 0.1 -0.3
v 0 0.3 -0.3
v 0.1 0 -0.3
v 0.1 0.1 -0.3
v 0.1 1.4 -0.3
v 0.1 1.5 -0.3
v 0.2 1.4 -0.3
v 0.2 1.5 -0.3
v -0.4 1 -0.4
v -0.4 1.1 -0.4
v -0.3 1 -0.4
v -0.3 1.1 -0.4
v -0.2 0 -0.4
v -0.2 0.2 -0.4
v -0.1 0.1 -0.4
v -0.1 0.2 -0.4
v 0 0 -0.4
v 0 0.1 -0.4
v -0.6 1.2 -0.5
v -0.6 1.3 -0.5
v -0.5 1.1 -0.5
v -0.5 1.2 -0.5
v -0.5 1.3 -0.5
v -0.4 1.1 -0.5
v -0.4 1.2 -0.5
v -0.6 1 -0.6
v -0.6 1.1 -0.6
v -0.6 1.2 -0.6
v -0.5 1 -0.6
v -0.5 1.1 -0.6
v -0.5 1.2 -0.6
v -0.5 1.3 -0.6
v -0.5 1.4 -0.6
v -0.4 1 -0.6
v -0.4 1.1 -0.6
v -0.4 1.3 -0.6
v -0.4 1.4 -0.6
v -0.6 1.3 -0.7
v -0.6 1.4 -0.7
v -0.5 1.2 -0.7
v -0.5 1.3 -0.7
v -0.5 1.4 -0.7
v -0.4 1.2 -0.7
v -0.4 1.3 -0.7
v -0.2 0 0.2
v 0 0 0.2
v -0.3 0 0.1
v -0.2 0 0.1
v 0 0 0.1
v 0.1 0 0.1
v -0.4 0 0
v -0.3 0 0
v 0.1 0 0
v 0.2 0 0
v -0.4 0 -0.2
v -0.3 0 -0.2
v 0.1 0 -0.2
v 0.2 0 -0.2
v -0.3 0 -0.3
v -0.2 0 -0.3
v 0 0 -0.3
v 0.1 0 -0.3
v -0.2 0 -0.4
v 0 0 -0.4
v -0.2 0.5 0
v -0.1 0.5 0
v -0.3 0.5 -0.1
v -0.2 0.5 -0.1
v -0.1 0.5 -0.1
v -0.3 0.5 -0.2
v -0.2 0.5 -0.2
v -0.3 0.6 0
v -0.2 0.6 0
v -0.3 0.6 -0.1
v -0.2 0.6 -0.1
v -0.1 0.7 0
v 0 0.7 0
v 0.1 0.7 0
v -0.1 0.7 -0.1
v 0 0.7 -0.1
v 0.1 0.7 -0.1
v -0.3 0.8 0
v -0.2 0.8 0
v -0.3 0.8 -0.1
v -0.2 0.8 -0.1
v -0.1 0.8 -0.1
v 0 0.8 -0.1
v -0.2 0.8 -0.2
v -0.1 0.8 -0.2
v 0 0.8 -0.2
v -0.2 0.8 -0.3
v -0.1 0.8 -0.3
v -0.3 0.9 -0.1
v -0.2 0.9 -0.1
v -0.3 0.9 -0.2
v -0.2 0.9 -0.2
v -0.2 1 0
v -0.1 1 0
v 0 1 0
v -0.6 1 -0.1
v -0.5 1 -0.1
v -0.3 1 -0.1
v -0.2 1 -0.1
v -0.1 1 -0.1
v 0 1 -0.1
v -0.6 1 -0.2
v -0.5 1 -0.2
v -0.3 1 -0.2
v -0.4 1 -0.4
v -0.3 1 -0.4
v -0.6 1 -0.5
v -0.5 1 -0.5
v -0.6 1 -0.6
v -0.5 1 -0.6
v -0.4 1 -0.6
v -0.3 1.1 -0.2
v -0.2 1.1 -0.2
v -0.3 1.1 -0.3
v -0.2 1.1 -0.3
v -0.4 1.2 0.3
v -0.3 1.2 0.3
v -0.3 1.2 0.2
v -0.1 1.2 0.2
v -0.4 1.2 0.1
v -0.3 1.2 0.1
v -0.3 1.2 0
v -0.2 1.2 0
v -0.1 1.2 0
v 0 1.2 0
v -0.1 1.2 -0.1
v 0 1.2 -0.1
v 0.1 1.2 -0.1
v 0 1.2 -0.2
v 0.1 1.2 -0.2
v -0.5 1.2 -0.5
v -0.4 1.2 -0.5
v -0.5 1.2 -0.6
v -0.4 1.2 -0.6
v -0.5 1.2 -0.7
v -0.4 1.2 -0.7
v -0.4 1.3 0.4
v -0.3 1.3 0.4
v -0.6 1.3 0.3
v -0.4 1.3 0.3
v -0.3 1.3 0.3
v -0.2 1.3 0.3
v -0.1 1.3 0.3
v -0.7 1.3 0.2
v -0.6 1.3 0.2
v -0.3 1.3 0.2
v -0.2 1.3 0.2
v -0.1 1.3 0.2
v -0.7 1.3 0.1
v -0.4 1.3 0.1
v -0.3 1.3 0
v -0.2 1.3 0
v 0 1.3 0
v 0.1 1.3 0
v -0.3 1.3 -0.1
v -0.2 1.3 -0.1
v -0.1 1.3 -0.1
v 0 1.3 -0.1
v 0.1 1.3 -0.1
v 0.3 1.3 -0.1
v -0.1 1.3 -0.2
v 0 1.3 -0.2
v 0.1 1.3 -0.2
v 0.3 1.3 -0.2
v -0.6 1.3 -0.5
v -0.5 1.3 -0.5
v -0.6 1.3 -0.6
v -0.5 1.3 -0.6
v -0.6 1.3 -0.7
v -0.5 1.3 -0.7
v 0.1 1.4 0
v 0.2 1.4 0
v 0.3 1.4 0
v -0.3 1.4 -0.1
v -0.2 1.4 -0.1
v 0.1 1.4 -0.1
v 0.2 1.4 -0.1
v 0.3 1.4 -0.1
v -0.3 1.4 -0.2
v -0.2 1.4 -0.2
v 0.1 1.4 -0.2
v 0.2 1.4 -0.2
v 0.1 1.4 -0.3
v 0.2 1.4 -0.3
v 0.2 1.5 0.1
v 0.3 1.5 0.1
v 0.2 1.5 0
v 0.3 1.5 0
v 0.4 1.5 0
v 0 1.5 -0.1
v 0.1 1.5 -0.1
v 0.3 1.5 -0.1
v 0 1.5 -0.2
v 0.1 1.5 -0.2
v 0.3 1.5 -0.2
v 0.4 1.5 -0.2
v -0.2 0.1 0.2
v -0.1 0.1 0.2
v -0.2 0.1 0.1
v -0.1 0.1 0.1
v 0.1 0.1 0
v 0.2 0.1 0
v -0.4 0.1 -0.1
v -0.3 0.1 -0.1
v 0.1 0.1 -0.1
v 0.2 0.1 -0.1
v -0.4 0.1 -0.2
v -0.3 0.1 -0.2
v 0 0.1 -0.2
v 0.1 0.1 -0.2
v -0.1 0.1 -0.3
v 0 0.1 -0.3
v 0.1 0.1 -0.3
v -0.1 0.1 -0.4
v 0 0.1 -0.4
v -0.1 0.2 0.2
v 0 0.2 0.2
v -0.3 0.2 0.1
v -0.2 0.2 0.1
v -0.1 0.2 0.1
v 0 0.2 0.1
v 0.1 0.2 0.1
v -0.4 0.2 0
v -0.3 0.2 0
v -0.2 0.2 0
v -0.1 0.2 0
v 0.1 0.2 0
v -0.4 0.2 -0.1
v -0.3 0.2 -0.1
v -0.2 0.2 -0.1
v 0 0.2 -0.1
v 0.1 0.2 -0.1
v 0.2 0.2 -0.1
v -0.2 0.2 -0.2
v -0.1 0.2 -0.2
v 0 0.2 -0.2
v 0.2 0.2 -0.2
v -0.3 0.2 -0.3
v -0.2 0.2 -0.3
v -0.1 0.2 -0.3
v -0.2 0.2 -0.4
v -0.1 0.2 -0.4
v -0.2 0.3 0.1
v -0.1 0.3 0.1
v -0.3 0.3 0
v -0.2 0.3 0
v -0.1 0.3 0
v 0 0.3 0
v 0.1 0.3 0
v -0.3 0.3 -0.1
v -0.2 0.3 -0.1
v 0 0.3 -0.1
v 0.1 0.3 -0.1
v -0.1 0.3 -0.2
v 0 0.3 -0.2
v -0.1 0.3 -0.3
v 0 0.3 -0.3
v -0.2 0.4 0
v -0.1 0.4 0
v -0.2 0.4 -0.1
v -0.1 0.4 -0.1
v -0.1 0.5 -0.1
v 0 0.5 -0.1
v -0.1 0.5 -0.2
v 0 0.5 -0.2
v -0.1 0.6 0
v 0 0.6 0
v -0.3 0.6 -0.1
v -0.2 0.6 -0.1
v -0.1 0.6 -0.1
v 0 0.6 -0.1
v -0.3 0.6 -0.2
v -0.2 0.6 -0.2
v -0.3 0.7 0
v -0.2 0.7 0
v -0.3 0.7 -0.1
v -0.2 0.7 -0.1
v -0.1 0.8 0
v 0 0.8 0
v 0.1 0.8 0
v -0.1 0.8 -0.1
v 0 0.8 -0.1
v 0.1 0.8 -0.1
v -0.3 0.9 0
v -0.2 0.9 0
v -0.1 0.9 0
v -0.3 0.9 -0.1
v -0.2 0.9 -0.1
v -0.1 0.9 -0.1
v -0.2 0.9 -0.2
v -0.1 0.9 -0.2
v -0.2 0.9 -0.3
v -0.1 0.9 -0.3
v -0.2 1 -0.1
v -0.1 1 -0.1
v 0 1 -0.1
v -0.2 1 -0.2
v -0.1 1 -0.2
v 0 1 -0.2
v -0.1 1.1 0
v 0 1.1 0
v -0.6 1.1 -0.1
v -0.5 1.1 -0.1
v -0.3 1.1 -0.1
v -0.1 1.1 -0.1
v 0 1.1 -0.1
v -0.6 1.1 -0.2
v -0.5 1.1 -0.2
v -0.3 1.1 -0.2
v -0.3 1.1 -0.3
v -0.6 1.1 -0.4
v -0.4 1.1 -0.4
v -0.3 1.1 -0.4
v -0.5 1.1 -0.5
v -0.4 1.1 -0.5
v -0.5 1.1 -0.6
v -0.4 1.1 -0.6
v -0.3 1.2 -0.1
v -0.2 1.2 -0.1
v -0.3 1.2 -0.2
v -0.2 1.2 -0.2
v -0.3 1.2 -0.3
v -0.2 1.2 -0.3
v -0.6 1.2 -0.5
v -0.5 1.2 -0.5
v -0.6 1.2 -0.6
v -0.5 1.2 -0.6
v -0.2 1.3 0.2
v -0.1 1.3 0.2
v -0.2 1.3 0.1
v -0.1 1.3 0.1
v -0.2 1.3 0
v -0.1 1.3 0
v -0.2 1.3 -0.1
v -0.1 1.3 -0.1
v -0.6 1.3 -0.4
v -0.4 1.3 -0.4
v -0.6 1.3 -0.5
v -0.4 1.3 -0.5
v -0.5 1.3 -0.6
v -0.4 1.3 -0.6
v -0.5 1.3 -0.7
v -0.4 1.3 -0.7
v -0.4 1.4 0.4
v -0.3 1.4 0.4
v -0.5 1.4 0.3
v -0.4 1.4 0.3
v -0.3 1.4 0.3
v -0.2 1.4 0.3
v -0.1 1.4 0.3
v -0.2 1.4 0.2
v -0.1 1.4 0.2
v -0.5 1.4 0.1
v -0.3 1.4 0.1
v -0.2 1.4 0.1
v -0.1 1.4 0.1
v -0.2 1.4 0
v -0.1 1.4 0
v 0.1 1.4 0
v -0.3 1.4 -0.1
v -0.2 1.4 -0.1
v -0.1 1.4 -0.2
v 0.1 1.4 -0.2
v -0.6 1.4 -0.5
v -0.4 1.4 -0.5
v -0.6 1.4 -0.6
v -0.5 1.4 -0.6
v -0.4 1.4 -0.6
v -0.6 1.4 -0.7
v -0.5 1.4 -0.7
v -0.6 1.5 0.3
v -0.5 1.5 0.3
v -0.6 1.5 0.2
v -0.6 1.5 0.1
v -0.5 1.5 0.1
v -0.3 1.5 -0.1
v -0.2 1.5 -0.1
v -0.3 1.5 -0.2
v -0.2 1.5 -0.2
v 0.1 1.5 -0.2
v 0.2 1.5 -0.2
v 0.1 1.5 -0.3
v 0.2 1.5 -0.3
v -0.7 1.6 0.2
v -0.6 1.6 0.2
v -0.7 1.6 0.1
v -0.6 1.6 0.1
v 0.2 1.6 0.1
v 0.3 1.6 0.1
v 0.1 1.6 0
v 0.2 1.6 0
v 0.3 1.6 0
v 0.4 1.6 0
v 0 1.6 -0.1
v 0.1 1.6 -0.1
v 0.2 1.6 -0.1
v 0 1.6 -0.2
v 0.1 1.6 -0.2
v 0.2 1.6 -0.2
v 0.4 1.6 -0.2
v 0.1 1.7 -0.1
v 0.2 1.7 -0.1
v 0.1 1.7 -0.2
v 0.2 1.7 -0.2

# faces
f 3/1/1 2/1/1 1/1/1
f 4/1/1 2/1/1 3/1/1
f 5/2/1 4/2/1 3/2/1
f 6/2/1 4/2/1 5/2/1
f 11/2/1 8/2/1 7/2/1
f 12/1/1 9/1/1 8/1/1
f 12/2/1 8/2/1 11/2/1
f 13/1/1 9/1/1 12/1/1
f 14/2/1 10/2/1 9/2/1
f 14/1/1 9/1/1 13/1/1
f 15/2/1 10/2/1 14/2/1
f 16/1/1 15/1/1 14/1/1
f 16/1/1 14/1/1 13/1/1
f 17/1/1 15/1/1 16/1/1
f 20/1/1 16/1/1 13/1/1
f 21/1/1 16/1/1 20/1/1
f 24/1/1 22/1/1 21/1/1
f 25/2/1 23/2/1 22/2/1
f 25/1/1 22/1/1 24/1/1
f 26/2/1 23/2/1 25/2/1
f 27/1/1 19/1/1 18/1/1
f 28/1/1 19/1/1 27/1/1
f 32/1/1 30/1/1 29/1/1
f 33/2/1 31/2/1 30/2/1
f 33/1/1 30/1/1 32/1/1
f 34/2/1 31/2/1 33/2/1
f 37/1/1 36/1/1 35/1/1
f 38/1/1 36/1/1 37/1/1
f 39/1/1 37/1/1 35/1/1
f 40/1/1 37/1/1 39/1/1
f 44/1/1 42/1/1 41/1/1
f 45/1/1 42/1/1 44/1/1
f 46/2/1 44/2/1 43/2/1
f 47/2/1 44/2/1 46/2/1
f 53/1/1 51/1/1 50/1/1
f 54/1/1 49/1/1 48/1/1
f 55/1/1 49/1/1 54/1/1
f 56/1/1 53/1/1 52/1/1
f 57/1/1 51/1/1 53/1/1
f 57/1/1 53/1/1 56/1/1
f 58/1/1 56/1/1 55/1/1
f 59/1/1 56/1/1 58/1/1
f 63/1/1 61/1/1 60/1/1
f 64/1/1 61/1/1 63/1/1
f 65/1/1 63/1/1 62/1/1
f 66/1/1 63/1/1 65/1/1
f 69/2/1 68/2/1 67/2/1
f 70/2/1 68/2/1 69/2/1
f 72/1/1 71/1/1 70/1/1
f 73/1/1 71/1/1 72/1/1
f 79/1/1 75/1/1 74/1/1
f 80/2/1 76/2/1 75/2/1
f 80/1/1 75/1/1 79/1/1
f 81/2/1 76/2/1 80/2/1
f 82/1/1 78/1/1 77/1/1
f 84/1/1 82/1/1 77/1/1
f 84/1/1 83/1/1 82/1/1
f 85/1/1 83/1/1 84/1/1
f 87/1/1 86/1/1 85/1/1
f 88/1/1 86/1/1 87/1/1
f 93/1/1 90/1/1 89/1/1
f 94/1/1 90/1/1 93/1/1
f 99/1/1 92/1/1 91/1/1
f 100/1/1 92/1/1 99/1/1
f 101/1/1 96/1/1 95/1/1
f 102/1/1 96/1/1 101/1/1
f 103/1/1 98/1/1 97/1/1
f 104/1/1 103/1/1 102/1/1
f 105/1/1 98/1/1 103/1/1
f 105/1/1 103/1/1 104/1/1
f 107/1/1 98/1/1 105/1/1
f 108/1/1 98/1/1 107/1/1
f 109/1/1 107/1/1 106/1/1
f 110/1/1 107/1/1 109/1/1
f 113/1/1 111/1/1 110/1/1
f 114/1/1 113/1/1 112/1/1
f 115/1/1 111/1/1 113/1/1
f 115/1/1 113/1/1 114/1/1
f 116/1/1 111/1/1 115/1/1
f 118/1/1 116/1/1 115/1/1
f 119/2/1 117/2/1 116/2/1
f 119/1/1 116/1/1 118/1/1
f 120/2/1 117/2/1 119/2/1
f 123/1/1 122/1/1 121/1/1
f 124/1/1 122/1/1 123/1/1
f 125/1/1 124/1/1 123/1/1
f 126/1/1 124/1/1 125/1/1
f 129/1/1 128/1/1 127/1/1
f 130/1/1 128/1/1 129/1/1
f 133/1/1 132/1/1 131/1/1
f 134/1/1 132/1/1 133/1/1
f 137/1/1 136/1/1 135/1/1
f 138/1/1 136/1/1 137/1/1
f 142/1/1 140/1/1 139/1/1
f 142/1/1 141/1/1 140/1/1
f 143/1/1 141/1/1 142/1/1
f 146/1/1 145/1/1 144/1/1
f 147/1/1 145/1/1 146/1/1
f 150/2/1 149/2/1 148/2/1
f 151/2/1 149/2/1 150/2/1
f 155/1/1 153/1/1 152/1/1
f 156/2/1 154/2/1 153/2/1
f 156/1/1 153/1/1 155/1/1
f 157/2/1 154/2/1 156/2/1
f 158/1/1 155/1/1 152/1/1
f 159/1/1 155/1/1 158/1/1
f 161/2/1 160/2/1 159/2/1
f 162/2/1 160/2/1 161/2/1
f 165/2/1 164/2/1 163/2/1
f 166/2/1 164/2/1 165/2/1
f 167/2/2 168/2/2 169/2/2
f 169/2/2 168/2/2 170/2/2
f 171/1/2 172/1/2 173/1/2
f 173/1/2 172/1/2 174/1/2
f 175/2/2 176/2/2 179/2/2
f 179/2/2 176/2/2 180/2/2
f 177/1/2 178/1/2 181/1/2
f 181/1/2 178/1/2 182/1/2
f 183/1/2 184/1/2 185/1/2
f 185/1/2 184/1/2 186/1/2
f 186/1/2 184/1/2 187/1/2
f 185/1/2 186/1/2 188/1/2
f 188/1/2 189/1/2 191/1/2
f 185/1/2 188/1/2 191/1/2
f 191/1/2 189/1/2 192/1/2
f 189/2/2 190/2/2 193/2/2
f 192/1/2 189/1/2 193/1/2
f 193/2/2 190/2/2 194/2/2
f 192/1/2 193/1/2 195/1/2
f 195/1/2 193/1/2 196/1/2
f 197/1/2 198/1/2 199/1/2
f 199/1/2 198/1/2 200/1/2
f 200/1/2 198/1/2 201/1/2
f 202/1/2 203/1/2 205/1/2
f 205/1/2 203/1/2 206/1/2
f 204/2/2 205/2/2 207/2/2
f 207/2/2 205/2/2 208/2/2
f 209/1/2 210/1/2 211/1/2
f 209/1/2 211/1/2 213/1/2
f 211/2/2 212/2/2 214/2/2
f 213/1/2 211/1/2 214/1/2
f 214/2/2 212/2/2 215/2/2
f 216/1/2 217/1/2 220/1/2
f 220/1/2 217/1/2 221/1/2
f 218/1/2 219/1/2 222/1/2
f 222/1/2 219/1/2 223/1/2
f 223/1/2 224/1/2 225/1/2
f 225/1/2 224/1/2 226/1/2
f 227/1/2 228/1/2 231/1/2
f 231/1/2 228/1/2 232/1/2
f 229/1/2 230/1/2 233/1/2
f 233/1/2 230/1/2 234/1/2
f 235/1/2 236/1/2 238/1/2
f 237/1/2 238/1/2 239/1/2
f 238/1/2 236/1/2 240/1/2
f 239/1/2 238/1/2 240/1/2
f 240/1/2 236/1/2 242/1/2
f 242/1/2 236/1/2 243/1/2
f 241/1/2 242/1/2 245/1/2
f 245/1/2 242/1/2 246/1/2
f 243/2/2 244/2/2 247/2/2
f 247/2/2 244/2/2 248/2/2
f 249/1/2 250/1/2 252/1/2
f 252/1/2 250/1/2 253/1/2
f 251/1/2 252/1/2 255/1/2
f 255/1/2 252/1/2 256/1/2
f 254/2/2 255/2/2 257/2/2
f 257/2/2 255/2/2 258/2/2
f 256/1/2 252/1/2 259/1/2
f 259/1/2 252/1/2 260/1/2
f 263/1/2 264/1/2 266/1/2
f 266/1/2 264/1/2 267/1/2
f 261/1/2 262/1/2 268/1/2
f 268/1/2 262/1/2 269/1/2
f 265/1/2 266/1/2 271/1/2
f 270/1/2 271/1/2 273/1/2
f 271/1/2 266/1/2 274/1/2
f 273/1/2 271/1/2 274/1/2
f 274/1/2 266/1/2 275/1/2
f 272/1/2 273/1/2 276/1/2
f 273/1/2 274/1/2 276/1/2
f 276/1/2 274/1/2 277/1/2
f 272/1/2 276/1/2 278/1/2
f 278/1/2 276/1/2 279/1/2
f 280/1/2 281/1/2 282/1/2
f 282/1/2 281/1/2 283/1/2
f 282/2/2 283/2/2 285/2/2
f 285/2/2 283/2/2 286/2/2
f 284/2/2 285/2/2 287/2/2
f 287/2/2 285/2/2 288/2/2
f 289/1/2 290/1/2 291/1/2
f 291/1/2 290/1/2 292/1/2
f 293/1/2 294/1/2 297/1/2
f 295/1/2 296/1/2 299/1/2
f 299/1/2 296/1/2 300/1/2
f 297/1/2 298/1/2 301/1/2
f 293/1/2 297/1/2 301/1/2
f 301/1/2 298/1/2 302/1/2
f 302/1/2 298/1/2 303/1/2
f 302/1/2 303/1/2 304/1/2
f 304/1/2 303/1/2 305/1/2
f 306/2/2 307/2/2 308/2/2
f 308/2/2 307/2/2 309/2/2
f 310/1/2 311/1/2 313/1/2
f 313/1/2 311/1/2 314/1/2
f 312/1/2 313/1/2 315/1/2
f 315/1/2 313/1/2 316/1/2
f 317/1/2 318/1/2 319/1/2
f 319/1/2 318/1/2 320/1/2
f 320/1/2 318/1/2 321/1/2
f 321/1/2 318/1/2 322/1/2
f 323/2/2 324/2/2 325/2/2
f 325/2/2 324/2/2 326/2/2
f 327/2/2 328/2/2 329/2/2
f 329/2/2 328/2/2 330/2/2
f 331/1/2 332/1/2 334/1/2
f 333/2/2 334/2/2 336/2/2
f 334/1/2 332/1/2 337/1/2
f 336/2/2 334/2/2 337/2/2
f 337/1/2 332/1/2 338/1/2
f 335/2/2 336/2/2 339/2/2
f 339/2/2 336/2/2 340/2/2
f 341/1/2 342/1/2 343/1/2
f 343/1/2 342/1/2 344/1/2
f 347/2/3 346/2/3 345/2/3
f 348/2/3 346/2/3 347/2/3
f 351/1/3 350/1/3 349/1/3
f 352/1/3 350/1/3 351/1/3
f 354/1/3 351/1/3 349/1/3
f 355/1/3 351/1/3 354/1/3
f 356/1/3 354/1/3 353/1/3
f 357/1/3 354/1/3 356/1/3
f 359/1/3 358/1/3 357/1/3
f 360/1/3 358/1/3 359/1/3
f 361/2/3 360/2/3 359/2/3
f 362/2/3 360/2/3 361/2/3
f 366/1/3 364/1/3 363/1/3
f 367/2/3 365/2/3 364/2/3
f 367/1/3 364/1/3 366/1/3
f 368/2/3 365/2/3 367/2/3
f 373/1/3 370/1/3 369/1/3
f 374/1/3 372/1/3 371/1/3
f 376/1/3 373/1/3 369/1/3
f 377/1/3 373/1/3 376/1/3
f 378/1/3 375/1/3 374/1/3
f 378/1/3 374/1/3 371/1/3
f 379/1/3 375/1/3 378/1/3
f 382/1/3 381/1/3 380/1/3
f 383/1/3 381/1/3 382/1/3
f 384/1/3 381/1/3 383/1/3
f 388/1/3 384/1/3 383/1/3
f 388/1/3 385/1/3 384/1/3
f 389/1/3 385/1/3 388/1/3
f 390/1/3 385/1/3 389/1/3
f 391/1/3 387/1/3 386/1/3
f 392/1/3 387/1/3 391/1/3
f 395/1/3 394/1/3 393/1/3
f 396/1/3 394/1/3 395/1/3
f 399/2/3 398/2/3 397/2/3
f 400/2/3 398/2/3 399/2/3
f 403/1/3 402/1/3 401/1/3
f 404/1/3 402/1/3 403/1/3
f 410/1/3 405/1/3 404/1/3
f 411/1/3 405/1/3 410/1/3
f 414/1/3 407/1/3 406/1/3
f 415/1/3 407/1/3 414/1/3
f 416/2/3 409/2/3 408/2/3
f 417/2/3 409/2/3 416/2/3
f 421/1/3 412/1/3 411/1/3
f 422/1/3 412/1/3 421/1/3
f 423/1/3 415/1/3 414/1/3
f 423/1/3 417/1/3 416/1/3
f 423/1/3 414/1/3 413/1/3
f 423/1/3 416/1/3 415/1/3
f 424/1/3 417/1/3 423/1/3
f 425/1/3 417/1/3 424/1/3
f 426/1/3 417/1/3 425/1/3
f 427/1/3 417/1/3 426/1/3
f 428/1/3 419/1/3 418/1/3
f 429/1/3 419/1/3 428/1/3
f 430/1/3 419/1/3 429/1/3
f 432/1/3 422/1/3 421/1/3
f 432/1/3 421/1/3 420/1/3
f 432/1/3 423/1/3 422/1/3
f 432/1/3 424/1/3 423/1/3
f 433/1/3 424/1/3 432/1/3
f 434/1/3 426/1/3 425/1/3
f 435/1/3 426/1/3 434/1/3
f 436/2/3 429/2/3 428/2/3
f 437/2/3 429/2/3 436/2/3
f 438/1/3 431/1/3 430/1/3
f 439/1/3 431/1/3 438/1/3
f 442/1/3 432/1/3 420/1/3
f 443/1/3 432/1/3 442/1/3
f 444/2/3 435/2/3 434/2/3
f 445/2/3 435/2/3 444/2/3
f 446/1/3 431/1/3 439/1/3
f 447/1/3 431/1/3 446/1/3
f 449/1/3 441/1/3 440/1/3
f 450/1/3 441/1/3 449/1/3
f 451/1/3 448/1/3 447/1/3
f 452/1/3 448/1/3 451/1/3
f 453/1/3 448/1/3 452/1/3
f 454/2/3 452/2/3 451/2/3
f 455/2/3 452/2/3 454/2/3
f 457/1/3 456/1/3 455/1/3
f 458/1/3 456/1/3 457/1/3
f 461/2/3 460/2/3 459/2/3
f 462/2/3 460/2/3 461/2/3
f 466/1/3 462/1/3 461/1/3
f 467/1/3 462/1/3 466/1/3
f 472/1/3 464/1/3 463/1/3
f 473/1/3 464/1/3 472/1/3
f 474/1/3 467/1/3 466/1/3
f 474/1/3 466/1/3 465/1/3
f 474/1/3 468/1/3 467/1/3
f 475/1/3 468/1/3 474/1/3
f 476/1/3 468/1/3 475/1/3
f 477/1/3 470/1/3 469/1/3
f 478/1/3 470/1/3 477/1/3
f 479/1/3 472/1/3 471/1/3
f 480/1/3 472/1/3 479/1/3
f 482/1/3 475/1/3 474/1/3
f 483/1/3 475/1/3 482/1/3
f 484/1/3 482/1/3 481/1/3
f 485/2/3 483/2/3 482/2/3
f 485/1/3 482/1/3 484/1/3
f 486/2/3 483/2/3 485/2/3
f 493/1/3 488/1/3 487/1/3
f 494/1/3 488/1/3 493/1/3
f 496/2/3 490/2/3 489/2/3
f 497/2/3 490/2/3 496/2/3
f 499/1/3 492/1/3 491/1/3
f 500/1/3 492/1/3 499/1/3
f 501/1/3 495/1/3 494/1/3
f 502/2/3 498/2/3 497/2/3
f 503/2/3 498/2/3 502/2/3
f 504/1/3 501/1/3 494/1/3
f 505/1/3 501/1/3 504/1/3
f 508/1/3 507/1/3 506/1/3
f 509/1/3 507/1/3 508/1/3
f 512/1/3 511/1/3 510/1/3
f 513/1/3 511/1/3 512/1/3
f 514/2/4 515/2/4 516/2/4
f 516/2/4 515/2/4 517/2/4
f 518/1/4 519/1/4 521/1/4
f 519/2/4 520/2/4 521/2/4
f 521/2/4 520/2/4 522/2/4
f 518/1/4 521/1/4 523/1/4
f 523/1/4 521/1/4 524/1/4
f 518/1/4 523/1/4 526/1/4
f 525/1/4 526/1/4 527/1/4
f 526/1/4 523/1/4 528/1/4
f 527/1/4 526/1/4 528/1/4
f 529/1/4 530/1/4 531/1/4
f 531/1/4 530/1/4 532/1/4
f 532/1/4 533/1/4 534/1/4
f 534/1/4 533/1/4 535/1/4
f 536/1/4 537/1/4 538/1/4
f 538/1/4 537/1/4 539/1/4
f 539/1/4 540/1/4 547/1/4
f 547/1/4 540/1/4 548/1/4
f 541/1/4 542/1/4 549/1/4
f 549/1/4 542/1/4 550/1/4
f 543/2/4 544/2/4 551/2/4
f 551/2/4 544/2/4 552/2/4
f 545/1/4 546/1/4 555/1/4
f 555/1/4 546/1/4 556/1/4
f 553/1/4 554/1/4 561/1/4
f 554/1/4 555/1/4 561/1/4
f 561/1/4 555/1/4 562/1/4
f 562/1/4 555/1/4 563/1/4
f 563/1/4 555/1/4 564/1/4
f 557/1/4 558/1/4 567/1/4
f 567/1/4 558/1/4 568/1/4
f 559/1/4 560/1/4 569/1/4
f 569/1/4 560/1/4 570/1/4
f 561/2/4 562/2/4 571/2/4
f 571/2/4 562/2/4 572/2/4
f 563/1/4 564/1/4 573/1/4
f 573/1/4 564/1/4 574/1/4
f 565/1/4 566/1/4 575/1/4
f 575/1/4 566/1/4 576/1/4
f 569/2/4 570/2/4 577/2/4
f 577/2/4 570/2/4 578/2/4
f 579/1/4 580/1/4 581/1/4
f 581/1/4 580/1/4 582/1/4
f 583/1/4 584/1/4 591/1/4
f 591/1/4 584/1/4 592/1/4
f 586/1/4 587/1/4 594/1/4
f 585/1/4 586/1/4 594/1/4
f 594/1/4 587/1/4 595/1/4
f 595/1/4 587/1/4 596/1/4
f 588/1/4 589/1/4 597/1/4
f 597/1/4 589/1/4 598/1/4
f 592/1/4 593/1/4 599/1/4
f 591/1/4 592/1/4 599/1/4
f 590/1/4 591/1/4 599/1/4
f 599/1/4 593/1/4 600/1/4
f 600/1/4 593/1/4 601/1/4
f 601/1/4 593/1/4 602/1/4
f 594/1/4 595/1/4 603/1/4
f 603/1/4 595/1/4 604/1/4
f 600/1/4 601/1/4 609/1/4
f 609/1/4 601/1/4 610/1/4
f 602/1/4 603/1/4 611/1/4
f 603/2/4 604/2/4 612/2/4
f 611/1/4 603/1/4 612/1/4
f 612/2/4 604/2/4 613/2/4
f 605/1/4 606/1/4 615/1/4
f 607/1/4 608/1/4 619/1/4
f 614/1/4 615/1/4 620/1/4
f 615/1/4 606/1/4 621/1/4
f 620/1/4 615/1/4 621/1/4
f 621/1/4 606/1/4 622/1/4
f 616/2/4 617/2/4 623/2/4
f 623/2/4 617/2/4 624/2/4
f 618/1/4 619/1/4 626/1/4
f 619/1/4 608/1/4 627/1/4
f 626/1/4 619/1/4 627/1/4
f 621/1/4 622/1/4 628/1/4
f 623/1/4 624/1/4 629/1/4
f 624/2/4 625/2/4 630/2/4
f 629/1/4 624/1/4 630/1/4
f 630/2/4 625/2/4 631/2/4
f 628/1/4 629/1/4 632/1/4
f 629/1/4 630/1/4 632/1/4
f 621/1/4 628/1/4 632/1/4
f 632/1/4 630/1/4 633/1/4
f 633/1/4 630/1/4 634/1/4
f 634/1/4 630/1/4 635/1/4
f 636/1/4 637/1/4 640/1/4
f 640/1/4 637/1/4 641/1/4
f 638/2/4 639/2/4 644/2/4
f 644/2/4 639/2/4 645/2/4
f 642/2/4 643/2/4 649/2/4
f 649/2/4 643/2/4 650/2/4
f 647/1/4 648/1/4 652/1/4
f 646/1/4 647/1/4 652/1/4
f 652/1/4 648/1/4 653/1/4
f 651/1/4 652/1/4 654/1/4
f 654/1/4 652/1/4 655/1/4
f 656/2/4 657/2/4 658/2/4
f 658/2/4 657/2/4 659/2/4
f 660/1/4 661/1/4 662/1/4
f 662/1/4 661/1/4 663/1/4
f 664/1/4 665/1/4 666/1/4
f 666/1/4 665/1/4 667/1/4
f 664/1/4 666/1/4 668/1/4
f 668/1/4 666/1/4 669/1/4
f 670/1/4 671/1/4 673/1/4
f 673/1/4 671/1/4 674/1/4
f 672/1/4 673/1/4 675/1/4
f 675/1/4 673/1/4 676/1/4
f 677/2/4 678/2/4 680/2/4
f 678/1/4 679/1/4 681/1/4
f 680/2/4 678/2/4 681/2/4
f 681/1/4 679/1/4 682/1/4
f 680/1/4 681/1/4 685/1/4
f 685/1/4 681/1/4 686/1/4
f 683/1/4 684/1/4 687/1/4
f 687/1/4 684/1/4 688/1/4
f 689/2/4 690/2/4 692/2/4
f 692/2/4 690/2/4 693/2/4
f 691/2/4 692/2/4 694/2/4
f 694/2/4 692/2/4 695/2/4
f 699/1/5 697/1/5 696/1/5
f 700/1/5 697/1/5 699/1/5
f 703/1/5 699/1/5 698/1/5
f 703/1/5 701/1/5 700/1/5
f 703/1/5 700/1/5 699/1/5
f 704/1/5 701/1/5 703/1/5
f 706/1/5 703/1/5 702/1/5
f 706/1/5 705/1/5 704/1/5
f 706/1/5 704/1/5 703/1/5
f 707/1/5 705/1/5 706/1/5
f 708/1/5 705/1/5 707/1/5
f 709/1/5 705/1/5 708/1/5
f 710/1/5 708/1/5 707/1/5
f 711/1/5 708/1/5 710/1/5
f 712/1/5 708/1/5 711/1/5
f 713/1/5 708/1/5 712/1/5
f 714/1/5 712/1/5 711/1/5
f 715/1/5 712/1/5 714/1/5
f 719/1/5 717/1/5 716/1/5
f 720/1/5 717/1/5 719/1/5
f 721/1/5 719/1/5 718/1/5
f 722/1/5 719/1/5 721/1/5
f 725/1/5 724/1/5 723/1/5
f 726/1/5 724/1/5 725/1/5
f 730/1/5 728/1/5 727/1/5
f 731/2/5 729/2/5 728/2/5
f 731/1/5 728/1/5 730/1/5
f 732/2/5 729/2/5 731/2/5
f 735/2/5 734/2/5 733/2/5
f 736/2/5 734/2/5 735/2/5
f 740/1/5 738/1/5 737/1/5
f 741/1/5 738/1/5 740/1/5
f 742/2/5 740/2/5 739/2/5
f 743/2/5 740/2/5 742/2/5
f 746/1/5 745/1/5 744/1/5
f 747/1/5 745/1/5 746/1/5
f 754/1/5 749/1/5 748/1/5
f 755/2/5 750/2/5 749/2/5
f 755/1/5 749/1/5 754/1/5
f 756/2/5 750/2/5 755/2/5
f 757/2/5 752/2/5 751/2/5
f 758/1/5 753/1/5 752/1/5
f 758/2/5 752/2/5 757/2/5
f 759/1/5 753/1/5 758/1/5
f 760/1/5 758/1/5 757/1/5
f 760/1/5 759/1/5 758/1/5
f 761/1/5 759/1/5 760/1/5
f 762/1/5 760/1/5 757/1/5
f 763/1/5 760/1/5 762/1/5
f 764/2/5 763/2/5 762/2/5
f 765/1/5 760/1/5 763/1/5
f 765/2/5 763/2/5 764/2/5
f 766/1/5 760/1/5 765/1/5
f 769/2/5 768/2/5 767/2/5
f 770/2/5 768/2/5 769/2/5
f 773/1/5 772/1/5 771/1/5
f 775/1/5 773/1/5 771/1/5
f 775/1/5 774/1/5 773/1/5
f 776/1/5 774/1/5 775/1/5
f 777/1/5 774/1/5 776/1/5
f 778/1/5 774/1/5 777/1/5
f 779/1/5 774/1/5 778/1/5
f 781/1/5 780/1/5 779/1/5
f 782/1/5 780/1/5 781/1/5
f 784/1/5 783/1/5 782/1/5
f 785/1/5 783/1/5 784/1/5
f 788/1/5 787/1/5 786/1/5
f 789/1/5 787/1/5 788/1/5
f 790/2/5 789/2/5 788/2/5
f 791/2/5 789/2/5 790/2/5
f 795/2/5 793/2/5 792/2/5
f 796/2/5 793/2/5 795/2/5
f 800/1/5 795/1/5 794/1/5
f 801/1/5 797/1/5 796/1/5
f 802/2/5 798/2/5 797/2/5
f 802/1/5 797/1/5 801/1/5
f 803/2/5 798/2/5 802/2/5
f 804/1/5 800/1/5 799/1/5
f 805/1/5 795/1/5 800/1/5
f 805/1/5 800/1/5 804/1/5
f 810/1/5 807/1/5 806/1/5
f 811/1/5 807/1/5 810/1/5
f 813/1/5 809/1/5 808/1/5
f 814/1/5 809/1/5 813/1/5
f 816/1/5 813/1/5 812/1/5
f 817/1/5 813/1/5 816/1/5
f 818/1/5 815/1/5 814/1/5
f 819/1/5 815/1/5 818/1/5
f 822/1/5 821/1/5 820/1/5
f 823/1/5 821/1/5 822/1/5
f 824/2/5 823/2/5 822/2/5
f 825/2/5 823/2/5 824/2/5
f 831/1/5 827/1/5 826/1/5
f 832/2/5 828/2/5 827/2/5
f 832/1/5 827/1/5 831/1/5
f 833/2/5 828/2/5 832/2/5
f 834/1/5 830/1/5 829/1/5
f 835/1/5 830/1/5 834/1/5
f 838/2/5 837/2/5 836/2/5
f 839/2/5 837/2/5 838/2/5
f 842/2/5 841/2/5 840/2/5
f 843/2/5 841/2/5 842/2/5
f 847/1/5 844/1/5 843/1/5
f 848/2/5 846/2/5 845/2/5
f 849/2/5 846/2/5 848/2/5
f 850/1/5 844/1/5 847/1/5
f 851/1/5 844/1/5 850/1/5
f 852/1/6 853/1/6 854/1/6
f 854/1/6 853/1/6 855/1/6
f 856/1/6 857/1/6 860/1/6
f 860/1/6 857/1/6 861/1/6
f 858/1/6 859/1/6 862/1/6
f 862/1/6 859/1/6 863/1/6
f 864/1/6 865/1/6 867/1/6
f 867/1/6 865/1/6 868/1/6
f 866/1/6 867/1/6 869/1/6
f 869/1/6 867/1/6 870/1/6
f 871/1/6 872/1/6 875/1/6
f 875/1/6 872/1/6 876/1/6
f 873/1/6 874/1/6 879/1/6
f 879/1/6 874/1/6 880/1/6
f 876/1/6 877/1/6 881/1/6
f 875/1/6 876/1/6 881/1/6
f 881/1/6 877/1/6 882/1/6
f 878/1/6 879/1/6 883/1/6
f 883/1/6 879/1/6 884/1/6
f 884/1/6 885/1/6 889/1/6
f 886/1/6 887/1/6 891/1/6
f 887/1/6 888/1/6 891/1/6
f 891/1/6 888/1/6 892/1/6
f 889/1/6 890/1/6 893/1/6
f 884/1/6 889/1/6 893/1/6
f 893/1/6 890/1/6 894/1/6
f 894/1/6 890/1/6 895/1/6
f 894/1/6 895/1/6 896/1/6
f 896/1/6 895/1/6 897/1/6
f 898/1/6 899/1/6 901/1/6
f 901/1/6 899/1/6 902/1/6
f 900/1/6 901/1/6 905/1/6
f 905/1/6 901/1/6 906/1/6
f 903/1/6 904/1/6 907/1/6
f 907/1/6 904/1/6 908/1/6
f 909/1/6 910/1/6 911/1/6
f 911/1/6 910/1/6 912/1/6
f 913/1/6 914/1/6 915/1/6
f 915/1/6 914/1/6 916/1/6
f 917/1/6 918/1/6 919/1/6
f 919/1/6 918/1/6 920/1/6
f 921/1/6 922/1/6 925/1/6
f 925/1/6 922/1/6 926/1/6
f 923/1/6 924/1/6 927/1/6
f 927/1/6 924/1/6 928/1/6
f 929/1/6 930/1/6 931/1/6
f 931/1/6 930/1/6 932/1/6
f 933/1/6 934/1/6 936/1/6
f 934/2/6 935/2/6 937/2/6
f 936/1/6 934/1/6 937/1/6
f 937/2/6 935/2/6 938/2/6
f 939/2/6 940/2/6 942/2/6
f 940/1/6 941/1/6 943/1/6
f 942/2/6 940/2/6 943/2/6
f 943/1/6 941/1/6 944/1/6
f 945/2/6 946/2/6 947/2/6
f 947/2/6 946/2/6 948/2/6
f 949/1/6 950/1/6 952/1/6
f 950/2/6 951/2/6 953/2/6
f 952/1/6 950/1/6 953/1/6
f 953/2/6 951/2/6 954/2/6
f 955/2/6 956/2/6 960/2/6
f 960/2/6 956/2/6 961/2/6
f 957/2/6 958/2/6 962/2/6
f 958/1/6 959/1/6 963/1/6
f 962/2/6 958/2/6 963/2/6
f 963/1/6 959/1/6 964/1/6
f 962/1/6 963/1/6 965/1/6
f 963/1/6 964/1/6 965/1/6
f 962/1/6 965/1/6 966/1/6
f 966/1/6 965/1/6 967/1/6
f 967/1/6 965/1/6 968/1/6
f 969/1/6 970/1/6 971/1/6
f 971/1/6 970/1/6 972/1/6
f 973/1/6 974/1/6 975/1/6
f 975/1/6 974/1/6 976/1/6
f 975/2/6 976/2/6 977/2/6
f 977/2/6 976/2/6 978/2/6
f 979/1/6 980/1/6 981/1/6
f 981/1/6 980/1/6 982/1/6
f 983/1/6 984/1/6 985/1/6
f 985/1/6 984/1/6 986/1/6
f 987/1/6 988/1/6 989/1/6
f 989/1/6 988/1/6 990/1/6
f 991/1/6 992/1/6 993/1/6
f 993/1/6 992/1/6 994/1/6
f 995/2/6 996/2/6 997/2/6
f 997/2/6 996/2/6 998/2/6
f 999/2/6 1000/2/6 1002/2/6
f 1002/2/6 1000/2/6 1003/2/6
f 1001/1/6 1002/1/6 1006/1/6
f 1004/2/6 1005/2/6 1006/2/6
f 1003/1/6 1004/1/6 1006/1/6
f 1002/1/6 1003/1/6 1006/1/6
f 1006/2/6 1005/2/6 1007/2/6
f 1001/1/6 1006/1/6 1008/1/6
f 1008/1/6 1006/1/6 1009/1/6
f 1009/1/6 1006/1/6 1010/1/6
f 1010/1/6 1011/1/6 1012/1/6
f 1009/1/6 1010/1/6 1012/1/6
f 1012/1/6 1011/1/6 1013/1/6
f 1009/1/6 1012/1/6 1015/1/6
f 1015/1/6 1012/1/6 1016/1/6
f 1013/1/6 1014/1/6 1017/1/6
f 1017/1/6 1014/1/6 1018/1/6
f 1019/1/6 1020/1/6 1021/1/6
f 1021/1/6 1020/1/6 1022/1/6
f 1022/1/6 1020/1/6 1023/1/6
f 1021/2/6 1022/2/6 1024/2/6
f 1024/2/6 1022/2/6 1025/2/6
f 1026/1/6 1027/1/6 1028/1/6
f 1028/1/6 1027/1/6 1029/1/6
f 1029/1/6 1027/1/6 1030/1/6
f 1031/1/6 1032/1/6 1033/1/6
f 1033/1/6 1032/1/6 1034/1/6
f 1035/2/6 1036/2/6 1037/2/6
f 1037/2/6 1036/2/6 1038/2/6
f 1039/2/6 1040/2/6 1041/2/6
f 1041/2/6 1040/2/6 1042/2/6
f 1043/2/6 1044/2/6 1046/2/6
f 1046/2/6 1044/2/6 1047/2/6
f 1045/1/6 1046/1/6 1050/1/6
f 1047/1/6 1048/1/6 1050/1/6
f 1046/1/6 1047/1/6 1050/1/6
f 1050/1/6 1048/1/6 1051/1/6
f 1049/2/6 1050/2/6 1052/2/6
f 1052/2/6 1050/2/6 1053/2/6
f 1051/1/6 1048/1/6 1054/1/6
f 1054/1/6 1048/1/6 1055/1/6
f 1056/2/6 1057/2/6 1058/2/6
f 1058/2/6 1057/2/6 1059/2/6
