# MagicaVoxel @ Ephtracy

# group
o Arbol

# material
mtllib ArbolHumano-0-Arbol.mtl
usemtl palette

# normals
vn -1 0 0
vn 1 0 0
vn 0 0 1
vn 0 0 -1
vn 0 -1 0
vn 0 1 0

# texcoords
vt 0.724609 0.5
vt 0.755859 0.5

# verts
v -1.1 2.7 0.9
v -1.1 2.7 0.0999999
v -1.1 3.3 0.9
v -1.1 3.3 0.0999999
v -1 2.5 1.2
v -1 2.5 -0.2
v -1 2.6 -0.4
v -1 2.6 -1.3
v -1 2.7 0.9
v -1 2.7 0.0999999
v -1 3 -0.4
v -1 3 -1.3
v -1 3.3 0.9
v -1 3.3 0.0999999
v -1 3.6 1.2
v -1 3.6 -0.2
v -0.8 2.2 1.4
v -0.8 2.2 -0.5
v -0.8 2.3 1.5
v -0.8 2.3 1.4
v -0.8 2.3 -0.5
v -0.8 2.3 -1.5
v -0.8 2.5 1.2
v -0.8 2.5 -0.2
v -0.8 2.5 -1.5
v -0.8 2.5 -1.6
v -0.8 2.6 -0.4
v -0.8 2.6 -1.3
v -0.8 3 -0.4
v -0.8 3 -1.3
v -0.8 3.1 -1.5
v -0.8 3.1 -1.6
v -0.8 3.3 -0.5
v -0.8 3.3 -1.5
v -0.8 3.6 1.2
v -0.8 3.6 -0.2
v -0.8 3.7 1.5
v -0.8 3.7 1.4
v -0.8 3.7 -0.3
v -0.8 3.7 -0.5
v -0.8 3.9 1.4
v -0.8 3.9 -0.3
v -0.7 2.2 1.5
v -0.7 2.2 1.4
v -0.7 2.3 1.5
v -0.7 2.3 1.4
v -0.7 2.3 -1.5
v -0.7 2.3 -1.6
v -0.7 2.5 -1.5
v -0.7 2.5 -1.6
v -0.7 3.1 -1.5
v -0.7 3.1 -1.6
v -0.7 3.3 -1.5
v -0.7 3.3 -1.6
v -0.7 3.7 1.5
v -0.7 3.7 1.4
v -0.7 3.7 -0.3
v -0.7 3.7 -0.5
v -0.7 3.9 1.5
v -0.7 3.9 1.4
v -0.7 3.9 -0.3
v -0.7 3.9 -0.5
v -0.6 0 0.3
v -0.6 0 -0.3
v -0.6 0.2 0.3
v -0.6 0.2 -0.3
v -0.5 0 0.4
v -0.5 0 0.3
v -0.5 0 -0.3
v -0.5 0 -0.4
v -0.5 0.2 0.4
v -0.5 0.2 0.3
v -0.5 0.2 -0.3
v -0.5 0.2 -0.4
v -0.5 0.4 0.3
v -0.5 0.4 -0.3
v -0.5 2 0.4
v -0.5 2 -0.3
v -0.5 2.2 0.4
v -0.5 2.2 -0.3
v -0.5 2.5 1.7
v -0.5 2.5 1.5
v -0.5 2.6 -1.6
v -0.5 2.6 -1.8
v -0.5 3 -1.6
v -0.5 3 -1.8
v -0.5 3.3 -0.7
v -0.5 3.3 -1.2
v -0.5 3.4 -0.7
v -0.5 3.4 -1.2
v -0.5 3.6 1.7
v -0.5 3.6 1.5
v -0.5 3.9 1.2
v -0.5 3.9 -0.2
v -0.5 4 1.2
v -0.5 4 -0.2
v -0.4 0 0.5
v -0.4 0 0.4
v -0.4 0 -0.4
v -0.4 0 -0.5
v -0.4 0.2 0.5
v -0.4 0.2 0.4
v -0.4 0.2 0.3
v -0.4 0.2 -0.3
v -0.4 0.2 -0.4
v -0.4 0.2 -0.5
v -0.4 0.4 0.4
v -0.4 0.4 0.3
v -0.4 0.4 0.2
v -0.4 0.4 -0.2
v -0.4 0.4 -0.3
v -0.4 0.4 -0.4
v -0.4 2 1
v -0.4 2 0.4
v -0.4 2 0.2
v -0.4 2 -0.2
v -0.4 2 -0.7
v -0.4 2 -1
v -0.4 2.1 1.1
v -0.4 2.1 1
v -0.4 2.2 1.1
v -0.4 2.2 0.4
v -0.4 2.2 -0.5
v -0.4 2.2 -0.7
v -0.4 2.2 -1
v -0.4 2.2 -1.2
v -0.4 2.3 -0.5
v -0.4 2.3 -1.2
v -0.3 0 0.6
v -0.3 0 0.5
v -0.3 0 -0.5
v -0.3 0 -0.6
v -0.3 0.2 0.6
v -0.3 0.2 0.5
v -0.3 0.2 0.4
v -0.3 0.2 -0.4
v -0.3 0.2 -0.5
v -0.3 0.2 -0.6
v -0.3 0.4 0.5
v -0.3 0.4 0.4
v -0.3 0.4 0.3
v -0.3 0.4 0.2
v -0.3 0.4 -0.2
v -0.3 0.4 -0.3
v -0.3 0.4 -0.4
v -0.3 0.4 -0.5
v -0.3 2 0.3
v -0.3 2 0.2
v -0.3 2 -0.2
v -0.3 2 -0.3
v -0.2 0.4 0.4
v -0.2 0.4 0.3
v -0.2 0.4 -0.3
v -0.2 0.4 -0.4
v -0.2 1.6 0.8
v -0.2 1.6 0.4
v -0.2 1.6 -0.4
v -0.2 1.6 -0.8
v -0.2 1.7 0.9
v -0.2 1.7 0.8
v -0.2 1.7 -0.8
v -0.2 1.7 -0.9
v -0.2 1.8 -0.9
v -0.2 1.8 -1
v -0.2 2 0.9
v -0.2 2 0.3
v -0.2 2 -0.3
v -0.2 2 -0.7
v -0.2 2 -1
v -0.2 2 -1.2
v -0.2 2.2 -0.3
v -0.2 2.2 -0.7
v -0.2 2.2 -1
v -0.2 2.2 -1.2
v -0.2 2.7 1.8
v -0.2 2.7 1.7
v -0.2 3.3 1.8
v -0.2 3.3 1.7
v 0.1 0.1 0.4
v 0.1 0.1 0.3
v 0.1 0.1 -0.2
v 0.1 0.1 -0.4
v 0.1 0.3 0.4
v 0.1 0.3 0.3
v 0.1 0.3 0.0999999
v 0.1 0.3 -0.1
v 0.1 0.3 -0.2
v 0.1 0.3 -0.4
v 0.1 1.7 0.8
v 0.1 1.7 0.3
v 0.1 1.8 -0.2
v 0.1 1.8 -0.9
v 0.1 1.9 0.6
v 0.1 1.9 0.0999999
v 0.1 2 -0.2
v 0.1 2 -0.3
v 0.1 2 -0.5
v 0.1 2 -0.6
v 0.1 2 -0.7
v 0.1 2.1 0.8
v 0.1 2.1 0.6
v 0.1 2.1 -0.1
v 0.1 2.1 -0.2
v 0.1 2.1 -0.6
v 0.1 2.1 -0.8
v 0.1 2.1 -0.9
v 0.1 2.1 -1
v 0.1 2.1 -1.1
v 0.1 2.2 -0.7
v 0.1 2.2 -0.8
v 0.1 2.2 -0.9
v 0.1 2.2 -1
v 0.1 2.3 -0.6
v 0.1 2.3 -0.8
v 0.1 2.3 -0.9
v 0.1 2.3 -1.1
v 0.1 2.8 1.7
v 0.1 2.8 1.6
v 0.1 3.2 1.7
v 0.1 3.2 1.6
v 0.2 0.1 0.3
v 0.2 0.1 0.0999999
v 0.2 0.1 -0.1
v 0.2 0.1 -0.2
v 0.2 0.3 0.3
v 0.2 0.3 0.0999999
v 0.2 0.3 -0.1
v 0.2 0.3 -0.2
v 0.2 2.1 1
v 0.2 2.1 0.9
v 0.2 2.1 0.5
v 0.2 2.1 0.0999999
v 0.2 2.1 -0.1
v 0.2 2.1 -0.8
v 0.2 2.1 -0.9
v 0.2 2.2 0.5
v 0.2 2.2 -0.8
v 0.2 2.2 -0.9
v 0.2 2.3 1
v 0.2 2.3 0.5
v 0.2 2.3 -0.6
v 0.2 2.3 -0.8
v 0.2 2.3 -0.9
v 0.2 2.3 -1.1
v 0.2 2.4 -0.6
v 0.2 2.4 -1.1
v 0.3 0.1 0.0999999
v 0.3 0.1 -0.1
v 0.3 0.3 0.0999999
v 0.3 0.3 -0.1
v 0.3 2.1 0.3
v 0.3 2.1 0.2
v 0.3 2.1 -0.2
v 0.3 2.2 0.3
v 0.3 2.3 0.3
v 0.3 2.3 -0.2
v 0.3 2.6 1.6
v 0.3 2.6 1.4
v 0.3 2.7 -1.5
v 0.3 2.7 -1.7
v 0.3 2.9 -1.5
v 0.3 2.9 -1.7
v 0.3 3.2 -0.8
v 0.3 3.2 -1.1
v 0.3 3.3 -0.8
v 0.3 3.3 -1.1
v 0.3 3.5 1.6
v 0.3 3.5 1.4
v 0.3 3.8 1.1
v 0.3 3.8 -0.1
v 0.3 3.9 1.1
v 0.3 3.9 -0.1
v 0.5 2.3 1.4
v 0.5 2.3 1.3
v 0.5 2.3 -0.2
v 0.5 2.3 -0.4
v 0.5 2.4 1.4
v 0.5 2.4 1.3
v 0.5 2.4 -0.2
v 0.5 2.4 -0.4
v 0.5 2.4 -1.4
v 0.5 2.4 -1.5
v 0.5 2.6 -1.4
v 0.5 2.6 -1.5
v 0.5 3 -1.4
v 0.5 3 -1.5
v 0.5 3.2 -1.4
v 0.5 3.2 -1.5
v 0.5 3.6 1.4
v 0.5 3.6 1.3
v 0.5 3.6 -0.2
v 0.5 3.6 -0.4
v 0.5 3.8 1.4
v 0.5 3.8 1.3
v 0.5 3.8 -0.2
v 0.5 3.8 -0.4
v 0.6 2.3 1.3
v 0.6 2.3 -0.2
v 0.6 2.4 1.4
v 0.6 2.4 1.3
v 0.6 2.4 -0.2
v 0.6 2.4 -1.4
v 0.6 2.6 1.1
v 0.6 2.6 -0.1
v 0.6 2.6 -1.4
v 0.6 2.6 -1.5
v 0.6 2.7 -0.5
v 0.6 2.7 -1.2
v 0.6 2.9 -0.5
v 0.6 2.9 -1.2
v 0.6 3 -1.4
v 0.6 3 -1.5
v 0.6 3.2 -0.4
v 0.6 3.2 -1.4
v 0.6 3.5 1.1
v 0.6 3.5 -0.1
v 0.6 3.6 1.4
v 0.6 3.6 1.3
v 0.6 3.6 -0.2
v 0.6 3.6 -0.4
v 0.6 3.8 1.3
v 0.6 3.8 -0.2
v 0.8 2.6 1.1
v 0.8 2.6 -0.1
v 0.8 2.7 -0.5
v 0.8 2.7 -1.2
v 0.8 2.8 0.8
v 0.8 2.8 0.2
v 0.8 2.9 -0.5
v 0.8 2.9 -1.2
v 0.8 3.2 0.8
v 0.8 3.2 0.2
v 0.8 3.5 1.1
v 0.8 3.5 -0.1
v 0.9 2.8 0.8
v 0.9 2.8 0.2
v 0.9 3.2 0.8
v 0.9 3.2 0.2
v -1 2.8 0.8
v -1 2.8 0.2
v -1 3.2 0.8
v -1 3.2 0.2
v -0.9 2.6 1.1
v -0.9 2.6 -0.1
v -0.9 2.7 -0.5
v -0.9 2.7 -1.2
v -0.9 2.8 0.8
v -0.9 2.8 0.2
v -0.9 2.9 -0.5
v -0.9 2.9 -1.2
v -0.9 3.2 0.8
v -0.9 3.2 0.2
v -0.9 3.5 1.1
v -0.9 3.5 -0.1
v -0.7 2.3 1.3
v -0.7 2.3 -0.4
v -0.7 2.4 1.4
v -0.7 2.4 1.3
v -0.7 2.4 -0.4
v -0.7 2.4 -1.4
v -0.7 2.6 1.1
v -0.7 2.6 -0.1
v -0.7 2.6 -1.4
v -0.7 2.6 -1.5
v -0.7 2.7 -0.5
v -0.7 2.7 -1.2
v -0.7 2.9 -0.5
v -0.7 2.9 -1.2
v -0.7 3 -1.4
v -0.7 3 -1.5
v -0.7 3.2 -0.4
v -0.7 3.2 -1.4
v -0.7 3.5 1.1
v -0.7 3.5 -0.1
v -0.7 3.6 1.4
v -0.7 3.6 1.3
v -0.7 3.6 -0.2
v -0.7 3.6 -0.4
v -0.7 3.8 1.3
v -0.7 3.8 -0.2
v -0.6 2.3 1.4
v -0.6 2.3 1.3
v -0.6 2.4 1.4
v -0.6 2.4 1.3
v -0.6 2.4 -1.4
v -0.6 2.4 -1.5
v -0.6 2.6 -1.4
v -0.6 2.6 -1.5
v -0.6 3 -1.4
v -0.6 3 -1.5
v -0.6 3.2 -1.4
v -0.6 3.2 -1.5
v -0.6 3.6 1.4
v -0.6 3.6 1.3
v -0.6 3.6 -0.2
v -0.6 3.6 -0.4
v -0.6 3.8 1.4
v -0.6 3.8 1.3
v -0.6 3.8 -0.2
v -0.6 3.8 -0.4
v -0.4 0.1 0.0999999
v -0.4 0.1 -0.1
v -0.4 0.3 0.0999999
v -0.4 0.3 -0.1
v -0.4 2.1 0.3
v -0.4 2.1 0.2
v -0.4 2.1 -0.2
v -0.4 2.2 0.3
v -0.4 2.3 0.3
v -0.4 2.3 -0.2
v -0.4 2.6 1.6
v -0.4 2.6 1.4
v -0.4 2.7 -1.5
v -0.4 2.7 -1.7
v -0.4 2.9 -1.5
v -0.4 2.9 -1.7
v -0.4 3.2 -0.8
v -0.4 3.2 -1.1
v -0.4 3.3 -0.8
v -0.4 3.3 -1.1
v -0.4 3.5 1.6
v -0.4 3.5 1.4
v -0.4 3.8 1.1
v -0.4 3.8 -0.1
v -0.4 3.9 1.1
v -0.4 3.9 -0.1
v -0.3 0.1 0.3
v -0.3 0.1 0.0999999
v -0.3 0.1 -0.1
v -0.3 0.1 -0.2
v -0.3 0.3 0.3
v -0.3 0.3 0.0999999
v -0.3 0.3 -0.1
v -0.3 0.3 -0.2
v -0.3 2.1 1
v -0.3 2.1 0.5
v -0.3 2.1 0.0999999
v -0.3 2.1 -0.1
v -0.3 2.1 -0.8
v -0.3 2.1 -0.9
v -0.3 2.2 0.5
v -0.3 2.3 1
v -0.3 2.3 0.5
v -0.3 2.3 -0.6
v -0.3 2.3 -0.8
v -0.3 2.3 -0.9
v -0.3 2.3 -1.1
v -0.3 2.4 -0.6
v -0.3 2.4 -1.1
v -0.1 0.1 0.4
v -0.1 0.1 0.3
v -0.1 0.1 -0.2
v -0.1 0.1 -0.4
v -0.1 0.3 0.4
v -0.1 0.3 0.3
v -0.1 0.3 0.0999999
v -0.1 0.3 -0.1
v -0.1 0.3 -0.2
v -0.1 0.3 -0.4
v -0.1 1.7 0.8
v -0.1 1.7 0.3
v -0.1 1.8 -0.2
v -0.1 1.8 -0.9
v -0.1 1.9 0.6
v -0.1 1.9 0.0999999
v -0.1 2 -0.2
v -0.1 2 -0.3
v -0.1 2 -0.5
v -0.1 2 -0.6
v -0.1 2 -0.7
v -0.1 2.1 0.8
v -0.1 2.1 0.6
v -0.1 2.1 -0.1
v -0.1 2.1 -0.2
v -0.1 2.1 -0.6
v -0.1 2.1 -0.8
v -0.1 2.1 -0.9
v -0.1 2.1 -1
v -0.1 2.1 -1.1
v -0.1 2.2 -0.7
v -0.1 2.2 -0.8
v -0.1 2.2 -0.9
v -0.1 2.2 -1
v -0.1 2.3 -0.6
v -0.1 2.3 -0.8
v -0.1 2.3 -0.9
v -0.1 2.3 -1.1
v -0.1 2.8 1.7
v -0.1 2.8 1.6
v -0.1 3.2 1.7
v -0.1 3.2 1.6
v 0.2 0 0.6
v 0.2 0 0.5
v 0.2 0 -0.5
v 0.2 0 -0.6
v 0.2 0.2 0.6
v 0.2 0.2 0.5
v 0.2 0.2 0.4
v 0.2 0.2 -0.4
v 0.2 0.2 -0.5
v 0.2 0.2 -0.6
v 0.2 0.4 0.5
v 0.2 0.4 0.4
v 0.2 0.4 0.3
v 0.2 0.4 -0.3
v 0.2 0.4 -0.4
v 0.2 0.4 -0.5
v 0.2 1.6 0.8
v 0.2 1.6 0.4
v 0.2 1.6 -0.4
v 0.2 1.6 -0.8
v 0.2 1.7 0.9
v 0.2 1.7 0.8
v 0.2 1.7 -0.8
v 0.2 1.7 -0.9
v 0.2 1.8 -0.9
v 0.2 1.8 -1
v 0.2 2 0.9
v 0.2 2 0.3
v 0.2 2 -0.3
v 0.2 2 -0.7
v 0.2 2 -1
v 0.2 2 -1.2
v 0.2 2.2 -0.3
v 0.2 2.2 -0.7
v 0.2 2.2 -1
v 0.2 2.2 -1.2
v 0.2 2.7 1.8
v 0.2 2.7 1.7
v 0.2 3.3 1.8
v 0.2 3.3 1.7
v 0.3 0 0.5
v 0.3 0 0.4
v 0.3 0 -0.4
v 0.3 0 -0.5
v 0.3 0.2 0.5
v 0.3 0.2 0.4
v 0.3 0.2 0.3
v 0.3 0.2 -0.3
v 0.3 0.2 -0.4
v 0.3 0.2 -0.5
v 0.3 0.4 0.4
v 0.3 0.4 0.3
v 0.3 0.4 -0.3
v 0.3 0.4 -0.4
v 0.3 2 1
v 0.3 2 0.4
v 0.3 2 0.3
v 0.3 2 -0.3
v 0.3 2 -0.7
v 0.3 2 -1
v 0.3 2.1 1.1
v 0.3 2.1 1
v 0.3 2.2 1.1
v 0.3 2.2 0.4
v 0.3 2.2 -0.5
v 0.3 2.2 -0.7
v 0.3 2.2 -1
v 0.3 2.2 -1.2
v 0.3 2.3 -0.5
v 0.3 2.3 -1.2
v 0.4 0 0.4
v 0.4 0 0.3
v 0.4 0 -0.3
v 0.4 0 -0.4
v 0.4 0.2 0.4
v 0.4 0.2 0.3
v 0.4 0.2 -0.3
v 0.4 0.2 -0.4
v 0.4 0.4 0.3
v 0.4 0.4 -0.3
v 0.4 2 0.4
v 0.4 2 -0.3
v 0.4 2.2 0.4
v 0.4 2.2 -0.3
v 0.4 2.5 1.7
v 0.4 2.5 1.5
v 0.4 2.6 -1.6
v 0.4 2.6 -1.8
v 0.4 3 -1.6
v 0.4 3 -1.8
v 0.4 3.3 -0.7
v 0.4 3.3 -1.2
v 0.4 3.4 -0.7
v 0.4 3.4 -1.2
v 0.4 3.6 1.7
v 0.4 3.6 1.5
v 0.4 3.9 1.2
v 0.4 3.9 -0.2
v 0.4 4 1.2
v 0.4 4 -0.2
v 0.5 0 0.3
v 0.5 0 -0.3
v 0.5 0.2 0.3
v 0.5 0.2 -0.3
v 0.6 2.2 1.5
v 0.6 2.2 1.4
v 0.6 2.2 -0.3
v 0.6 2.2 -0.5
v 0.6 2.3 1.5
v 0.6 2.3 1.4
v 0.6 2.3 -0.3
v 0.6 2.3 -0.5
v 0.6 2.3 -1.5
v 0.6 2.3 -1.6
v 0.6 2.5 -1.5
v 0.6 2.5 -1.6
v 0.6 3.1 -1.5
v 0.6 3.1 -1.6
v 0.6 3.3 -1.5
v 0.6 3.3 -1.6
v 0.6 3.7 1.5
v 0.6 3.7 1.4
v 0.6 3.7 -0.3
v 0.6 3.7 -0.5
v 0.6 3.9 1.5
v 0.6 3.9 1.4
v 0.6 3.9 -0.3
v 0.6 3.9 -0.5
v 0.7 2.2 1.4
v 0.7 2.2 -0.3
v 0.7 2.3 1.5
v 0.7 2.3 1.4
v 0.7 2.3 -0.3
v 0.7 2.3 -1.5
v 0.7 2.5 1.2
v 0.7 2.5 -0.2
v 0.7 2.5 -1.5
v 0.7 2.5 -1.6
v 0.7 2.6 -0.4
v 0.7 2.6 -1.3
v 0.7 3 -0.4
v 0.7 3 -1.3
v 0.7 3.1 -1.5
v 0.7 3.1 -1.6
v 0.7 3.3 -0.5
v 0.7 3.3 -1.5
v 0.7 3.6 1.2
v 0.7 3.6 -0.2
v 0.7 3.7 1.5
v 0.7 3.7 1.4
v 0.7 3.7 -0.3
v 0.7 3.7 -0.5
v 0.7 3.9 1.4
v 0.7 3.9 -0.3
v 0.9 2.5 1.2
v 0.9 2.5 -0.2
v 0.9 2.6 -0.4
v 0.9 2.6 -1.3
v 0.9 2.7 0.9
v 0.9 2.7 0.0999999
v 0.9 3 -0.4
v 0.9 3 -1.3
v 0.9 3.3 0.9
v 0.9 3.3 0.0999999
v 0.9 3.6 1.2
v 0.9 3.6 -0.2
v 1 2.7 0.9
v 1 2.7 0.0999999
v 1 3.3 0.9
v 1 3.3 0.0999999
v -0.2 2.7 1.8
v -0.2 3.3 1.8
v 0.2 2.7 1.8
v 0.2 3.3 1.8
v -0.5 2.5 1.7
v -0.5 3.6 1.7
v -0.2 2.7 1.7
v -0.2 3.3 1.7
v 0.2 2.7 1.7
v 0.2 3.3 1.7
v 0.4 2.5 1.7
v 0.4 3.6 1.7
v -0.8 2.3 1.5
v -0.8 3.7 1.5
v -0.7 2.2 1.5
v -0.7 2.3 1.5
v -0.7 3.7 1.5
v -0.7 3.9 1.5
v -0.5 2.5 1.5
v -0.5 3.6 1.5
v 0.4 2.5 1.5
v 0.4 3.6 1.5
v 0.6 2.2 1.5
v 0.6 2.3 1.5
v 0.6 3.7 1.5
v 0.6 3.9 1.5
v 0.7 2.3 1.5
v 0.7 3.7 1.5
v -0.8 2.2 1.4
v -0.8 2.3 1.4
v -0.8 3.7 1.4
v -0.8 3.9 1.4
v -0.7 2.2 1.4
v -0.7 2.3 1.4
v -0.7 3.7 1.4
v -0.7 3.9 1.4
v 0.6 2.2 1.4
v 0.6 2.3 1.4
v 0.6 3.7 1.4
v 0.6 3.9 1.4
v 0.7 2.2 1.4
v 0.7 2.3 1.4
v 0.7 3.7 1.4
v 0.7 3.9 1.4
v -1 2.5 1.2
v -1 3.6 1.2
v -0.8 2.5 1.2
v -0.8 3.6 1.2
v -0.5 3.9 1.2
v -0.5 4 1.2
v 0.4 3.9 1.2
v 0.4 4 1.2
v 0.7 2.5 1.2
v 0.7 3.6 1.2
v 0.9 2.5 1.2
v 0.9 3.6 1.2
v -0.4 2.1 1.1
v -0.4 2.2 1.1
v 0.3 2.1 1.1
v 0.3 2.2 1.1
v -0.4 2 1
v -0.4 2.1 1
v 0.3 2 1
v 0.3 2.1 1
v -1.1 2.7 0.9
v -1.1 3.3 0.9
v -1 2.7 0.9
v -1 3.3 0.9
v -0.2 1.7 0.9
v -0.2 2 0.9
v 0.2 1.7 0.9
v 0.2 2 0.9
v 0.9 2.7 0.9
v 0.9 3.3 0.9
v 1 2.7 0.9
v 1 3.3 0.9
v -0.2 1.6 0.8
v -0.2 1.7 0.8
v 0.2 1.6 0.8
v 0.2 1.7 0.8
v -0.3 0 0.6
v -0.3 0.2 0.6
v -0.1 1.9 0.6
v -0.1 2.1 0.6
v 0.1 1.9 0.6
v 0.1 2.1 0.6
v 0.2 0 0.6
v 0.2 0.2 0.6
v -0.4 0 0.5
v -0.4 0.2 0.5
v -0.3 0 0.5
v -0.3 0.2 0.5
v -0.3 0.4 0.5
v -0.3 2.1 0.5
v -0.3 2.2 0.5
v -0.3 2.3 0.5
v -0.2 2.1 0.5
v 0.2 0 0.5
v 0.2 0.2 0.5
v 0.2 0.4 0.5
v 0.2 2.1 0.5
v 0.2 2.2 0.5
v 0.2 2.3 0.5
v 0.3 0 0.5
v 0.3 0.2 0.5
v -0.5 0 0.4
v -0.5 0.2 0.4
v -0.5 2 0.4
v -0.5 2.2 0.4
v -0.4 0 0.4
v -0.4 0.2 0.4
v -0.4 0.4 0.4
v -0.4 2 0.4
v -0.4 2.2 0.4
v -0.3 0.2 0.4
v -0.3 0.4 0.4
v -0.2 0.4 0.4
v -0.2 1.6 0.4
v 0.2 0.2 0.4
v 0.2 0.4 0.4
v 0.2 1.6 0.4
v 0.3 0 0.4
v 0.3 0.2 0.4
v 0.3 0.4 0.4
v 0.3 2 0.4
v 0.3 2.2 0.4
v 0.4 0 0.4
v 0.4 0.2 0.4
v 0.4 2 0.4
v 0.4 2.2 0.4
v -0.6 0 0.3
v -0.6 0.2 0.3
v -0.5 0 0.3
v -0.5 0.2 0.3
v -0.5 0.4 0.3
v -0.4 0.2 0.3
v -0.4 0.4 0.3
v -0.3 0.4 0.3
v -0.3 2 0.3
v -0.2 0.4 0.3
v -0.2 2 0.3
v 0.2 0.4 0.3
v 0.2 2 0.3
v 0.3 0.2 0.3
v 0.3 0.4 0.3
v 0.3 2 0.3
v 0.4 0 0.3
v 0.4 0.2 0.3
v 0.4 0.4 0.3
v 0.5 0 0.3
v 0.5 0.2 0.3
v -1 2.8 0.2
v -1 3.2 0.2
v -0.9 2.8 0.2
v -0.9 3.2 0.2
v -0.4 0.4 0.2
v -0.4 2 0.2
v -0.3 0.4 0.2
v -0.3 2 0.2
v 0.8 2.8 0.2
v 0.8 3.2 0.2
v 0.9 2.8 0.2
v 0.9 3.2 0.2
v -0.9 2.6 -0.1
v -0.9 3.5 -0.1
v -0.7 2.6 -0.1
v -0.7 3.5 -0.1
v -0.4 0.1 -0.1
v -0.4 0.3 -0.1
v -0.4 3.8 -0.1
v -0.4 3.9 -0.1
v -0.3 0.1 -0.1
v -0.3 0.3 -0.1
v -0.3 2.1 -0.1
v -0.1 0.3 -0.1
v -0.1 2.1 -0.1
v 0.1 0.3 -0.1
v 0.1 2.1 -0.1
v 0.2 0.1 -0.1
v 0.2 0.3 -0.1
v 0.2 2.1 -0.1
v 0.3 0.1 -0.1
v 0.3 0.3 -0.1
v 0.3 3.8 -0.1
v 0.3 3.9 -0.1
v 0.6 2.6 -0.1
v 0.6 3.5 -0.1
v 0.8 2.6 -0.1
v 0.8 3.5 -0.1
v -0.7 3.6 -0.2
v -0.7 3.8 -0.2
v -0.6 3.6 -0.2
v -0.6 3.8 -0.2
v -0.4 2.1 -0.2
v -0.4 2.3 -0.2
v -0.3 0.1 -0.2
v -0.3 0.3 -0.2
v -0.1 0.1 -0.2
v -0.1 0.3 -0.2
v -0.1 1.8 -0.2
v -0.1 2 -0.2
v -0.1 2.1 -0.2
v 0.1 0.1 -0.2
v 0.1 0.3 -0.2
v 0.1 1.8 -0.2
v 0.1 2 -0.2
v 0.1 2.1 -0.2
v 0.2 0.1 -0.2
v 0.2 0.3 -0.2
v 0.3 2.1 -0.2
v 0.3 2.3 -0.2
v 0.5 2.3 -0.2
v 0.5 2.4 -0.2
v 0.5 3.6 -0.2
v 0.5 3.8 -0.2
v 0.6 2.3 -0.2
v 0.6 2.4 -0.2
v 0.6 3.6 -0.2
v 0.6 3.8 -0.2
v -1 2.6 -0.4
v -1 3 -0.4
v -0.8 2.6 -0.4
v -0.8 3 -0.4
v -0.7 2.3 -0.4
v -0.7 2.4 -0.4
v -0.7 3.2 -0.4
v -0.7 3.6 -0.4
v -0.6 3.6 -0.4
v -0.6 3.8 -0.4
v -0.1 0.1 -0.4
v -0.1 0.3 -0.4
v 0.1 0.1 -0.4
v 0.1 0.3 -0.4
v 0.5 2.3 -0.4
v 0.5 2.4 -0.4
v 0.5 3.6 -0.4
v 0.5 3.8 -0.4
v 0.6 3.2 -0.4
v 0.6 3.6 -0.4
v 0.7 2.6 -0.4
v 0.7 3 -0.4
v 0.9 2.6 -0.4
v 0.9 3 -0.4
v -0.5 3.3 -0.7
v -0.5 3.4 -0.7
v -0.4 2 -0.7
v -0.4 2.2 -0.7
v -0.2 2 -0.7
v -0.2 2.2 -0.7
v 0.2 2 -0.7
v 0.2 2.2 -0.7
v 0.3 2 -0.7
v 0.3 2.2 -0.7
v 0.4 3.3 -0.7
v 0.4 3.4 -0.7
v -0.3 2.1 -0.9
v -0.3 2.3 -0.9
v -0.2 2.1 -0.9
v -0.2 2.2 -0.9
v -0.1 1.8 -0.9
v -0.1 2.1 -0.9
v -0.1 2.2 -0.9
v -0.1 2.3 -0.9
v 0.1 1.8 -0.9
v 0.1 2.1 -0.9
v 0.1 2.2 -0.9
v 0.1 2.3 -0.9
v 0.2 2.1 -0.9
v 0.2 2.2 -0.9
v 0.2 2.3 -0.9
v -0.4 3.2 -1.1
v -0.4 3.3 -1.1
v -0.3 2.3 -1.1
v -0.3 2.4 -1.1
v -0.1 2.1 -1.1
v -0.1 2.3 -1.1
v 0.1 2.1 -1.1
v 0.1 2.3 -1.1
v 0.2 2.3 -1.1
v 0.2 2.4 -1.1
v 0.3 3.2 -1.1
v 0.3 3.3 -1.1
v -0.9 2.7 -1.2
v -0.9 2.9 -1.2
v -0.7 2.7 -1.2
v -0.7 2.9 -1.2
v 0.6 2.7 -1.2
v 0.6 2.9 -1.2
v 0.8 2.7 -1.2
v 0.8 2.9 -1.2
v -0.7 2.4 -1.4
v -0.7 2.6 -1.4
v -0.7 3 -1.4
v -0.7 3.2 -1.4
v -0.6 2.4 -1.4
v -0.6 2.6 -1.4
v -0.6 3 -1.4
v -0.6 3.2 -1.4
v 0.5 2.4 -1.4
v 0.5 2.6 -1.4
v 0.5 3 -1.4
v 0.5 3.2 -1.4
v 0.6 2.4 -1.4
v 0.6 2.6 -1.4
v 0.6 3 -1.4
v 0.6 3.2 -1.4
v -0.7 2.6 -1.5
v -0.7 3 -1.5
v -0.6 2.4 -1.5
v -0.6 2.6 -1.5
v -0.6 3 -1.5
v -0.6 3.2 -1.5
v -0.4 2.7 -1.5
v -0.4 2.9 -1.5
v 0.3 2.7 -1.5
v 0.3 2.9 -1.5
v 0.5 2.4 -1.5
v 0.5 2.6 -1.5
v 0.5 3 -1.5
v 0.5 3.2 -1.5
v 0.6 2.6 -1.5
v 0.6 3 -1.5
v -0.4 2.7 -1.7
v -0.4 2.9 -1.7
v 0.3 2.7 -1.7
v 0.3 2.9 -1.7
v -0.1 2.8 1.7
v -0.1 3.2 1.7
v 0.1 2.8 1.7
v 0.1 3.2 1.7
v -0.4 2.6 1.6
v -0.4 3.5 1.6
v -0.1 2.8 1.6
v -0.1 3.2 1.6
v 0.1 2.8 1.6
v 0.1 3.2 1.6
v 0.3 2.6 1.6
v 0.3 3.5 1.6
v -0.7 2.4 1.4
v -0.7 3.6 1.4
v -0.6 2.3 1.4
v -0.6 2.4 1.4
v -0.6 3.6 1.4
v -0.6 3.8 1.4
v -0.4 2.6 1.4
v -0.4 3.5 1.4
v 0.3 2.6 1.4
v 0.3 3.5 1.4
v 0.5 2.3 1.4
v 0.5 2.4 1.4
v 0.5 3.6 1.4
v 0.5 3.8 1.4
v 0.6 2.4 1.4
v 0.6 3.6 1.4
v -0.7 2.3 1.3
v -0.7 2.4 1.3
v -0.7 3.6 1.3
v -0.7 3.8 1.3
v -0.6 2.3 1.3
v -0.6 2.4 1.3
v -0.6 3.6 1.3
v -0.6 3.8 1.3
v 0.5 2.3 1.3
v 0.5 2.4 1.3
v 0.5 3.6 1.3
v 0.5 3.8 1.3
v 0.6 2.3 1.3
v 0.6 2.4 1.3
v 0.6 3.6 1.3
v 0.6 3.8 1.3
v -0.9 2.6 1.1
v -0.9 3.5 1.1
v -0.7 2.6 1.1
v -0.7 3.5 1.1
v -0.4 3.8 1.1
v -0.4 3.9 1.1
v 0.3 3.8 1.1
v 0.3 3.9 1.1
v 0.6 2.6 1.1
v 0.6 3.5 1.1
v 0.8 2.6 1.1
v 0.8 3.5 1.1
v -0.3 2.1 1
v -0.3 2.3 1
v 0.2 2.1 1
v 0.2 2.3 1
v -1 2.8 0.8
v -1 3.2 0.8
v -0.9 2.8 0.8
v -0.9 3.2 0.8
v -0.1 1.7 0.8
v -0.1 2.1 0.8
v 0.1 1.7 0.8
v 0.1 2.1 0.8
v 0.8 2.8 0.8
v 0.8 3.2 0.8
v 0.9 2.8 0.8
v 0.9 3.2 0.8
v -0.1 0.1 0.4
v -0.1 0.3 0.4
v 0.1 0.1 0.4
v 0.1 0.3 0.4
v -0.4 2.1 0.3
v -0.4 2.2 0.3
v -0.4 2.3 0.3
v -0.3 0.1 0.3
v -0.3 0.3 0.3
v -0.2 2.1 0.3
v -0.1 0.1 0.3
v -0.1 0.3 0.3
v -0.1 1.7 0.3
v 0.1 0.1 0.3
v 0.1 0.3 0.3
v 0.1 1.7 0.3
v 0.2 0.1 0.3
v 0.2 0.3 0.3
v 0.2 2.1 0.3
v 0.3 2.1 0.3
v 0.3 2.2 0.3
v 0.3 2.3 0.3
v -1.1 2.7 0.0999999
v -1.1 3.3 0.0999999
v -1 2.7 0.0999999
v -1 3.3 0.0999999
v -0.4 0.1 0.0999999
v -0.4 0.3 0.0999999
v -0.3 0.1 0.0999999
v -0.3 0.3 0.0999999
v -0.3 2.1 0.0999999
v -0.1 0.3 0.0999999
v -0.1 1.9 0.0999999
v 0.1 0.3 0.0999999
v 0.1 1.9 0.0999999
v 0.2 0.1 0.0999999
v 0.2 0.3 0.0999999
v 0.2 2.1 0.0999999
v 0.3 0.1 0.0999999
v 0.3 0.3 0.0999999
v 0.9 2.7 0.0999999
v 0.9 3.3 0.0999999
v 1 2.7 0.0999999
v 1 3.3 0.0999999
v -1 2.5 -0.2
v -1 3.6 -0.2
v -0.8 2.5 -0.2
v -0.8 3.6 -0.2
v -0.5 3.9 -0.2
v -0.5 4 -0.2
v -0.4 0.4 -0.2
v -0.4 2 -0.2
v -0.3 0.4 -0.2
v -0.3 2 -0.2
v 0.4 3.9 -0.2
v 0.4 4 -0.2
v 0.7 2.5 -0.2
v 0.7 3.6 -0.2
v 0.9 2.5 -0.2
v 0.9 3.6 -0.2
v -0.8 3.7 -0.3
v -0.8 3.9 -0.3
v -0.7 3.7 -0.3
v -0.7 3.9 -0.3
v -0.6 0 -0.3
v -0.6 0.2 -0.3
v -0.5 0 -0.3
v -0.5 0.2 -0.3
v -0.5 0.4 -0.3
v -0.5 2 -0.3
v -0.5 2.2 -0.3
v -0.4 0.2 -0.3
v -0.4 0.4 -0.3
v -0.3 0.4 -0.3
v -0.3 2 -0.3
v -0.2 0.4 -0.3
v -0.2 2 -0.3
v -0.2 2.2 -0.3
v 0.2 0.4 -0.3
v 0.2 2 -0.3
v 0.2 2.2 -0.3
v 0.3 0.2 -0.3
v 0.3 0.4 -0.3
v 0.3 2 -0.3
v 0.4 0 -0.3
v 0.4 0.2 -0.3
v 0.4 0.4 -0.3
v 0.4 2 -0.3
v 0.4 2.2 -0.3
v 0.5 0 -0.3
v 0.5 0.2 -0.3
v 0.6 2.2 -0.3
v 0.6 2.3 -0.3
v 0.6 3.7 -0.3
v 0.6 3.9 -0.3
v 0.7 2.2 -0.3
v 0.7 2.3 -0.3
v 0.7 3.7 -0.3
v 0.7 3.9 -0.3
v -0.5 0 -0.4
v -0.5 0.2 -0.4
v -0.4 0 -0.4
v -0.4 0.2 -0.4
v -0.4 0.4 -0.4
v -0.3 0.2 -0.4
v -0.3 0.4 -0.4
v -0.2 0.4 -0.4
v -0.2 1.6 -0.4
v 0.2 0.2 -0.4
v 0.2 0.4 -0.4
v 0.2 1.6 -0.4
v 0.3 0 -0.4
v 0.3 0.2 -0.4
v 0.3 0.4 -0.4
v 0.4 0 -0.4
v 0.4 0.2 -0.4
v -0.9 2.7 -0.5
v -0.9 2.9 -0.5
v -0.8 2.2 -0.5
v -0.8 2.3 -0.5
v -0.8 3.3 -0.5
v -0.8 3.7 -0.5
v -0.7 2.7 -0.5
v -0.7 2.9 -0.5
v -0.7 3.7 -0.5
v -0.7 3.9 -0.5
v -0.4 0 -0.5
v -0.4 0.2 -0.5
v -0.4 2.2 -0.5
v -0.4 2.3 -0.5
v -0.3 0 -0.5
v -0.3 0.2 -0.5
v -0.3 0.4 -0.5
v 0.2 0 -0.5
v 0.2 0.2 -0.5
v 0.2 0.4 -0.5
v 0.3 0 -0.5
v 0.3 0.2 -0.5
v 0.3 2.2 -0.5
v 0.3 2.3 -0.5
v 0.6 2.2 -0.5
v 0.6 2.3 -0.5
v 0.6 2.7 -0.5
v 0.6 2.9 -0.5
v 0.6 3.7 -0.5
v 0.6 3.9 -0.5
v 0.7 3.3 -0.5
v 0.7 3.7 -0.5
v 0.8 2.7 -0.5
v 0.8 2.9 -0.5
v -0.3 0 -0.6
v -0.3 0.2 -0.6
v -0.3 2.3 -0.6
v -0.3 2.4 -0.6
v -0.1 2 -0.6
v -0.1 2.1 -0.6
v -0.1 2.3 -0.6
v 0.1 2 -0.6
v 0.1 2.1 -0.6
v 0.1 2.3 -0.6
v 0.2 0 -0.6
v 0.2 0.2 -0.6
v 0.2 2.3 -0.6
v 0.2 2.4 -0.6
v -0.4 3.2 -0.8
v -0.4 3.3 -0.8
v -0.3 2.1 -0.8
v -0.3 2.3 -0.8
v -0.2 1.6 -0.8
v -0.2 1.7 -0.8
v -0.2 2.1 -0.8
v -0.2 2.2 -0.8
v -0.1 2.1 -0.8
v -0.1 2.2 -0.8
v -0.1 2.3 -0.8
v 0.1 2.1 -0.8
v 0.1 2.2 -0.8
v 0.1 2.3 -0.8
v 0.2 1.6 -0.8
v 0.2 1.7 -0.8
v 0.2 2.1 -0.8
v 0.2 2.2 -0.8
v 0.2 2.3 -0.8
v 0.3 3.2 -0.8
v 0.3 3.3 -0.8
v -0.2 1.7 -0.9
v -0.2 1.8 -0.9
v 0.2 1.7 -0.9
v 0.2 1.8 -0.9
v -0.4 2 -1
v -0.4 2.2 -1
v -0.2 1.8 -1
v -0.2 2 -1
v -0.2 2.2 -1
v 0.2 1.8 -1
v 0.2 2 -1
v 0.2 2.2 -1
v 0.3 2 -1
v 0.3 2.2 -1
v -0.5 3.3 -1.2
v -0.5 3.4 -1.2
v -0.4 2.2 -1.2
v -0.4 2.3 -1.2
v -0.2 2 -1.2
v -0.2 2.2 -1.2
v 0.2 2 -1.2
v 0.2 2.2 -1.2
v 0.3 2.2 -1.2
v 0.3 2.3 -1.2
v 0.4 3.3 -1.2
v 0.4 3.4 -1.2
v -1 2.6 -1.3
v -1 3 -1.3
v -0.8 2.6 -1.3
v -0.8 3 -1.3
v 0.7 2.6 -1.3
v 0.7 3 -1.3
v 0.9 2.6 -1.3
v 0.9 3 -1.3
v -0.8 2.3 -1.5
v -0.8 2.5 -1.5
v -0.8 3.1 -1.5
v -0.8 3.3 -1.5
v -0.7 2.3 -1.5
v -0.7 2.5 -1.5
v -0.7 3.1 -1.5
v -0.7 3.3 -1.5
v 0.6 2.3 -1.5
v 0.6 2.5 -1.5
v 0.6 3.1 -1.5
v 0.6 3.3 -1.5
v 0.7 2.3 -1.5
v 0.7 2.5 -1.5
v 0.7 3.1 -1.5
v 0.7 3.3 -1.5
v -0.8 2.5 -1.6
v -0.8 3.1 -1.6
v -0.7 2.3 -1.6
v -0.7 2.5 -1.6
v -0.7 3.1 -1.6
v -0.7 3.3 -1.6
v -0.5 2.6 -1.6
v -0.5 3 -1.6
v 0.4 2.6 -1.6
v 0.4 3 -1.6
v 0.6 2.3 -1.6
v 0.6 2.5 -1.6
v 0.6 3.1 -1.6
v 0.6 3.3 -1.6
v 0.7 2.5 -1.6
v 0.7 3.1 -1.6
v -0.5 2.6 -1.8
v -0.5 3 -1.8
v 0.4 2.6 -1.8
v 0.4 3 -1.8
v -0.3 0 0.6
v 0.2 0 0.6
v -0.4 0 0.5
v -0.3 0 0.5
v 0.2 0 0.5
v 0.3 0 0.5
v -0.5 0 0.4
v -0.4 0 0.4
v 0.3 0 0.4
v 0.4 0 0.4
v -0.6 0 0.3
v -0.5 0 0.3
v 0.4 0 0.3
v 0.5 0 0.3
v -0.6 0 -0.3
v -0.5 0 -0.3
v 0.4 0 -0.3
v 0.5 0 -0.3
v -0.5 0 -0.4
v -0.4 0 -0.4
v 0.3 0 -0.4
v 0.4 0 -0.4
v -0.4 0 -0.5
v -0.3 0 -0.5
v 0.2 0 -0.5
v 0.3 0 -0.5
v -0.3 0 -0.6
v 0.2 0 -0.6
v -0.1 0.3 0.4
v 0.1 0.3 0.4
v -0.3 0.3 0.3
v -0.1 0.3 0.3
v 0.1 0.3 0.3
v 0.2 0.3 0.3
v -0.4 0.3 0.0999999
v -0.3 0.3 0.0999999
v -0.1 0.3 0.0999999
v 0.1 0.3 0.0999999
v 0.2 0.3 0.0999999
v 0.3 0.3 0.0999999
v -0.4 0.3 -0.1
v -0.3 0.3 -0.1
v -0.1 0.3 -0.1
v 0.1 0.3 -0.1
v 0.2 0.3 -0.1
v 0.3 0.3 -0.1
v -0.3 0.3 -0.2
v -0.1 0.3 -0.2
v 0.1 0.3 -0.2
v 0.2 0.3 -0.2
v -0.1 0.3 -0.4
v 0.1 0.3 -0.4
v -0.2 1.6 0.8
v 0.2 1.6 0.8
v -0.2 1.6 0.4
v 0.2 1.6 0.4
v -0.2 1.6 -0.4
v 0.2 1.6 -0.4
v -0.2 1.6 -0.8
v 0.2 1.6 -0.8
v -0.2 1.7 0.9
v 0.2 1.7 0.9
v -0.2 1.7 0.8
v 0.2 1.7 0.8
v -0.2 1.7 -0.8
v 0.2 1.7 -0.8
v -0.2 1.7 -0.9
v 0.2 1.7 -0.9
v -0.2 1.8 -0.9
v 0.2 1.8 -0.9
v -0.2 1.8 -1
v 0.2 1.8 -1
v -0.1 1.9 0.6
v 0.1 1.9 0.6
v -0.1 1.9 0.0999999
v 0.1 1.9 0.0999999
v -0.4 2 1
v 0.3 2 1
v -0.2 2 0.9
v 0.2 2 0.9
v -0.5 2 0.4
v -0.4 2 0.4
v 0.3 2 0.4
v 0.4 2 0.4
v -0.3 2 0.3
v -0.2 2 0.3
v 0.2 2 0.3
v 0.3 2 0.3
v -0.4 2 0.2
v -0.3 2 0.2
v -0.4 2 -0.2
v -0.3 2 -0.2
v -0.1 2 -0.2
v 0.1 2 -0.2
v -0.5 2 -0.3
v -0.3 2 -0.3
v -0.1 2 -0.3
v 0.1 2 -0.3
v 0.3 2 -0.3
v 0.4 2 -0.3
v -0.1 2 -0.5
v 0.1 2 -0.5
v -0.1 2 -0.6
v 0.1 2 -0.6
v -0.4 2 -0.7
v -0.2 2 -0.7
v 0.2 2 -0.7
v 0.3 2 -0.7
v -0.4 2 -1
v -0.2 2 -1
v 0.2 2 -1
v 0.3 2 -1
v -0.2 2 -1.2
v 0.2 2 -1.2
v -0.4 2.1 1.1
v 0.3 2.1 1.1
v -0.4 2.1 1
v 0.3 2.1 1
v -0.7 2.2 1.5
v 0.6 2.2 1.5
v -0.8 2.2 1.4
v -0.7 2.2 1.4
v 0.6 2.2 1.4
v 0.7 2.2 1.4
v -0.4 2.2 1.1
v 0.3 2.2 1.1
v -0.5 2.2 0.4
v -0.4 2.2 0.4
v 0.3 2.2 0.4
v 0.4 2.2 0.4
v -0.5 2.2 -0.3
v -0.2 2.2 -0.3
v 0.2 2.2 -0.3
v 0.4 2.2 -0.3
v 0.6 2.2 -0.3
v 0.7 2.2 -0.3
v -0.8 2.2 -0.5
v -0.4 2.2 -0.5
v 0.3 2.2 -0.5
v 0.6 2.2 -0.5
v -0.4 2.2 -0.7
v -0.2 2.2 -0.7
v 0.2 2.2 -0.7
v 0.3 2.2 -0.7
v -0.4 2.2 -1
v -0.2 2.2 -1
v 0.2 2.2 -1
v 0.3 2.2 -1
v -0.4 2.2 -1.2
v -0.2 2.2 -1.2
v 0.2 2.2 -1.2
v 0.3 2.2 -1.2
v -0.8 2.3 1.5
v -0.7 2.3 1.5
v 0.6 2.3 1.5
v 0.7 2.3 1.5
v -0.8 2.3 1.4
v -0.7 2.3 1.4
v 0.6 2.3 1.4
v 0.7 2.3 1.4
v 0.6 2.3 -0.3
v 0.7 2.3 -0.3
v -0.8 2.3 -0.5
v -0.4 2.3 -0.5
v 0.3 2.3 -0.5
v 0.6 2.3 -0.5
v -0.4 2.3 -1.2
v 0.3 2.3 -1.2
v -0.8 2.3 -1.5
v -0.7 2.3 -1.5
v 0.6 2.3 -1.5
v 0.7 2.3 -1.5
v -0.7 2.3 -1.6
v 0.6 2.3 -1.6
v -0.5 2.5 1.7
v 0.4 2.5 1.7
v -0.5 2.5 1.5
v 0.4 2.5 1.5
v -1 2.5 1.2
v -0.8 2.5 1.2
v 0.7 2.5 1.2
v 0.9 2.5 1.2
v -1 2.5 -0.2
v -0.8 2.5 -0.2
v 0.7 2.5 -0.2
v 0.9 2.5 -0.2
v -0.8 2.5 -1.5
v -0.7 2.5 -1.5
v 0.6 2.5 -1.5
v 0.7 2.5 -1.5
v -0.8 2.5 -1.6
v -0.7 2.5 -1.6
v 0.6 2.5 -1.6
v 0.7 2.5 -1.6
v -1 2.6 -0.4
v -0.8 2.6 -0.4
v 0.7 2.6 -0.4
v 0.9 2.6 -0.4
v -1 2.6 -1.3
v -0.8 2.6 -1.3
v 0.7 2.6 -1.3
v 0.9 2.6 -1.3
v -0.5 2.6 -1.6
v 0.4 2.6 -1.6
v -0.5 2.6 -1.8
v 0.4 2.6 -1.8
v -0.2 2.7 1.8
v 0.2 2.7 1.8
v -0.2 2.7 1.7
v 0.2 2.7 1.7
v -1.1 2.7 0.9
v -1 2.7 0.9
v 0.9 2.7 0.9
v 1 2.7 0.9
v -1.1 2.7 0.0999999
v -1 2.7 0.0999999
v 0.9 2.7 0.0999999
v 1 2.7 0.0999999
v -0.9 2.9 -0.5
v -0.7 2.9 -0.5
v 0.6 2.9 -0.5
v 0.8 2.9 -0.5
v -0.9 2.9 -1.2
v -0.7 2.9 -1.2
v 0.6 2.9 -1.2
v 0.8 2.9 -1.2
v -0.4 2.9 -1.5
v 0.3 2.9 -1.5
v -0.4 2.9 -1.7
v 0.3 2.9 -1.7
v -0.7 3 -1.4
v -0.6 3 -1.4
v 0.5 3 -1.4
v 0.6 3 -1.4
v -0.7 3 -1.5
v -0.6 3 -1.5
v 0.5 3 -1.5
v 0.6 3 -1.5
v -0.1 3.2 1.7
v 0.1 3.2 1.7
v -0.1 3.2 1.6
v 0.1 3.2 1.6
v -1 3.2 0.8
v -0.9 3.2 0.8
v 0.8 3.2 0.8
v 0.9 3.2 0.8
v -1 3.2 0.2
v -0.9 3.2 0.2
v 0.8 3.2 0.2
v 0.9 3.2 0.2
v -0.7 3.2 -0.4
v 0.6 3.2 -0.4
v -0.4 3.2 -0.8
v 0.3 3.2 -0.8
v -0.4 3.2 -1.1
v 0.3 3.2 -1.1
v -0.7 3.2 -1.4
v -0.6 3.2 -1.4
v 0.5 3.2 -1.4
v 0.6 3.2 -1.4
v -0.6 3.2 -1.5
v 0.5 3.2 -1.5
v -0.4 3.3 -0.8
v 0.3 3.3 -0.8
v -0.4 3.3 -1.1
v 0.3 3.3 -1.1
v -0.4 3.5 1.6
v 0.3 3.5 1.6
v -0.4 3.5 1.4
v 0.3 3.5 1.4
v -0.9 3.5 1.1
v -0.7 3.5 1.1
v 0.6 3.5 1.1
v 0.8 3.5 1.1
v -0.9 3.5 -0.1
v -0.7 3.5 -0.1
v 0.6 3.5 -0.1
v 0.8 3.5 -0.1
v -0.7 3.6 1.4
v -0.6 3.6 1.4
v 0.5 3.6 1.4
v 0.6 3.6 1.4
v -0.7 3.6 1.3
v -0.6 3.6 1.3
v 0.5 3.6 1.3
v 0.6 3.6 1.3
v -0.7 3.6 -0.2
v -0.6 3.6 -0.2
v 0.5 3.6 -0.2
v 0.6 3.6 -0.2
v -0.7 3.6 -0.4
v -0.6 3.6 -0.4
v 0.5 3.6 -0.4
v 0.6 3.6 -0.4
v -0.6 3.8 1.4
v 0.5 3.8 1.4
v -0.7 3.8 1.3
v -0.6 3.8 1.3
v 0.5 3.8 1.3
v 0.6 3.8 1.3
v -0.5 3.8 1.2
v 0.4 3.8 1.2
v -0.4 3.8 1.1
v 0.3 3.8 1.1
v -0.4 3.8 -0.1
v 0.3 3.8 -0.1
v -0.7 3.8 -0.2
v -0.6 3.8 -0.2
v -0.5 3.8 -0.2
v 0.4 3.8 -0.2
v 0.5 3.8 -0.2
v 0.6 3.8 -0.2
v -0.6 3.8 -0.4
v 0.5 3.8 -0.4
v -0.4 3.9 1.1
v 0.3 3.9 1.1
v -0.4 3.9 -0.1
v 0.3 3.9 -0.1
v -0.1 0.1 0.4
v 0.1 0.1 0.4
v -0.3 0.1 0.3
v -0.1 0.1 0.3
v 0.1 0.1 0.3
v 0.2 0.1 0.3
v -0.4 0.1 0.0999999
v -0.3 0.1 0.0999999
v 0.2 0.1 0.0999999
v 0.3 0.1 0.0999999
v -0.4 0.1 -0.1
v -0.3 0.1 -0.1
v 0.2 0.1 -0.1
v 0.3 0.1 -0.1
v -0.3 0.1 -0.2
v -0.1 0.1 -0.2
v 0.1 0.1 -0.2
v 0.2 0.1 -0.2
v -0.1 0.1 -0.4
v 0.1 0.1 -0.4
v -0.3 0.2 0.6
v 0.2 0.2 0.6
v -0.4 0.2 0.5
v -0.3 0.2 0.5
v 0.2 0.2 0.5
v 0.3 0.2 0.5
v -0.5 0.2 0.4
v -0.4 0.2 0.4
v -0.3 0.2 0.4
v 0.2 0.2 0.4
v 0.3 0.2 0.4
v 0.4 0.2 0.4
v -0.6 0.2 0.3
v -0.5 0.2 0.3
v -0.4 0.2 0.3
v 0.3 0.2 0.3
v 0.4 0.2 0.3
v 0.5 0.2 0.3
v -0.6 0.2 -0.3
v -0.5 0.2 -0.3
v -0.4 0.2 -0.3
v 0.3 0.2 -0.3
v 0.4 0.2 -0.3
v 0.5 0.2 -0.3
v -0.5 0.2 -0.4
v -0.4 0.2 -0.4
v -0.3 0.2 -0.4
v 0.2 0.2 -0.4
v 0.3 0.2 -0.4
v 0.4 0.2 -0.4
v -0.4 0.2 -0.5
v -0.3 0.2 -0.5
v 0.2 0.2 -0.5
v 0.3 0.2 -0.5
v -0.3 0.2 -0.6
v 0.2 0.2 -0.6
v -0.3 0.4 0.5
v 0.2 0.4 0.5
v -0.4 0.4 0.4
v -0.3 0.4 0.4
v -0.2 0.4 0.4
v 0.2 0.4 0.4
v 0.3 0.4 0.4
v -0.5 0.4 0.3
v -0.4 0.4 0.3
v -0.3 0.4 0.3
v -0.2 0.4 0.3
v 0.2 0.4 0.3
v 0.3 0.4 0.3
v 0.4 0.4 0.3
v -0.4 0.4 0.2
v -0.3 0.4 0.2
v -0.4 0.4 -0.2
v -0.3 0.4 -0.2
v -0.5 0.4 -0.3
v -0.4 0.4 -0.3
v -0.3 0.4 -0.3
v -0.2 0.4 -0.3
v 0.2 0.4 -0.3
v 0.3 0.4 -0.3
v 0.4 0.4 -0.3
v -0.4 0.4 -0.4
v -0.3 0.4 -0.4
v -0.2 0.4 -0.4
v 0.2 0.4 -0.4
v 0.3 0.4 -0.4
v -0.3 0.4 -0.5
v 0.2 0.4 -0.5
v -0.1 1.7 0.8
v 0.1 1.7 0.8
v -0.1 1.7 0.3
v 0.1 1.7 0.3
v -0.1 1.8 -0.2
v 0.1 1.8 -0.2
v -0.1 1.8 -0.9
v 0.1 1.8 -0.9
v -0.3 2.1 1
v 0.2 2.1 1
v -0.2 2.1 0.9
v 0.2 2.1 0.9
v -0.1 2.1 0.8
v 0.1 2.1 0.8
v -0.1 2.1 0.6
v 0.1 2.1 0.6
v -0.3 2.1 0.5
v -0.2 2.1 0.5
v 0.2 2.1 0.5
v -0.4 2.1 0.3
v -0.2 2.1 0.3
v 0.2 2.1 0.3
v 0.3 2.1 0.3
v -0.4 2.1 0.2
v -0.2 2.1 0.2
v 0.2 2.1 0.2
v 0.3 2.1 0.2
v -0.3 2.1 0.0999999
v 0.2 2.1 0.0999999
v -0.3 2.1 -0.1
v -0.1 2.1 -0.1
v 0.1 2.1 -0.1
v 0.2 2.1 -0.1
v -0.4 2.1 -0.2
v -0.1 2.1 -0.2
v 0.1 2.1 -0.2
v 0.3 2.1 -0.2
v -0.3 2.1 -0.8
v -0.2 2.1 -0.8
v -0.1 2.1 -0.8
v 0.1 2.1 -0.8
v 0.2 2.1 -0.8
v -0.3 2.1 -0.9
v -0.2 2.1 -0.9
v -0.1 2.1 -0.9
v 0.1 2.1 -0.9
v 0.2 2.1 -0.9
v -0.1 2.1 -1
v 0.1 2.1 -1
v -0.1 2.1 -1.1
v 0.1 2.1 -1.1
v -0.6 2.3 1.4
v 0.5 2.3 1.4
v -0.7 2.3 1.3
v -0.6 2.3 1.3
v 0.5 2.3 1.3
v 0.6 2.3 1.3
v -0.3 2.3 1
v 0.2 2.3 1
v -0.3 2.3 0.5
v 0.2 2.3 0.5
v -0.4 2.3 0.3
v 0.3 2.3 0.3
v -0.4 2.3 -0.2
v 0.3 2.3 -0.2
v 0.5 2.3 -0.2
v 0.6 2.3 -0.2
v -0.7 2.3 -0.4
v 0.5 2.3 -0.4
v -0.3 2.3 -0.6
v -0.1 2.3 -0.6
v 0.1 2.3 -0.6
v 0.2 2.3 -0.6
v -0.3 2.3 -0.8
v -0.1 2.3 -0.8
v 0.1 2.3 -0.8
v 0.2 2.3 -0.8
v -0.3 2.3 -0.9
v -0.1 2.3 -0.9
v 0.1 2.3 -0.9
v 0.2 2.3 -0.9
v -0.3 2.3 -1.1
v -0.1 2.3 -1.1
v 0.1 2.3 -1.1
v 0.2 2.3 -1.1
v -0.7 2.4 1.4
v -0.6 2.4 1.4
v 0.5 2.4 1.4
v 0.6 2.4 1.4
v -0.7 2.4 1.3
v -0.6 2.4 1.3
v 0.5 2.4 1.3
v 0.6 2.4 1.3
v 0.5 2.4 -0.2
v 0.6 2.4 -0.2
v -0.7 2.4 -0.4
v 0.5 2.4 -0.4
v -0.3 2.4 -0.6
v 0.2 2.4 -0.6
v -0.3 2.4 -1.1
v 0.2 2.4 -1.1
v -0.7 2.4 -1.4
v -0.6 2.4 -1.4
v 0.5 2.4 -1.4
v 0.6 2.4 -1.4
v -0.6 2.4 -1.5
v 0.5 2.4 -1.5
v -0.4 2.6 1.6
v 0.3 2.6 1.6
v -0.4 2.6 1.4
v 0.3 2.6 1.4
v -0.9 2.6 1.1
v -0.7 2.6 1.1
v 0.6 2.6 1.1
v 0.8 2.6 1.1
v -0.9 2.6 -0.1
v -0.7 2.6 -0.1
v 0.6 2.6 -0.1
v 0.8 2.6 -0.1
v -0.7 2.6 -1.4
v -0.6 2.6 -1.4
v 0.5 2.6 -1.4
v 0.6 2.6 -1.4
v -0.7 2.6 -1.5
v -0.6 2.6 -1.5
v 0.5 2.6 -1.5
v 0.6 2.6 -1.5
v -0.9 2.7 -0.5
v -0.7 2.7 -0.5
v 0.6 2.7 -0.5
v 0.8 2.7 -0.5
v -0.9 2.7 -1.2
v -0.7 2.7 -1.2
v 0.6 2.7 -1.2
v 0.8 2.7 -1.2
v -0.4 2.7 -1.5
v 0.3 2.7 -1.5
v -0.4 2.7 -1.7
v 0.3 2.7 -1.7
v -0.1 2.8 1.7
v 0.1 2.8 1.7
v -0.1 2.8 1.6
v 0.1 2.8 1.6
v -1 2.8 0.8
v -0.9 2.8 0.8
v 0.8 2.8 0.8
v 0.9 2.8 0.8
v -1 2.8 0.2
v -0.9 2.8 0.2
v 0.8 2.8 0.2
v 0.9 2.8 0.2
v -1 3 -0.4
v -0.8 3 -0.4
v 0.7 3 -0.4
v 0.9 3 -0.4
v -1 3 -1.3
v -0.8 3 -1.3
v 0.7 3 -1.3
v 0.9 3 -1.3
v -0.5 3 -1.6
v 0.4 3 -1.6
v -0.5 3 -1.8
v 0.4 3 -1.8
v -0.8 3.1 -1.5
v -0.7 3.1 -1.5
v 0.6 3.1 -1.5
v 0.7 3.1 -1.5
v -0.8 3.1 -1.6
v -0.7 3.1 -1.6
v 0.6 3.1 -1.6
v 0.7 3.1 -1.6
v -0.2 3.3 1.8
v 0.2 3.3 1.8
v -0.2 3.3 1.7
v 0.2 3.3 1.7
v -1.1 3.3 0.9
v -1 3.3 0.9
v 0.9 3.3 0.9
v 1 3.3 0.9
v -1.1 3.3 0.0999999
v -1 3.3 0.0999999
v 0.9 3.3 0.0999999
v 1 3.3 0.0999999
v -0.8 3.3 -0.5
v 0.7 3.3 -0.5
v -0.5 3.3 -0.7
v 0.4 3.3 -0.7
v -0.5 3.3 -1.2
v 0.4 3.3 -1.2
v -0.8 3.3 -1.5
v -0.7 3.3 -1.5
v 0.6 3.3 -1.5
v 0.7 3.3 -1.5
v -0.7 3.3 -1.6
v 0.6 3.3 -1.6
v -0.5 3.4 -0.7
v 0.4 3.4 -0.7
v -0.5 3.4 -1.2
v 0.4 3.4 -1.2
v -0.5 3.6 1.7
v 0.4 3.6 1.7
v -0.5 3.6 1.5
v 0.4 3.6 1.5
v -1 3.6 1.2
v -0.8 3.6 1.2
v 0.7 3.6 1.2
v 0.9 3.6 1.2
v -1 3.6 -0.2
v -0.8 3.6 -0.2
v 0.7 3.6 -0.2
v 0.9 3.6 -0.2
v -0.8 3.7 1.5
v -0.7 3.7 1.5
v 0.6 3.7 1.5
v 0.7 3.7 1.5
v -0.8 3.7 1.4
v -0.7 3.7 1.4
v 0.6 3.7 1.4
v 0.7 3.7 1.4
v -0.8 3.7 -0.3
v -0.7 3.7 -0.3
v 0.6 3.7 -0.3
v 0.7 3.7 -0.3
v -0.8 3.7 -0.5
v -0.7 3.7 -0.5
v 0.6 3.7 -0.5
v 0.7 3.7 -0.5
v -0.7 3.9 1.5
v 0.6 3.9 1.5
v -0.8 3.9 1.4
v -0.7 3.9 1.4
v 0.6 3.9 1.4
v 0.7 3.9 1.4
v -0.5 3.9 1.2
v 0.4 3.9 1.2
v -0.5 3.9 -0.2
v 0.4 3.9 -0.2
v -0.8 3.9 -0.3
v -0.7 3.9 -0.3
v 0.6 3.9 -0.3
v 0.7 3.9 -0.3
v -0.7 3.9 -0.5
v 0.6 3.9 -0.5
v -0.5 4 1.2
v 0.4 4 1.2
v -0.5 4 -0.2
v 0.4 4 -0.2

# faces
f 3/2/1 2/2/1 1/2/1
f 4/2/1 2/2/1 3/2/1
f 9/2/1 6/2/1 5/2/1
f 10/2/1 6/2/1 9/2/1
f 11/2/1 8/2/1 7/2/1
f 12/2/1 8/2/1 11/2/1
f 13/2/1 9/2/1 5/2/1
f 14/2/1 6/2/1 10/2/1
f 15/2/1 13/2/1 5/2/1
f 15/2/1 14/2/1 13/2/1
f 16/2/1 6/2/1 14/2/1
f 16/2/1 14/2/1 15/2/1
f 20/2/1 18/2/1 17/2/1
f 21/2/1 18/2/1 20/2/1
f 23/2/1 20/2/1 19/2/1
f 23/2/1 22/2/1 21/2/1
f 23/2/1 21/2/1 20/2/1
f 24/2/1 22/2/1 23/2/1
f 25/2/1 22/2/1 24/2/1
f 27/2/1 26/2/1 25/2/1
f 27/2/1 25/2/1 24/2/1
f 28/2/1 26/2/1 27/2/1
f 29/2/1 27/2/1 24/2/1
f 30/2/1 26/2/1 28/2/1
f 31/2/1 26/2/1 30/2/1
f 31/2/1 30/2/1 29/2/1
f 32/2/1 26/2/1 31/2/1
f 33/2/1 31/2/1 29/2/1
f 34/2/1 31/2/1 33/2/1
f 35/2/1 23/2/1 19/2/1
f 36/2/1 29/2/1 24/2/1
f 36/2/1 33/2/1 29/2/1
f 37/2/1 35/2/1 19/2/1
f 37/2/1 36/2/1 35/2/1
f 38/2/1 36/2/1 37/2/1
f 39/2/1 33/2/1 36/2/1
f 39/2/1 36/2/1 38/2/1
f 40/2/1 33/2/1 39/2/1
f 41/2/1 39/2/1 38/2/1
f 42/2/1 39/2/1 41/2/1
f 45/2/1 44/2/1 43/2/1
f 46/2/1 44/2/1 45/2/1
f 49/2/1 48/2/1 47/2/1
f 50/2/1 48/2/1 49/2/1
f 53/2/1 52/2/1 51/2/1
f 54/2/1 52/2/1 53/2/1
f 59/2/1 56/2/1 55/2/1
f 60/2/1 56/2/1 59/2/1
f 61/2/1 58/2/1 57/2/1
f 62/2/1 58/2/1 61/2/1
f 65/1/1 64/1/1 63/1/1
f 66/1/1 64/1/1 65/1/1
f 71/1/1 68/1/1 67/1/1
f 72/1/1 68/1/1 71/1/1
f 73/1/1 70/1/1 69/1/1
f 74/1/1 70/1/1 73/1/1
f 75/1/1 73/1/1 72/1/1
f 76/1/1 73/1/1 75/1/1
f 79/2/1 78/2/1 77/2/1
f 80/2/1 78/2/1 79/2/1
f 85/2/1 84/2/1 83/2/1
f 86/2/1 84/2/1 85/2/1
f 89/2/1 88/2/1 87/2/1
f 90/2/1 88/2/1 89/2/1
f 91/2/1 82/2/1 81/2/1
f 92/2/1 82/2/1 91/2/1
f 95/2/1 94/2/1 93/2/1
f 96/2/1 94/2/1 95/2/1
f 101/1/1 98/1/1 97/1/1
f 102/1/1 98/1/1 101/1/1
f 105/1/1 100/1/1 99/1/1
f 106/1/1 100/1/1 105/1/1
f 107/1/1 103/1/1 102/1/1
f 108/1/1 103/1/1 107/1/1
f 111/1/1 105/1/1 104/1/1
f 112/1/1 105/1/1 111/1/1
f 115/1/1 110/1/1 109/1/1
f 116/1/1 110/1/1 115/1/1
f 120/2/1 114/2/1 113/2/1
f 121/2/1 120/2/1 119/2/1
f 122/2/1 114/2/1 120/2/1
f 122/2/1 120/2/1 121/2/1
f 124/2/1 118/2/1 117/2/1
f 125/2/1 118/2/1 124/2/1
f 127/2/1 126/2/1 125/2/1
f 127/2/1 125/2/1 124/2/1
f 127/2/1 124/2/1 123/2/1
f 128/2/1 126/2/1 127/2/1
f 133/1/1 130/1/1 129/1/1
f 134/1/1 130/1/1 133/1/1
f 137/1/1 132/1/1 131/1/1
f 138/1/1 132/1/1 137/1/1
f 139/1/1 135/1/1 134/1/1
f 140/1/1 135/1/1 139/1/1
f 145/1/1 137/1/1 136/1/1
f 146/1/1 137/1/1 145/1/1
f 147/1/1 142/1/1 141/1/1
f 148/1/1 142/1/1 147/1/1
f 149/1/1 144/1/1 143/1/1
f 150/1/1 144/1/1 149/1/1
f 156/1/1 152/1/1 151/1/1
f 157/1/1 154/1/1 153/1/1
f 160/1/1 156/1/1 155/1/1
f 161/1/1 158/1/1 157/1/1
f 163/1/1 162/1/1 161/1/1
f 165/1/1 160/1/1 159/1/1
f 166/1/1 152/1/1 156/1/1
f 166/1/1 160/1/1 165/1/1
f 166/1/1 156/1/1 160/1/1
f 167/1/1 164/1/1 163/1/1
f 167/1/1 157/1/1 153/1/1
f 167/1/1 161/1/1 157/1/1
f 167/1/1 163/1/1 161/1/1
f 168/1/1 164/1/1 167/1/1
f 169/1/1 164/1/1 168/1/1
f 171/2/1 168/2/1 167/2/1
f 172/2/1 168/2/1 171/2/1
f 173/2/1 170/2/1 169/2/1
f 174/2/1 170/2/1 173/2/1
f 177/2/1 176/2/1 175/2/1
f 178/2/1 176/2/1 177/2/1
f 183/1/1 180/1/1 179/1/1
f 184/1/1 180/1/1 183/1/1
f 187/1/1 182/1/1 181/1/1
f 188/1/1 182/1/1 187/1/1
f 190/1/1 185/1/1 184/1/1
f 191/1/1 187/1/1 186/1/1
f 193/1/1 190/1/1 189/1/1
f 194/1/1 185/1/1 190/1/1
f 194/1/1 190/1/1 193/1/1
f 195/1/1 192/1/1 191/1/1
f 195/1/1 191/1/1 186/1/1
f 196/1/1 192/1/1 195/1/1
f 197/1/1 192/1/1 196/1/1
f 198/1/1 192/1/1 197/1/1
f 199/1/1 192/1/1 198/1/1
f 200/1/1 193/1/1 189/1/1
f 201/1/1 193/1/1 200/1/1
f 202/1/1 195/1/1 186/1/1
f 203/1/1 195/1/1 202/1/1
f 204/2/1 199/2/1 198/2/1
f 205/1/1 192/1/1 199/1/1
f 206/1/1 192/1/1 205/1/1
f 209/2/1 199/2/1 204/2/1
f 209/1/1 205/1/1 199/1/1
f 210/1/1 205/1/1 209/1/1
f 211/1/1 207/1/1 206/1/1
f 212/2/1 208/2/1 207/2/1
f 212/1/1 207/1/1 211/1/1
f 213/2/1 210/2/1 209/2/1
f 213/2/1 209/2/1 204/2/1
f 214/2/1 210/2/1 213/2/1
f 215/2/1 212/2/1 211/2/1
f 216/2/1 208/2/1 212/2/1
f 216/2/1 212/2/1 215/2/1
f 219/2/1 218/2/1 217/2/1
f 220/2/1 218/2/1 219/2/1
f 225/1/1 222/1/1 221/1/1
f 226/1/1 222/1/1 225/1/1
f 227/1/1 224/1/1 223/1/1
f 228/1/1 224/1/1 227/1/1
f 232/1/1 227/1/1 226/1/1
f 233/1/1 227/1/1 232/1/1
f 236/2/1 231/2/1 230/2/1
f 236/2/1 230/2/1 229/2/1
f 237/2/1 235/2/1 234/2/1
f 238/2/1 235/2/1 237/2/1
f 239/2/1 236/2/1 229/2/1
f 240/2/1 236/2/1 239/2/1
f 242/2/1 238/2/1 237/2/1
f 243/2/1 238/2/1 242/2/1
f 245/2/1 243/2/1 242/2/1
f 245/2/1 244/2/1 243/2/1
f 245/2/1 242/2/1 241/2/1
f 246/2/1 244/2/1 245/2/1
f 249/1/1 248/1/1 247/1/1
f 250/1/1 248/1/1 249/1/1
f 254/2/1 252/2/1 251/2/1
f 254/2/1 253/2/1 252/2/1
f 255/2/1 253/2/1 254/2/1
f 256/2/1 253/2/1 255/2/1
f 261/2/1 260/2/1 259/2/1
f 262/2/1 260/2/1 261/2/1
f 265/2/1 264/2/1 263/2/1
f 266/2/1 264/2/1 265/2/1
f 267/2/1 258/2/1 257/2/1
f 268/2/1 258/2/1 267/2/1
f 271/1/1 270/1/1 269/1/1
f 272/1/1 270/1/1 271/1/1
f 277/2/1 274/2/1 273/2/1
f 278/2/1 274/2/1 277/2/1
f 279/2/1 276/2/1 275/2/1
f 280/2/1 276/2/1 279/2/1
f 283/2/1 282/2/1 281/2/1
f 284/2/1 282/2/1 283/2/1
f 287/2/1 286/2/1 285/2/1
f 288/2/1 286/2/1 287/2/1
f 293/2/1 290/2/1 289/2/1
f 294/2/1 290/2/1 293/2/1
f 295/2/1 292/2/1 291/2/1
f 296/2/1 292/2/1 295/2/1
f 300/2/1 298/2/1 297/2/1
f 301/2/1 298/2/1 300/2/1
f 303/2/1 300/2/1 299/2/1
f 303/2/1 302/2/1 301/2/1
f 303/2/1 301/2/1 300/2/1
f 304/2/1 302/2/1 303/2/1
f 305/2/1 302/2/1 304/2/1
f 307/2/1 306/2/1 305/2/1
f 307/2/1 305/2/1 304/2/1
f 308/2/1 306/2/1 307/2/1
f 309/2/1 307/2/1 304/2/1
f 310/2/1 306/2/1 308/2/1
f 311/2/1 306/2/1 310/2/1
f 311/2/1 310/2/1 309/2/1
f 312/2/1 306/2/1 311/2/1
f 313/2/1 309/2/1 304/2/1
f 313/2/1 311/2/1 309/2/1
f 314/2/1 311/2/1 313/2/1
f 315/2/1 303/2/1 299/2/1
f 316/2/1 313/2/1 304/2/1
f 317/2/1 315/2/1 299/2/1
f 317/2/1 316/2/1 315/2/1
f 318/2/1 316/2/1 317/2/1
f 319/2/1 313/2/1 316/2/1
f 319/2/1 316/2/1 318/2/1
f 320/2/1 313/2/1 319/2/1
f 321/2/1 319/2/1 318/2/1
f 322/2/1 319/2/1 321/2/1
f 327/2/1 324/2/1 323/2/1
f 328/2/1 324/2/1 327/2/1
f 329/2/1 326/2/1 325/2/1
f 330/2/1 326/2/1 329/2/1
f 331/2/1 327/2/1 323/2/1
f 332/2/1 324/2/1 328/2/1
f 333/2/1 331/2/1 323/2/1
f 333/2/1 332/2/1 331/2/1
f 334/2/1 324/2/1 332/2/1
f 334/2/1 332/2/1 333/2/1
f 337/2/1 336/2/1 335/2/1
f 338/2/1 336/2/1 337/2/1
f 339/2/2 340/2/2 341/2/2
f 341/2/2 340/2/2 342/2/2
f 343/2/2 344/2/2 347/2/2
f 347/2/2 344/2/2 348/2/2
f 345/2/2 346/2/2 349/2/2
f 349/2/2 346/2/2 350/2/2
f 343/2/2 347/2/2 351/2/2
f 348/2/2 344/2/2 352/2/2
f 343/2/2 351/2/2 353/2/2
f 351/2/2 352/2/2 353/2/2
f 352/2/2 344/2/2 354/2/2
f 353/2/2 352/2/2 354/2/2
f 355/2/2 356/2/2 358/2/2
f 358/2/2 356/2/2 359/2/2
f 357/2/2 358/2/2 361/2/2
f 359/2/2 360/2/2 361/2/2
f 358/2/2 359/2/2 361/2/2
f 361/2/2 360/2/2 362/2/2
f 362/2/2 360/2/2 363/2/2
f 363/2/2 364/2/2 365/2/2
f 362/2/2 363/2/2 365/2/2
f 365/2/2 364/2/2 366/2/2
f 362/2/2 365/2/2 367/2/2
f 366/2/2 364/2/2 368/2/2
f 368/2/2 364/2/2 369/2/2
f 367/2/2 368/2/2 369/2/2
f 369/2/2 364/2/2 370/2/2
f 362/2/2 367/2/2 371/2/2
f 367/2/2 369/2/2 371/2/2
f 371/2/2 369/2/2 372/2/2
f 357/2/2 361/2/2 373/2/2
f 362/2/2 371/2/2 374/2/2
f 357/2/2 373/2/2 375/2/2
f 373/2/2 374/2/2 375/2/2
f 375/2/2 374/2/2 376/2/2
f 374/2/2 371/2/2 377/2/2
f 376/2/2 374/2/2 377/2/2
f 377/2/2 371/2/2 378/2/2
f 376/2/2 377/2/2 379/2/2
f 379/2/2 377/2/2 380/2/2
f 381/2/2 382/2/2 383/2/2
f 383/2/2 382/2/2 384/2/2
f 385/2/2 386/2/2 387/2/2
f 387/2/2 386/2/2 388/2/2
f 389/2/2 390/2/2 391/2/2
f 391/2/2 390/2/2 392/2/2
f 393/2/2 394/2/2 397/2/2
f 397/2/2 394/2/2 398/2/2
f 395/2/2 396/2/2 399/2/2
f 399/2/2 396/2/2 400/2/2
f 401/1/2 402/1/2 403/1/2
f 403/1/2 402/1/2 404/1/2
f 405/2/2 406/2/2 408/2/2
f 406/2/2 407/2/2 408/2/2
f 408/2/2 407/2/2 409/2/2
f 409/2/2 407/2/2 410/2/2
f 413/2/2 414/2/2 415/2/2
f 415/2/2 414/2/2 416/2/2
f 417/2/2 418/2/2 419/2/2
f 419/2/2 418/2/2 420/2/2
f 411/2/2 412/2/2 421/2/2
f 421/2/2 412/2/2 422/2/2
f 423/1/2 424/1/2 425/1/2
f 425/1/2 424/1/2 426/1/2
f 427/1/2 428/1/2 431/1/2
f 431/1/2 428/1/2 432/1/2
f 429/1/2 430/1/2 433/1/2
f 433/1/2 430/1/2 434/1/2
f 432/1/2 433/1/2 437/1/2
f 437/1/2 433/1/2 438/1/2
f 435/2/2 436/2/2 441/2/2
f 435/2/2 441/2/2 442/2/2
f 442/2/2 441/2/2 443/2/2
f 439/2/2 440/2/2 445/2/2
f 445/2/2 440/2/2 446/2/2
f 446/2/2 447/2/2 448/2/2
f 445/2/2 446/2/2 448/2/2
f 444/2/2 445/2/2 448/2/2
f 448/2/2 447/2/2 449/2/2
f 450/1/2 451/1/2 454/1/2
f 454/1/2 451/1/2 455/1/2
f 452/1/2 453/1/2 458/1/2
f 458/1/2 453/1/2 459/1/2
f 455/1/2 456/1/2 461/1/2
f 457/1/2 458/1/2 462/1/2
f 460/1/2 461/1/2 464/1/2
f 461/1/2 456/1/2 465/1/2
f 464/1/2 461/1/2 465/1/2
f 462/1/2 463/1/2 466/1/2
f 457/1/2 462/1/2 466/1/2
f 466/1/2 463/1/2 467/1/2
f 467/1/2 463/1/2 468/1/2
f 468/1/2 463/1/2 469/1/2
f 469/1/2 463/1/2 470/1/2
f 460/1/2 464/1/2 471/1/2
f 471/1/2 464/1/2 472/1/2
f 457/1/2 466/1/2 473/1/2
f 473/1/2 466/1/2 474/1/2
f 469/2/2 470/2/2 475/2/2
f 470/1/2 463/1/2 476/1/2
f 476/1/2 463/1/2 477/1/2
f 475/2/2 470/2/2 480/2/2
f 470/1/2 476/1/2 480/1/2
f 480/1/2 476/1/2 481/1/2
f 477/1/2 478/1/2 482/1/2
f 478/2/2 479/2/2 483/2/2
f 482/1/2 478/1/2 483/1/2
f 480/2/2 481/2/2 484/2/2
f 475/2/2 480/2/2 484/2/2
f 484/2/2 481/2/2 485/2/2
f 482/2/2 483/2/2 486/2/2
f 483/2/2 479/2/2 487/2/2
f 486/2/2 483/2/2 487/2/2
f 488/2/2 489/2/2 490/2/2
f 490/2/2 489/2/2 491/2/2
f 492/1/2 493/1/2 496/1/2
f 496/1/2 493/1/2 497/1/2
f 494/1/2 495/1/2 500/1/2
f 500/1/2 495/1/2 501/1/2
f 497/1/2 498/1/2 502/1/2
f 502/1/2 498/1/2 503/1/2
f 499/1/2 500/1/2 506/1/2
f 506/1/2 500/1/2 507/1/2
f 503/1/2 504/1/2 509/1/2
f 505/1/2 506/1/2 510/1/2
f 508/1/2 509/1/2 513/1/2
f 510/1/2 511/1/2 514/1/2
f 514/1/2 515/1/2 516/1/2
f 512/1/2 513/1/2 518/1/2
f 509/1/2 504/1/2 519/1/2
f 518/1/2 513/1/2 519/1/2
f 513/1/2 509/1/2 519/1/2
f 505/1/2 510/1/2 520/1/2
f 516/1/2 517/1/2 520/1/2
f 510/1/2 514/1/2 520/1/2
f 514/1/2 516/1/2 520/1/2
f 520/1/2 517/1/2 521/1/2
f 521/1/2 517/1/2 522/1/2
f 520/2/2 521/2/2 524/2/2
f 524/2/2 521/2/2 525/2/2
f 522/2/2 523/2/2 526/2/2
f 526/2/2 523/2/2 527/2/2
f 528/2/2 529/2/2 530/2/2
f 530/2/2 529/2/2 531/2/2
f 532/1/2 533/1/2 536/1/2
f 536/1/2 533/1/2 537/1/2
f 534/1/2 535/1/2 540/1/2
f 540/1/2 535/1/2 541/1/2
f 537/1/2 538/1/2 542/1/2
f 542/1/2 538/1/2 543/1/2
f 539/1/2 540/1/2 544/1/2
f 544/1/2 540/1/2 545/1/2
f 543/1/2 544/1/2 548/1/2
f 548/1/2 544/1/2 549/1/2
f 546/2/2 547/2/2 553/2/2
f 552/2/2 553/2/2 554/2/2
f 553/2/2 547/2/2 555/2/2
f 554/2/2 553/2/2 555/2/2
f 550/2/2 551/2/2 557/2/2
f 557/2/2 551/2/2 558/2/2
f 558/2/2 559/2/2 560/2/2
f 557/2/2 558/2/2 560/2/2
f 556/2/2 557/2/2 560/2/2
f 560/2/2 559/2/2 561/2/2
f 562/1/2 563/1/2 566/1/2
f 566/1/2 563/1/2 567/1/2
f 564/1/2 565/1/2 568/1/2
f 568/1/2 565/1/2 569/1/2
f 567/1/2 568/1/2 570/1/2
f 570/1/2 568/1/2 571/1/2
f 572/2/2 573/2/2 574/2/2
f 574/2/2 573/2/2 575/2/2
f 578/2/2 579/2/2 580/2/2
f 580/2/2 579/2/2 581/2/2
f 582/2/2 583/2/2 584/2/2
f 584/2/2 583/2/2 585/2/2
f 576/2/2 577/2/2 586/2/2
f 586/2/2 577/2/2 587/2/2
f 588/2/2 589/2/2 590/2/2
f 590/2/2 589/2/2 591/2/2
f 592/1/2 593/1/2 594/1/2
f 594/1/2 593/1/2 595/1/2
f 596/2/2 597/2/2 600/2/2
f 600/2/2 597/2/2 601/2/2
f 598/2/2 599/2/2 602/2/2
f 602/2/2 599/2/2 603/2/2
f 604/2/2 605/2/2 606/2/2
f 606/2/2 605/2/2 607/2/2
f 608/2/2 609/2/2 610/2/2
f 610/2/2 609/2/2 611/2/2
f 612/2/2 613/2/2 616/2/2
f 616/2/2 613/2/2 617/2/2
f 614/2/2 615/2/2 618/2/2
f 618/2/2 615/2/2 619/2/2
f 620/2/2 621/2/2 623/2/2
f 623/2/2 621/2/2 624/2/2
f 622/2/2 623/2/2 626/2/2
f 624/2/2 625/2/2 626/2/2
f 623/2/2 624/2/2 626/2/2
f 626/2/2 625/2/2 627/2/2
f 627/2/2 625/2/2 628/2/2
f 628/2/2 629/2/2 630/2/2
f 627/2/2 628/2/2 630/2/2
f 630/2/2 629/2/2 631/2/2
f 627/2/2 630/2/2 632/2/2
f 631/2/2 629/2/2 633/2/2
f 633/2/2 629/2/2 634/2/2
f 632/2/2 633/2/2 634/2/2
f 634/2/2 629/2/2 635/2/2
f 632/2/2 634/2/2 636/2/2
f 636/2/2 634/2/2 637/2/2
f 622/2/2 626/2/2 638/2/2
f 627/2/2 632/2/2 639/2/2
f 632/2/2 636/2/2 639/2/2
f 622/2/2 638/2/2 640/2/2
f 638/2/2 639/2/2 640/2/2
f 640/2/2 639/2/2 641/2/2
f 639/2/2 636/2/2 642/2/2
f 641/2/2 639/2/2 642/2/2
f 642/2/2 636/2/2 643/2/2
f 641/2/2 642/2/2 644/2/2
f 644/2/2 642/2/2 645/2/2
f 646/2/2 647/2/2 650/2/2
f 650/2/2 647/2/2 651/2/2
f 648/2/2 649/2/2 652/2/2
f 652/2/2 649/2/2 653/2/2
f 646/2/2 650/2/2 654/2/2
f 651/2/2 647/2/2 655/2/2
f 646/2/2 654/2/2 656/2/2
f 654/2/2 655/2/2 656/2/2
f 655/2/2 647/2/2 657/2/2
f 656/2/2 655/2/2 657/2/2
f 658/2/2 659/2/2 660/2/2
f 660/2/2 659/2/2 661/2/2
f 664/2/3 663/2/3 662/2/3
f 665/2/3 663/2/3 664/2/3
f 668/2/3 667/2/3 666/2/3
f 669/2/3 667/2/3 668/2/3
f 670/2/3 668/2/3 666/2/3
f 671/2/3 667/2/3 669/2/3
f 672/2/3 670/2/3 666/2/3
f 672/2/3 671/2/3 670/2/3
f 673/2/3 667/2/3 671/2/3
f 673/2/3 671/2/3 672/2/3
f 677/2/3 675/2/3 674/2/3
f 678/2/3 675/2/3 677/2/3
f 680/2/3 677/2/3 676/2/3
f 680/2/3 679/2/3 678/2/3
f 680/2/3 678/2/3 677/2/3
f 681/2/3 679/2/3 680/2/3
f 682/2/3 680/2/3 676/2/3
f 683/2/3 679/2/3 681/2/3
f 684/2/3 682/2/3 676/2/3
f 684/2/3 683/2/3 682/2/3
f 685/2/3 683/2/3 684/2/3
f 686/2/3 679/2/3 683/2/3
f 686/2/3 683/2/3 685/2/3
f 687/2/3 679/2/3 686/2/3
f 688/2/3 686/2/3 685/2/3
f 689/2/3 686/2/3 688/2/3
f 694/2/3 691/2/3 690/2/3
f 695/2/3 691/2/3 694/2/3
f 696/2/3 693/2/3 692/2/3
f 697/2/3 693/2/3 696/2/3
f 702/2/3 699/2/3 698/2/3
f 703/2/3 699/2/3 702/2/3
f 704/2/3 701/2/3 700/2/3
f 705/2/3 701/2/3 704/2/3
f 708/2/3 707/2/3 706/2/3
f 709/2/3 707/2/3 708/2/3
f 712/2/3 711/2/3 710/2/3
f 713/2/3 711/2/3 712/2/3
f 716/2/3 715/2/3 714/2/3
f 717/2/3 715/2/3 716/2/3
f 720/2/3 719/2/3 718/2/3
f 721/2/3 719/2/3 720/2/3
f 724/2/3 723/2/3 722/2/3
f 725/2/3 723/2/3 724/2/3
f 728/2/3 727/2/3 726/2/3
f 729/2/3 727/2/3 728/2/3
f 732/1/3 731/1/3 730/1/3
f 733/1/3 731/1/3 732/1/3
f 736/2/3 735/2/3 734/2/3
f 737/2/3 735/2/3 736/2/3
f 740/1/3 739/1/3 738/1/3
f 741/1/3 739/1/3 740/1/3
f 746/1/3 745/1/3 744/1/3
f 747/1/3 745/1/3 746/1/3
f 748/1/3 743/1/3 742/1/3
f 749/1/3 743/1/3 748/1/3
f 752/1/3 751/1/3 750/1/3
f 753/1/3 751/1/3 752/1/3
f 758/1/3 756/1/3 755/1/3
f 760/1/3 754/1/3 753/1/3
f 761/1/3 754/1/3 760/1/3
f 762/1/3 756/1/3 758/1/3
f 763/2/3 757/2/3 756/2/3
f 763/1/3 756/1/3 762/1/3
f 764/2/3 757/2/3 763/2/3
f 765/1/3 760/1/3 759/1/3
f 766/1/3 760/1/3 765/1/3
f 771/1/3 768/1/3 767/1/3
f 772/1/3 768/1/3 771/1/3
f 774/2/3 770/2/3 769/2/3
f 775/2/3 770/2/3 774/2/3
f 776/1/3 773/1/3 772/1/3
f 777/1/3 773/1/3 776/1/3
f 781/1/3 779/1/3 778/1/3
f 782/1/3 779/1/3 781/1/3
f 784/1/3 781/1/3 780/1/3
f 785/1/3 781/1/3 784/1/3
f 788/1/3 784/1/3 783/1/3
f 789/1/3 784/1/3 788/1/3
f 790/2/3 787/2/3 786/2/3
f 791/2/3 787/2/3 790/2/3
f 794/1/3 793/1/3 792/1/3
f 795/1/3 793/1/3 794/1/3
f 797/1/3 796/1/3 795/1/3
f 798/1/3 796/1/3 797/1/3
f 801/1/3 800/1/3 799/1/3
f 802/1/3 800/1/3 801/1/3
f 806/1/3 804/1/3 803/1/3
f 807/1/3 804/1/3 806/1/3
f 809/1/3 806/1/3 805/1/3
f 810/1/3 806/1/3 809/1/3
f 811/1/3 809/1/3 808/1/3
f 812/1/3 809/1/3 811/1/3
f 815/2/3 814/2/3 813/2/3
f 816/2/3 814/2/3 815/2/3
f 819/1/3 818/1/3 817/1/3
f 820/1/3 818/1/3 819/1/3
f 823/2/3 822/2/3 821/2/3
f 824/2/3 822/2/3 823/2/3
f 827/2/3 826/2/3 825/2/3
f 828/2/3 826/2/3 827/2/3
f 833/1/3 830/1/3 829/1/3
f 834/1/3 830/1/3 833/1/3
f 836/1/3 835/1/3 834/1/3
f 837/1/3 835/1/3 836/1/3
f 841/1/3 839/1/3 838/1/3
f 842/1/3 839/1/3 841/1/3
f 843/1/3 841/1/3 840/1/3
f 844/1/3 841/1/3 843/1/3
f 845/1/3 832/1/3 831/1/3
f 846/1/3 832/1/3 845/1/3
f 849/2/3 848/2/3 847/2/3
f 850/2/3 848/2/3 849/2/3
f 853/2/3 852/2/3 851/2/3
f 854/2/3 852/2/3 853/2/3
f 859/1/3 858/1/3 857/1/3
f 860/1/3 858/1/3 859/1/3
f 863/2/3 856/2/3 855/2/3
f 865/1/3 861/1/3 860/1/3
f 866/1/3 861/1/3 865/1/3
f 867/1/3 863/1/3 862/1/3
f 868/2/3 856/2/3 863/2/3
f 868/1/3 863/1/3 867/1/3
f 869/1/3 865/1/3 864/1/3
f 870/1/3 865/1/3 869/1/3
f 871/2/3 856/2/3 868/2/3
f 872/2/3 856/2/3 871/2/3
f 877/2/3 874/2/3 873/2/3
f 878/2/3 874/2/3 877/2/3
f 879/2/3 876/2/3 875/2/3
f 880/2/3 876/2/3 879/2/3
f 883/2/3 882/2/3 881/2/3
f 884/2/3 882/2/3 883/2/3
f 889/2/3 888/2/3 887/2/3
f 893/1/3 892/1/3 891/1/3
f 894/1/3 892/1/3 893/1/3
f 895/2/3 886/2/3 885/2/3
f 896/2/3 886/2/3 895/2/3
f 897/2/3 889/2/3 887/2/3
f 897/2/3 890/2/3 889/2/3
f 898/2/3 890/2/3 897/2/3
f 899/2/3 897/2/3 887/2/3
f 900/2/3 897/2/3 899/2/3
f 903/2/3 902/2/3 901/2/3
f 904/2/3 902/2/3 903/2/3
f 909/2/3 908/2/3 907/2/3
f 910/2/3 908/2/3 909/2/3
f 913/2/3 912/2/3 911/2/3
f 914/2/3 912/2/3 913/2/3
f 915/2/3 906/2/3 905/2/3
f 916/2/3 906/2/3 915/2/3
f 919/2/3 918/2/3 917/2/3
f 920/2/3 918/2/3 919/2/3
f 922/1/3 920/1/3 919/1/3
f 923/2/3 918/2/3 920/2/3
f 923/1/3 920/1/3 922/1/3
f 924/2/3 918/2/3 923/2/3
f 925/1/3 922/1/3 921/1/3
f 926/1/3 922/1/3 925/1/3
f 929/1/3 927/1/3 926/1/3
f 930/2/3 928/2/3 927/2/3
f 930/1/3 927/1/3 929/1/3
f 931/2/3 928/2/3 930/2/3
f 937/2/3 935/2/3 934/2/3
f 938/2/3 937/2/3 936/2/3
f 939/2/3 935/2/3 937/2/3
f 939/2/3 937/2/3 938/2/3
f 940/2/3 935/2/3 939/2/3
f 941/2/3 935/2/3 940/2/3
f 942/2/3 933/2/3 932/2/3
f 943/2/3 933/2/3 942/2/3
f 946/2/3 945/2/3 944/2/3
f 947/2/3 945/2/3 946/2/3
f 950/2/3 949/2/3 948/2/3
f 951/2/3 949/2/3 950/2/3
f 956/2/3 953/2/3 952/2/3
f 957/2/3 953/2/3 956/2/3
f 958/2/3 955/2/3 954/2/3
f 959/2/3 955/2/3 958/2/3
f 964/2/3 961/2/3 960/2/3
f 965/2/3 961/2/3 964/2/3
f 966/2/3 963/2/3 962/2/3
f 967/2/3 963/2/3 966/2/3
f 971/2/3 969/2/3 968/2/3
f 972/2/3 969/2/3 971/2/3
f 974/2/3 971/2/3 970/2/3
f 974/2/3 973/2/3 972/2/3
f 974/2/3 972/2/3 971/2/3
f 975/2/3 973/2/3 974/2/3
f 976/2/3 974/2/3 970/2/3
f 977/2/3 973/2/3 975/2/3
f 978/2/3 976/2/3 970/2/3
f 978/2/3 977/2/3 976/2/3
f 979/2/3 977/2/3 978/2/3
f 980/2/3 973/2/3 977/2/3
f 980/2/3 977/2/3 979/2/3
f 981/2/3 973/2/3 980/2/3
f 982/2/3 980/2/3 979/2/3
f 983/2/3 980/2/3 982/2/3
f 986/2/3 985/2/3 984/2/3
f 987/2/3 985/2/3 986/2/3
f 988/2/4 989/2/4 990/2/4
f 990/2/4 989/2/4 991/2/4
f 992/2/4 993/2/4 994/2/4
f 994/2/4 993/2/4 995/2/4
f 992/2/4 994/2/4 996/2/4
f 995/2/4 993/2/4 997/2/4
f 992/2/4 996/2/4 998/2/4
f 996/2/4 997/2/4 998/2/4
f 997/2/4 993/2/4 999/2/4
f 998/2/4 997/2/4 999/2/4
f 1000/2/4 1001/2/4 1003/2/4
f 1003/2/4 1001/2/4 1004/2/4
f 1002/2/4 1003/2/4 1006/2/4
f 1004/2/4 1005/2/4 1006/2/4
f 1003/2/4 1004/2/4 1006/2/4
f 1006/2/4 1005/2/4 1007/2/4
f 1002/2/4 1006/2/4 1008/2/4
f 1007/2/4 1005/2/4 1009/2/4
f 1002/2/4 1008/2/4 1010/2/4
f 1008/2/4 1009/2/4 1010/2/4
f 1010/2/4 1009/2/4 1011/2/4
f 1009/2/4 1005/2/4 1012/2/4
f 1011/2/4 1009/2/4 1012/2/4
f 1012/2/4 1005/2/4 1013/2/4
f 1011/2/4 1012/2/4 1014/2/4
f 1014/2/4 1012/2/4 1015/2/4
f 1016/2/4 1017/2/4 1020/2/4
f 1020/2/4 1017/2/4 1021/2/4
f 1018/2/4 1019/2/4 1022/2/4
f 1022/2/4 1019/2/4 1023/2/4
f 1024/2/4 1025/2/4 1028/2/4
f 1028/2/4 1025/2/4 1029/2/4
f 1026/2/4 1027/2/4 1030/2/4
f 1030/2/4 1027/2/4 1031/2/4
f 1032/2/4 1033/2/4 1034/2/4
f 1034/2/4 1033/2/4 1035/2/4
f 1036/1/4 1037/1/4 1038/1/4
f 1038/1/4 1037/1/4 1039/1/4
f 1040/2/4 1041/2/4 1042/2/4
f 1042/2/4 1041/2/4 1043/2/4
f 1044/2/4 1045/2/4 1046/2/4
f 1046/2/4 1045/2/4 1047/2/4
f 1048/2/4 1049/2/4 1050/2/4
f 1050/2/4 1049/2/4 1051/2/4
f 1052/1/4 1053/1/4 1054/1/4
f 1054/1/4 1053/1/4 1055/1/4
f 1056/2/4 1057/2/4 1058/2/4
f 1058/2/4 1057/2/4 1059/2/4
f 1060/1/4 1061/1/4 1062/1/4
f 1062/1/4 1061/1/4 1063/1/4
f 1064/1/4 1065/1/4 1069/1/4
f 1067/1/4 1068/1/4 1070/1/4
f 1070/1/4 1068/1/4 1071/1/4
f 1071/1/4 1072/1/4 1074/1/4
f 1074/1/4 1072/1/4 1075/1/4
f 1073/1/4 1074/1/4 1076/1/4
f 1076/1/4 1074/1/4 1077/1/4
f 1069/1/4 1065/1/4 1078/1/4
f 1078/1/4 1065/1/4 1079/1/4
f 1065/2/4 1066/2/4 1080/2/4
f 1079/1/4 1065/1/4 1080/1/4
f 1080/2/4 1066/2/4 1081/2/4
f 1082/2/4 1083/2/4 1084/2/4
f 1084/2/4 1083/2/4 1085/2/4
f 1086/1/4 1087/1/4 1088/1/4
f 1088/1/4 1087/1/4 1089/1/4
f 1089/1/4 1090/1/4 1091/1/4
f 1091/1/4 1090/1/4 1092/1/4
f 1092/1/4 1090/1/4 1094/1/4
f 1093/1/4 1094/1/4 1096/1/4
f 1094/1/4 1090/1/4 1097/1/4
f 1096/1/4 1094/1/4 1097/1/4
f 1095/1/4 1096/1/4 1098/1/4
f 1098/1/4 1096/1/4 1099/1/4
f 1100/2/4 1101/2/4 1102/2/4
f 1102/2/4 1101/2/4 1103/2/4
f 1104/2/4 1105/2/4 1106/2/4
f 1106/2/4 1105/2/4 1107/2/4
f 1110/1/4 1111/1/4 1112/1/4
f 1112/1/4 1111/1/4 1113/1/4
f 1108/2/4 1109/2/4 1114/2/4
f 1114/2/4 1109/2/4 1115/2/4
f 1116/2/4 1117/2/4 1118/2/4
f 1118/2/4 1117/2/4 1119/2/4
f 1120/2/4 1121/2/4 1122/2/4
f 1122/2/4 1121/2/4 1123/2/4
f 1124/1/4 1125/1/4 1126/1/4
f 1126/1/4 1125/1/4 1127/1/4
f 1127/1/4 1128/1/4 1131/1/4
f 1131/1/4 1128/1/4 1132/1/4
f 1129/2/4 1130/2/4 1134/2/4
f 1133/1/4 1134/1/4 1135/1/4
f 1134/2/4 1130/2/4 1136/2/4
f 1135/1/4 1134/1/4 1136/1/4
f 1136/2/4 1130/2/4 1137/2/4
f 1138/1/4 1139/1/4 1142/1/4
f 1139/2/4 1140/2/4 1143/2/4
f 1142/1/4 1139/1/4 1143/1/4
f 1141/1/4 1142/1/4 1145/1/4
f 1145/1/4 1142/1/4 1146/1/4
f 1143/2/4 1140/2/4 1147/2/4
f 1147/2/4 1140/2/4 1148/2/4
f 1144/1/4 1145/1/4 1149/1/4
f 1149/1/4 1145/1/4 1150/1/4
f 1151/2/4 1152/2/4 1155/2/4
f 1155/2/4 1152/2/4 1156/2/4
f 1153/2/4 1154/2/4 1157/2/4
f 1157/2/4 1154/2/4 1158/2/4
f 1159/1/4 1160/1/4 1161/1/4
f 1161/1/4 1160/1/4 1162/1/4
f 1162/1/4 1163/1/4 1164/1/4
f 1164/1/4 1163/1/4 1165/1/4
f 1166/1/4 1167/1/4 1169/1/4
f 1169/1/4 1167/1/4 1170/1/4
f 1168/1/4 1169/1/4 1172/1/4
f 1172/1/4 1169/1/4 1173/1/4
f 1171/1/4 1172/1/4 1174/1/4
f 1174/1/4 1172/1/4 1175/1/4
f 1176/2/4 1177/2/4 1182/2/4
f 1182/2/4 1177/2/4 1183/2/4
f 1180/2/4 1181/2/4 1184/2/4
f 1178/2/4 1179/2/4 1188/2/4
f 1188/2/4 1179/2/4 1189/2/4
f 1186/1/4 1187/1/4 1190/1/4
f 1190/1/4 1187/1/4 1191/1/4
f 1191/1/4 1192/1/4 1194/1/4
f 1194/1/4 1192/1/4 1195/1/4
f 1193/1/4 1194/1/4 1196/1/4
f 1196/1/4 1194/1/4 1197/1/4
f 1198/2/4 1199/2/4 1200/2/4
f 1200/2/4 1199/2/4 1201/2/4
f 1184/2/4 1185/2/4 1204/2/4
f 1180/2/4 1184/2/4 1204/2/4
f 1204/2/4 1185/2/4 1205/2/4
f 1180/2/4 1204/2/4 1206/2/4
f 1206/2/4 1204/2/4 1207/2/4
f 1202/2/4 1203/2/4 1208/2/4
f 1208/2/4 1203/2/4 1209/2/4
f 1212/2/4 1213/2/4 1216/2/4
f 1214/1/4 1215/1/4 1217/1/4
f 1215/2/4 1216/2/4 1218/2/4
f 1217/1/4 1215/1/4 1218/1/4
f 1216/2/4 1213/2/4 1219/2/4
f 1218/2/4 1216/2/4 1219/2/4
f 1210/1/4 1211/1/4 1220/1/4
f 1220/1/4 1211/1/4 1221/1/4
f 1219/2/4 1213/2/4 1222/2/4
f 1222/2/4 1213/2/4 1223/2/4
f 1226/2/4 1227/2/4 1230/2/4
f 1230/2/4 1227/2/4 1231/2/4
f 1230/1/4 1231/1/4 1232/1/4
f 1231/2/4 1227/2/4 1233/2/4
f 1232/1/4 1231/1/4 1233/1/4
f 1233/2/4 1227/2/4 1234/2/4
f 1228/1/4 1229/1/4 1238/1/4
f 1238/1/4 1229/1/4 1239/1/4
f 1235/1/4 1236/1/4 1240/1/4
f 1236/2/4 1237/2/4 1241/2/4
f 1240/1/4 1236/1/4 1241/1/4
f 1241/2/4 1237/2/4 1242/2/4
f 1224/2/4 1225/2/4 1243/2/4
f 1243/2/4 1225/2/4 1244/2/4
f 1245/1/4 1246/1/4 1247/1/4
f 1247/1/4 1246/1/4 1248/1/4
f 1249/2/4 1250/2/4 1252/2/4
f 1252/2/4 1250/2/4 1253/2/4
f 1251/1/4 1252/1/4 1254/1/4
f 1254/1/4 1252/1/4 1255/1/4
f 1255/2/4 1256/2/4 1257/2/4
f 1257/2/4 1256/2/4 1258/2/4
f 1261/2/4 1262/2/4 1264/2/4
f 1263/2/4 1264/2/4 1265/2/4
f 1264/2/4 1262/2/4 1266/2/4
f 1265/2/4 1264/2/4 1266/2/4
f 1266/2/4 1262/2/4 1267/2/4
f 1267/2/4 1262/2/4 1268/2/4
f 1259/2/4 1260/2/4 1269/2/4
f 1269/2/4 1260/2/4 1270/2/4
f 1271/2/4 1272/2/4 1273/2/4
f 1273/2/4 1272/2/4 1274/2/4
f 1275/2/4 1276/2/4 1277/2/4
f 1277/2/4 1276/2/4 1278/2/4
f 1279/2/4 1280/2/4 1283/2/4
f 1283/2/4 1280/2/4 1284/2/4
f 1281/2/4 1282/2/4 1285/2/4
f 1285/2/4 1282/2/4 1286/2/4
f 1287/2/4 1288/2/4 1291/2/4
f 1291/2/4 1288/2/4 1292/2/4
f 1289/2/4 1290/2/4 1293/2/4
f 1293/2/4 1290/2/4 1294/2/4
f 1295/2/4 1296/2/4 1298/2/4
f 1298/2/4 1296/2/4 1299/2/4
f 1297/2/4 1298/2/4 1301/2/4
f 1299/2/4 1300/2/4 1301/2/4
f 1298/2/4 1299/2/4 1301/2/4
f 1301/2/4 1300/2/4 1302/2/4
f 1297/2/4 1301/2/4 1303/2/4
f 1302/2/4 1300/2/4 1304/2/4
f 1297/2/4 1303/2/4 1305/2/4
f 1303/2/4 1304/2/4 1305/2/4
f 1305/2/4 1304/2/4 1306/2/4
f 1304/2/4 1300/2/4 1307/2/4
f 1306/2/4 1304/2/4 1307/2/4
f 1307/2/4 1300/2/4 1308/2/4
f 1306/2/4 1307/2/4 1309/2/4
f 1309/2/4 1307/2/4 1310/2/4
f 1311/2/4 1312/2/4 1313/2/4
f 1313/2/4 1312/2/4 1314/2/4
f 1318/1/5 1316/1/5 1315/1/5
f 1319/1/5 1316/1/5 1318/1/5
f 1322/1/5 1318/1/5 1317/1/5
f 1322/1/5 1320/1/5 1319/1/5
f 1322/1/5 1319/1/5 1318/1/5
f 1323/1/5 1320/1/5 1322/1/5
f 1326/1/5 1322/1/5 1321/1/5
f 1326/1/5 1324/1/5 1323/1/5
f 1326/1/5 1323/1/5 1322/1/5
f 1327/1/5 1324/1/5 1326/1/5
f 1329/1/5 1326/1/5 1325/1/5
f 1329/1/5 1328/1/5 1327/1/5
f 1329/1/5 1327/1/5 1326/1/5
f 1330/1/5 1328/1/5 1329/1/5
f 1331/1/5 1328/1/5 1330/1/5
f 1332/1/5 1328/1/5 1331/1/5
f 1333/1/5 1331/1/5 1330/1/5
f 1334/1/5 1331/1/5 1333/1/5
f 1335/1/5 1331/1/5 1334/1/5
f 1336/1/5 1331/1/5 1335/1/5
f 1337/1/5 1335/1/5 1334/1/5
f 1338/1/5 1335/1/5 1337/1/5
f 1339/1/5 1335/1/5 1338/1/5
f 1340/1/5 1335/1/5 1339/1/5
f 1341/1/5 1339/1/5 1338/1/5
f 1342/1/5 1339/1/5 1341/1/5
f 1346/1/5 1344/1/5 1343/1/5
f 1347/1/5 1344/1/5 1346/1/5
f 1350/1/5 1346/1/5 1345/1/5
f 1351/1/5 1346/1/5 1350/1/5
f 1352/1/5 1348/1/5 1347/1/5
f 1353/1/5 1348/1/5 1352/1/5
f 1355/1/5 1350/1/5 1349/1/5
f 1356/1/5 1350/1/5 1355/1/5
f 1359/1/5 1354/1/5 1353/1/5
f 1360/1/5 1354/1/5 1359/1/5
f 1361/1/5 1357/1/5 1356/1/5
f 1362/1/5 1357/1/5 1361/1/5
f 1363/1/5 1359/1/5 1358/1/5
f 1364/1/5 1359/1/5 1363/1/5
f 1365/1/5 1363/1/5 1362/1/5
f 1366/1/5 1363/1/5 1365/1/5
f 1369/1/5 1368/1/5 1367/1/5
f 1370/1/5 1368/1/5 1369/1/5
f 1373/1/5 1372/1/5 1371/1/5
f 1374/1/5 1372/1/5 1373/1/5
f 1377/1/5 1376/1/5 1375/1/5
f 1378/1/5 1376/1/5 1377/1/5
f 1381/1/5 1380/1/5 1379/1/5
f 1382/1/5 1380/1/5 1381/1/5
f 1385/1/5 1384/1/5 1383/1/5
f 1386/1/5 1384/1/5 1385/1/5
f 1389/1/5 1388/1/5 1387/1/5
f 1390/1/5 1388/1/5 1389/1/5
f 1393/2/5 1392/2/5 1391/2/5
f 1394/2/5 1392/2/5 1393/2/5
f 1396/2/5 1393/2/5 1391/2/5
f 1397/2/5 1392/2/5 1394/2/5
f 1399/2/5 1396/2/5 1395/2/5
f 1399/2/5 1393/2/5 1396/2/5
f 1400/2/5 1393/2/5 1399/2/5
f 1401/2/5 1398/2/5 1397/2/5
f 1401/2/5 1397/2/5 1394/2/5
f 1402/2/5 1398/2/5 1401/2/5
f 1403/2/5 1399/2/5 1395/2/5
f 1404/2/5 1399/2/5 1403/2/5
f 1405/2/5 1403/2/5 1395/2/5
f 1409/2/5 1406/2/5 1405/2/5
f 1409/2/5 1405/2/5 1395/2/5
f 1410/2/5 1406/2/5 1409/2/5
f 1411/1/5 1408/1/5 1407/1/5
f 1412/1/5 1408/1/5 1411/1/5
f 1413/2/5 1398/2/5 1402/2/5
f 1414/2/5 1398/2/5 1413/2/5
f 1415/2/5 1412/2/5 1411/2/5
f 1416/2/5 1412/2/5 1415/2/5
f 1417/1/5 1416/1/5 1415/1/5
f 1418/1/5 1416/1/5 1417/1/5
f 1423/2/5 1420/2/5 1419/2/5
f 1424/2/5 1420/2/5 1423/2/5
f 1425/2/5 1422/2/5 1421/2/5
f 1426/2/5 1422/2/5 1425/2/5
f 1427/2/5 1425/2/5 1424/2/5
f 1428/2/5 1425/2/5 1427/2/5
f 1431/2/5 1430/2/5 1429/2/5
f 1432/2/5 1430/2/5 1431/2/5
f 1436/2/5 1434/2/5 1433/2/5
f 1437/2/5 1434/2/5 1436/2/5
f 1439/2/5 1436/2/5 1435/2/5
f 1439/2/5 1438/2/5 1437/2/5
f 1439/2/5 1437/2/5 1436/2/5
f 1440/2/5 1438/2/5 1439/2/5
f 1441/2/5 1439/2/5 1435/2/5
f 1442/2/5 1439/2/5 1441/2/5
f 1443/2/5 1438/2/5 1440/2/5
f 1444/2/5 1438/2/5 1443/2/5
f 1445/2/5 1441/2/5 1435/2/5
f 1448/2/5 1438/2/5 1444/2/5
f 1449/2/5 1438/2/5 1448/2/5
f 1450/2/5 1438/2/5 1449/2/5
f 1451/2/5 1446/2/5 1445/2/5
f 1451/2/5 1445/2/5 1435/2/5
f 1452/2/5 1446/2/5 1451/2/5
f 1453/2/5 1449/2/5 1448/2/5
f 1453/2/5 1448/2/5 1447/2/5
f 1454/2/5 1449/2/5 1453/2/5
f 1455/2/5 1446/2/5 1452/2/5
f 1456/2/5 1446/2/5 1455/2/5
f 1457/2/5 1453/2/5 1447/2/5
f 1458/2/5 1453/2/5 1457/2/5
f 1463/2/5 1460/2/5 1459/2/5
f 1464/2/5 1460/2/5 1463/2/5
f 1465/2/5 1462/2/5 1461/2/5
f 1466/2/5 1462/2/5 1465/2/5
f 1471/2/5 1468/2/5 1467/2/5
f 1472/2/5 1468/2/5 1471/2/5
f 1473/2/5 1470/2/5 1469/2/5
f 1474/2/5 1470/2/5 1473/2/5
f 1480/2/5 1476/2/5 1475/2/5
f 1481/2/5 1478/2/5 1477/2/5
f 1482/2/5 1480/2/5 1479/2/5
f 1483/2/5 1481/2/5 1477/2/5
f 1483/2/5 1482/2/5 1481/2/5
f 1484/2/5 1482/2/5 1483/2/5
f 1485/2/5 1480/2/5 1482/2/5
f 1485/2/5 1482/2/5 1484/2/5
f 1485/2/5 1476/2/5 1480/2/5
f 1486/2/5 1476/2/5 1485/2/5
f 1487/2/5 1485/2/5 1484/2/5
f 1488/2/5 1485/2/5 1487/2/5
f 1491/2/5 1490/2/5 1489/2/5
f 1492/2/5 1490/2/5 1491/2/5
f 1497/2/5 1494/2/5 1493/2/5
f 1498/2/5 1494/2/5 1497/2/5
f 1499/2/5 1496/2/5 1495/2/5
f 1500/2/5 1496/2/5 1499/2/5
f 1505/2/5 1502/2/5 1501/2/5
f 1506/2/5 1502/2/5 1505/2/5
f 1507/2/5 1504/2/5 1503/2/5
f 1508/2/5 1504/2/5 1507/2/5
f 1513/2/5 1510/2/5 1509/2/5
f 1514/2/5 1510/2/5 1513/2/5
f 1515/2/5 1512/2/5 1511/2/5
f 1516/2/5 1512/2/5 1515/2/5
f 1519/2/5 1518/2/5 1517/2/5
f 1520/2/5 1518/2/5 1519/2/5
f 1523/2/5 1522/2/5 1521/2/5
f 1524/2/5 1522/2/5 1523/2/5
f 1529/2/5 1526/2/5 1525/2/5
f 1530/2/5 1526/2/5 1529/2/5
f 1531/2/5 1528/2/5 1527/2/5
f 1532/2/5 1528/2/5 1531/2/5
f 1537/2/5 1534/2/5 1533/2/5
f 1538/2/5 1534/2/5 1537/2/5
f 1539/2/5 1536/2/5 1535/2/5
f 1540/2/5 1536/2/5 1539/2/5
f 1543/2/5 1542/2/5 1541/2/5
f 1544/2/5 1542/2/5 1543/2/5
f 1549/2/5 1546/2/5 1545/2/5
f 1550/2/5 1546/2/5 1549/2/5
f 1551/2/5 1548/2/5 1547/2/5
f 1552/2/5 1548/2/5 1551/2/5
f 1555/2/5 1554/2/5 1553/2/5
f 1556/2/5 1554/2/5 1555/2/5
f 1561/2/5 1558/2/5 1557/2/5
f 1562/2/5 1558/2/5 1561/2/5
f 1563/2/5 1560/2/5 1559/2/5
f 1564/2/5 1560/2/5 1563/2/5
f 1567/2/5 1566/2/5 1565/2/5
f 1568/2/5 1566/2/5 1567/2/5
f 1569/2/5 1567/2/5 1565/2/5
f 1570/2/5 1566/2/5 1568/2/5
f 1571/2/5 1569/2/5 1565/2/5
f 1571/2/5 1570/2/5 1569/2/5
f 1572/2/5 1570/2/5 1571/2/5
f 1573/2/5 1566/2/5 1570/2/5
f 1573/2/5 1570/2/5 1572/2/5
f 1574/2/5 1566/2/5 1573/2/5
f 1575/2/5 1573/2/5 1572/2/5
f 1576/2/5 1573/2/5 1575/2/5
f 1579/2/5 1578/2/5 1577/2/5
f 1580/2/5 1578/2/5 1579/2/5
f 1583/2/5 1582/2/5 1581/2/5
f 1584/2/5 1582/2/5 1583/2/5
f 1589/2/5 1586/2/5 1585/2/5
f 1590/2/5 1586/2/5 1589/2/5
f 1591/2/5 1588/2/5 1587/2/5
f 1592/2/5 1588/2/5 1591/2/5
f 1597/2/5 1594/2/5 1593/2/5
f 1598/2/5 1594/2/5 1597/2/5
f 1599/2/5 1596/2/5 1595/2/5
f 1600/2/5 1596/2/5 1599/2/5
f 1605/2/5 1602/2/5 1601/2/5
f 1606/2/5 1602/2/5 1605/2/5
f 1607/2/5 1604/2/5 1603/2/5
f 1608/2/5 1604/2/5 1607/2/5
f 1612/2/5 1610/2/5 1609/2/5
f 1613/2/5 1610/2/5 1612/2/5
f 1615/2/5 1612/2/5 1611/2/5
f 1615/2/5 1614/2/5 1613/2/5
f 1615/2/5 1613/2/5 1612/2/5
f 1616/2/5 1614/2/5 1615/2/5
f 1617/1/5 1616/1/5 1615/1/5
f 1618/1/5 1616/1/5 1617/1/5
f 1619/1/5 1617/1/5 1615/1/5
f 1620/1/5 1616/1/5 1618/1/5
f 1621/2/5 1615/2/5 1611/2/5
f 1622/2/5 1615/2/5 1621/2/5
f 1623/1/5 1620/1/5 1619/1/5
f 1623/2/5 1615/2/5 1622/2/5
f 1623/1/5 1619/1/5 1615/1/5
f 1624/2/5 1614/2/5 1616/2/5
f 1624/1/5 1620/1/5 1623/1/5
f 1624/1/5 1616/1/5 1620/1/5
f 1625/2/5 1614/2/5 1624/2/5
f 1626/2/5 1614/2/5 1625/2/5
f 1627/2/5 1623/2/5 1622/2/5
f 1627/2/5 1625/2/5 1624/2/5
f 1627/2/5 1624/2/5 1623/2/5
f 1628/2/5 1625/2/5 1627/2/5
f 1631/2/5 1630/2/5 1629/2/5
f 1632/2/5 1630/2/5 1631/2/5
f 1633/1/6 1634/1/6 1636/1/6
f 1636/1/6 1634/1/6 1637/1/6
f 1635/1/6 1636/1/6 1640/1/6
f 1637/1/6 1638/1/6 1640/1/6
f 1636/1/6 1637/1/6 1640/1/6
f 1640/1/6 1638/1/6 1641/1/6
f 1639/1/6 1640/1/6 1643/1/6
f 1641/1/6 1642/1/6 1643/1/6
f 1640/1/6 1641/1/6 1643/1/6
f 1643/1/6 1642/1/6 1644/1/6
f 1644/1/6 1642/1/6 1645/1/6
f 1645/1/6 1642/1/6 1646/1/6
f 1644/1/6 1645/1/6 1647/1/6
f 1647/1/6 1645/1/6 1648/1/6
f 1648/1/6 1645/1/6 1649/1/6
f 1649/1/6 1645/1/6 1650/1/6
f 1648/1/6 1649/1/6 1651/1/6
f 1651/1/6 1649/1/6 1652/1/6
f 1653/1/6 1654/1/6 1656/1/6
f 1656/1/6 1654/1/6 1657/1/6
f 1655/1/6 1656/1/6 1660/1/6
f 1660/1/6 1656/1/6 1661/1/6
f 1657/1/6 1658/1/6 1662/1/6
f 1662/1/6 1658/1/6 1663/1/6
f 1659/1/6 1660/1/6 1666/1/6
f 1666/1/6 1660/1/6 1667/1/6
f 1663/1/6 1664/1/6 1668/1/6
f 1668/1/6 1664/1/6 1669/1/6
f 1665/1/6 1666/1/6 1671/1/6
f 1671/1/6 1666/1/6 1672/1/6
f 1669/1/6 1670/1/6 1675/1/6
f 1675/1/6 1670/1/6 1676/1/6
f 1672/1/6 1673/1/6 1677/1/6
f 1677/1/6 1673/1/6 1678/1/6
f 1674/1/6 1675/1/6 1681/1/6
f 1681/1/6 1675/1/6 1682/1/6
f 1678/1/6 1679/1/6 1683/1/6
f 1683/1/6 1679/1/6 1684/1/6
f 1680/1/6 1681/1/6 1685/1/6
f 1685/1/6 1681/1/6 1686/1/6
f 1684/1/6 1685/1/6 1687/1/6
f 1687/1/6 1685/1/6 1688/1/6
f 1689/1/6 1690/1/6 1692/1/6
f 1692/1/6 1690/1/6 1693/1/6
f 1693/1/6 1690/1/6 1694/1/6
f 1691/1/6 1692/1/6 1697/1/6
f 1692/1/6 1693/1/6 1697/1/6
f 1697/1/6 1693/1/6 1698/1/6
f 1698/1/6 1693/1/6 1699/1/6
f 1694/1/6 1695/1/6 1700/1/6
f 1700/1/6 1695/1/6 1701/1/6
f 1696/1/6 1697/1/6 1703/1/6
f 1697/1/6 1698/1/6 1703/1/6
f 1703/1/6 1698/1/6 1704/1/6
f 1696/1/6 1703/1/6 1705/1/6
f 1696/1/6 1705/1/6 1707/1/6
f 1705/1/6 1706/1/6 1707/1/6
f 1707/1/6 1706/1/6 1708/1/6
f 1708/1/6 1706/1/6 1709/1/6
f 1701/1/6 1702/1/6 1712/1/6
f 1712/1/6 1702/1/6 1713/1/6
f 1709/1/6 1710/1/6 1714/1/6
f 1708/1/6 1709/1/6 1714/1/6
f 1714/1/6 1710/1/6 1715/1/6
f 1715/1/6 1710/1/6 1716/1/6
f 1711/1/6 1712/1/6 1717/1/6
f 1717/1/6 1712/1/6 1718/1/6
f 1715/1/6 1716/1/6 1719/1/6
f 1716/1/6 1717/1/6 1719/1/6
f 1719/1/6 1717/1/6 1720/1/6
f 1721/1/6 1722/1/6 1723/1/6
f 1723/1/6 1722/1/6 1724/1/6
f 1725/1/6 1726/1/6 1727/1/6
f 1727/1/6 1726/1/6 1728/1/6
f 1729/2/6 1730/2/6 1731/2/6
f 1731/2/6 1730/2/6 1732/2/6
f 1731/1/6 1732/1/6 1733/1/6
f 1733/1/6 1732/1/6 1734/1/6
f 1731/1/6 1733/1/6 1735/1/6
f 1734/1/6 1732/1/6 1736/1/6
f 1729/2/6 1731/2/6 1737/2/6
f 1735/1/6 1736/1/6 1738/1/6
f 1737/2/6 1731/2/6 1738/2/6
f 1731/1/6 1735/1/6 1738/1/6
f 1736/1/6 1732/1/6 1739/1/6
f 1738/1/6 1736/1/6 1739/1/6
f 1740/2/6 1741/2/6 1744/2/6
f 1741/1/6 1742/1/6 1745/1/6
f 1744/2/6 1741/2/6 1745/2/6
f 1742/2/6 1743/2/6 1746/2/6
f 1745/1/6 1742/1/6 1746/1/6
f 1746/2/6 1743/2/6 1747/2/6
f 1744/1/6 1745/1/6 1748/1/6
f 1745/1/6 1746/1/6 1748/1/6
f 1746/1/6 1747/1/6 1748/1/6
f 1748/1/6 1747/1/6 1749/1/6
f 1744/1/6 1748/1/6 1750/1/6
f 1749/1/6 1747/1/6 1753/1/6
f 1750/1/6 1751/1/6 1754/1/6
f 1744/1/6 1750/1/6 1754/1/6
f 1754/1/6 1751/1/6 1755/1/6
f 1752/1/6 1753/1/6 1756/1/6
f 1753/1/6 1747/1/6 1757/1/6
f 1756/1/6 1753/1/6 1757/1/6
f 1758/2/6 1759/2/6 1763/2/6
f 1759/1/6 1760/1/6 1764/1/6
f 1763/2/6 1759/2/6 1764/2/6
f 1764/1/6 1760/1/6 1765/1/6
f 1761/1/6 1762/1/6 1766/1/6
f 1766/1/6 1762/1/6 1767/1/6
f 1765/1/6 1766/1/6 1768/1/6
f 1768/1/6 1766/1/6 1769/1/6
f 1768/2/6 1769/2/6 1770/2/6
f 1770/2/6 1769/2/6 1771/2/6
f 1772/2/6 1773/2/6 1775/2/6
f 1775/2/6 1773/2/6 1776/2/6
f 1774/2/6 1775/2/6 1778/2/6
f 1776/2/6 1777/2/6 1778/2/6
f 1775/2/6 1776/2/6 1778/2/6
f 1778/2/6 1777/2/6 1779/2/6
f 1774/2/6 1778/2/6 1780/2/6
f 1779/2/6 1777/2/6 1781/2/6
f 1774/2/6 1780/2/6 1782/2/6
f 1780/2/6 1781/2/6 1782/2/6
f 1781/2/6 1777/2/6 1783/2/6
f 1782/2/6 1781/2/6 1783/2/6
f 1774/2/6 1782/2/6 1784/2/6
f 1783/2/6 1777/2/6 1785/2/6
f 1785/2/6 1777/2/6 1786/2/6
f 1786/2/6 1777/2/6 1787/2/6
f 1774/2/6 1784/2/6 1788/2/6
f 1784/2/6 1785/2/6 1788/2/6
f 1785/2/6 1786/2/6 1788/2/6
f 1788/2/6 1786/2/6 1789/2/6
f 1790/2/6 1791/2/6 1794/2/6
f 1794/2/6 1791/2/6 1795/2/6
f 1792/2/6 1793/2/6 1796/2/6
f 1796/2/6 1793/2/6 1797/2/6
f 1798/2/6 1799/2/6 1802/2/6
f 1802/2/6 1799/2/6 1803/2/6
f 1800/2/6 1801/2/6 1804/2/6
f 1804/2/6 1801/2/6 1805/2/6
f 1806/2/6 1807/2/6 1810/2/6
f 1810/2/6 1807/2/6 1811/2/6
f 1808/2/6 1809/2/6 1812/2/6
f 1812/2/6 1809/2/6 1813/2/6
f 1814/2/6 1815/2/6 1817/2/6
f 1816/2/6 1817/2/6 1818/2/6
f 1818/2/6 1817/2/6 1819/2/6
f 1816/2/6 1818/2/6 1820/2/6
f 1819/2/6 1817/2/6 1821/2/6
f 1816/2/6 1820/2/6 1822/2/6
f 1820/2/6 1821/2/6 1822/2/6
f 1822/2/6 1821/2/6 1823/2/6
f 1817/2/6 1815/2/6 1824/2/6
f 1823/2/6 1821/2/6 1824/2/6
f 1821/2/6 1817/2/6 1824/2/6
f 1824/2/6 1815/2/6 1825/2/6
f 1823/2/6 1824/2/6 1826/2/6
f 1826/2/6 1824/2/6 1827/2/6
f 1828/2/6 1829/2/6 1830/2/6
f 1830/2/6 1829/2/6 1831/2/6
f 1832/2/6 1833/2/6 1836/2/6
f 1836/2/6 1833/2/6 1837/2/6
f 1834/2/6 1835/2/6 1838/2/6
f 1838/2/6 1835/2/6 1839/2/6
f 1840/2/6 1841/2/6 1844/2/6
f 1844/2/6 1841/2/6 1845/2/6
f 1842/2/6 1843/2/6 1846/2/6
f 1846/2/6 1843/2/6 1847/2/6
f 1848/2/6 1849/2/6 1852/2/6
f 1852/2/6 1849/2/6 1853/2/6
f 1850/2/6 1851/2/6 1854/2/6
f 1854/2/6 1851/2/6 1855/2/6
f 1856/2/6 1857/2/6 1858/2/6
f 1858/2/6 1857/2/6 1859/2/6
f 1860/2/6 1861/2/6 1862/2/6
f 1862/2/6 1861/2/6 1863/2/6
f 1864/2/6 1865/2/6 1868/2/6
f 1868/2/6 1865/2/6 1869/2/6
f 1866/2/6 1867/2/6 1870/2/6
f 1870/2/6 1867/2/6 1871/2/6
f 1872/2/6 1873/2/6 1876/2/6
f 1876/2/6 1873/2/6 1877/2/6
f 1874/2/6 1875/2/6 1878/2/6
f 1878/2/6 1875/2/6 1879/2/6
f 1880/2/6 1881/2/6 1882/2/6
f 1882/2/6 1881/2/6 1883/2/6
f 1884/2/6 1885/2/6 1888/2/6
f 1888/2/6 1885/2/6 1889/2/6
f 1886/2/6 1887/2/6 1890/2/6
f 1890/2/6 1887/2/6 1891/2/6
f 1892/2/6 1893/2/6 1894/2/6
f 1894/2/6 1893/2/6 1895/2/6
f 1896/2/6 1897/2/6 1900/2/6
f 1900/2/6 1897/2/6 1901/2/6
f 1898/2/6 1899/2/6 1902/2/6
f 1902/2/6 1899/2/6 1903/2/6
f 1904/2/6 1905/2/6 1906/2/6
f 1906/2/6 1905/2/6 1907/2/6
f 1904/2/6 1906/2/6 1908/2/6
f 1907/2/6 1905/2/6 1909/2/6
f 1904/2/6 1908/2/6 1910/2/6
f 1908/2/6 1909/2/6 1910/2/6
f 1910/2/6 1909/2/6 1911/2/6
f 1909/2/6 1905/2/6 1912/2/6
f 1911/2/6 1909/2/6 1912/2/6
f 1912/2/6 1905/2/6 1913/2/6
f 1911/2/6 1912/2/6 1914/2/6
f 1914/2/6 1912/2/6 1915/2/6
f 1916/2/6 1917/2/6 1918/2/6
f 1918/2/6 1917/2/6 1919/2/6
f 1920/2/6 1921/2/6 1922/2/6
f 1922/2/6 1921/2/6 1923/2/6
f 1924/2/6 1925/2/6 1928/2/6
f 1928/2/6 1925/2/6 1929/2/6
f 1926/2/6 1927/2/6 1930/2/6
f 1930/2/6 1927/2/6 1931/2/6
f 1932/2/6 1933/2/6 1936/2/6
f 1936/2/6 1933/2/6 1937/2/6
f 1934/2/6 1935/2/6 1938/2/6
f 1938/2/6 1935/2/6 1939/2/6
f 1940/2/6 1941/2/6 1944/2/6
f 1944/2/6 1941/2/6 1945/2/6
f 1942/2/6 1943/2/6 1946/2/6
f 1946/2/6 1943/2/6 1947/2/6
f 1948/2/6 1949/2/6 1951/2/6
f 1951/2/6 1949/2/6 1952/2/6
f 1950/2/6 1951/2/6 1954/2/6
f 1952/2/6 1953/2/6 1954/2/6
f 1951/2/6 1952/2/6 1954/2/6
f 1954/2/6 1953/2/6 1955/2/6
f 1950/2/6 1954/2/6 1956/2/6
f 1955/2/6 1953/2/6 1957/2/6
f 1950/2/6 1956/2/6 1958/2/6
f 1956/2/6 1957/2/6 1958/2/6
f 1958/2/6 1957/2/6 1959/2/6
f 1957/2/6 1953/2/6 1960/2/6
f 1959/2/6 1957/2/6 1960/2/6
f 1960/2/6 1953/2/6 1961/2/6
f 1959/2/6 1960/2/6 1962/2/6
f 1962/2/6 1960/2/6 1963/2/6
f 1964/2/6 1965/2/6 1966/2/6
f 1966/2/6 1965/2/6 1967/2/6
