# MagicaVoxel @ Ephtracy

# group
o 

# material
mtllib Piedra2.mtl
usemtl palette

# normals
vn -1 0 0
vn 1 0 0
vn 0 0 1
vn 0 0 -1
vn 0 -1 0
vn 0 1 0

# texcoords
vt 0.978516 0.5
vt 0.982422 0.5

# verts
v -1.4 0 0.2
v -1.4 0 0
v -1.4 0.2 0.2
v -1.4 0.2 0
v -1.3 0 0.4
v -1.3 0 0.2
v -1.3 0 0
v -1.3 0 -0.4
v -1.3 0.2 0.2
v -1.3 0.2 0
v -1.3 0.5 0.4
v -1.3 0.5 0.3
v -1.3 0.5 -0.2
v -1.3 0.5 -0.4
v -1.3 0.7 0.3
v -1.3 0.7 -0.2
v -1.2 0 0.7
v -1.2 0 0.4
v -1.2 0 -0.4
v -1.2 0 -0.5
v -1.2 0 -0.6
v -1.2 0 -0.7
v -1.2 0 -0.8
v -1.2 0 -0.9
v -1.2 0.2 -0.6
v -1.2 0.2 -0.7
v -1.2 0.2 -0.8
v -1.2 0.2 -0.9
v -1.2 0.5 0.7
v -1.2 0.5 0.4
v -1.2 0.5 0.3
v -1.2 0.5 -0.2
v -1.2 0.5 -0.4
v -1.2 0.5 -0.5
v -1.2 0.7 0.3
v -1.2 0.7 -0.2
v -1.2 1.1 0.4
v -1.2 1.1 -0.4
v -1.1 0 1
v -1.1 0 0.8
v -1.1 0 -0.5
v -1.1 0 -0.6
v -1.1 0 -0.7
v -1.1 0 -0.8
v -1.1 0 -0.9
v -1.1 0 -1.2
v -1.1 0.2 1
v -1.1 0.2 0.8
v -1.1 0.2 -0.6
v -1.1 0.2 -0.7
v -1.1 0.2 -0.8
v -1.1 0.2 -0.9
v -1.1 0.5 -0.5
v -1.1 0.5 -1.2
v -1 0 1.2
v -1 0 1
v -1 0 0.8
v -1 0 0.7
v -1 0.2 1
v -1 0.2 0.8
v -1 0.5 1.2
v -1 0.5 1
v -1 0.5 0.7
v -1 0.5 0.5
v -1 0.5 0.4
v -1 0.5 -0.4
v -1 0.5 -0.9
v -1 0.7 1
v -1 0.7 0.8
v -1 0.7 0.5
v -1 0.7 0.4
v -1 0.7 -0.4
v -1 0.7 -0.9
v -1 0.9 1
v -1 0.9 0.8
v -1 1.1 0.2
v -1 1.1 0.1
v -1 1.1 -0.1
v -1 1.1 -0.2
v -1 1.1 -0.3
v -1 1.1 -0.4
v -1 1.4 0.2
v -1 1.4 0.1
v -1 1.4 -0.1
v -1 1.4 -0.2
v -1 1.4 -0.3
v -1 1.4 -0.4
v -0.9 0.5 1.1
v -0.9 0.5 1
v -0.9 0.5 -0.9
v -0.9 0.5 -1.1
v -0.9 0.7 1.1
v -0.9 0.7 1
v -0.9 0.7 0.8
v -0.9 0.7 0.5
v -0.9 0.7 0.4
v -0.9 0.7 -0.4
v -0.9 0.7 -0.9
v -0.9 0.9 1
v -0.9 0.9 0.8
v -0.9 1.1 1
v -0.9 1.1 0.4
v -0.9 1.1 0.2
v -0.9 1.1 0.1
v -0.9 1.1 -0.1
v -0.9 1.1 -0.2
v -0.9 1.1 -0.3
v -0.9 1.1 -0.4
v -0.9 1.1 -0.5
v -0.9 1.1 -0.8
v -0.9 1.1 -1.1
v -0.9 1.4 0.2
v -0.9 1.4 0.1
v -0.9 1.4 -0.1
v -0.9 1.4 -0.2
v -0.9 1.4 -0.3
v -0.9 1.4 -0.4
v -0.9 1.4 -0.5
v -0.9 1.4 -0.8
v -0.9 1.6 0.4
v -0.9 1.6 0.3
v -0.9 1.6 0.2
v -0.9 1.6 0
v -0.9 1.6 -0.4
v -0.9 1.8 0.4
v -0.9 1.8 0.3
v -0.9 1.8 0.2
v -0.9 1.8 0
v -0.8 0 -1.2
v -0.8 0 -1.3
v -0.8 0.2 -1.2
v -0.8 0.2 -1.3
v -0.8 0.5 -1.1
v -0.8 0.5 -1.2
v -0.8 0.7 1.1
v -0.8 0.7 1
v -0.8 0.7 -1.1
v -0.8 0.7 -1.2
v -0.8 0.9 1.1
v -0.8 0.9 1
v -0.8 1.1 0.8
v -0.8 1.1 0.4
v -0.8 1.1 -0.4
v -0.8 1.1 -0.5
v -0.8 1.1 -0.8
v -0.8 1.1 -0.9
v -0.8 1.4 -0.5
v -0.8 1.4 -0.8
v -0.8 1.6 0.8
v -0.8 1.6 0.4
v -0.8 1.6 0.3
v -0.8 1.6 0.2
v -0.8 1.6 0
v -0.8 1.6 -0.4
v -0.8 1.6 -0.9
v -0.8 1.8 0.4
v -0.8 1.8 0.3
v -0.8 1.8 0.2
v -0.8 1.8 0
v -0.8 2.1 0.4
v -0.8 2.1 -0.4
v -0.7 0 1.3
v -0.7 0 1.2
v -0.7 0.2 1.3
v -0.7 0.2 1.2
v -0.7 2.1 -0.1
v -0.7 2.1 -0.3
v -0.7 2.3 -0.1
v -0.7 2.3 -0.3
v -0.6 0.9 1.1
v -0.6 0.9 1
v -0.6 1.1 1.1
v -0.6 1.1 1
v -0.6 1.1 0.9
v -0.6 1.1 0.8
v -0.6 1.4 0.9
v -0.6 1.4 0.8
v -0.6 1.6 0.7
v -0.6 1.6 0.4
v -0.6 1.6 -0.4
v -0.6 1.6 -0.8
v -0.6 2.1 0.7
v -0.6 2.1 0.4
v -0.6 2.1 -0.1
v -0.6 2.1 -0.3
v -0.6 2.1 -0.4
v -0.6 2.1 -0.8
v -0.6 2.3 -0.1
v -0.6 2.3 -0.3
v -0.6 2.5 0.4
v -0.6 2.5 -0.1
v -0.6 2.5 -0.2
v -0.6 2.5 -0.4
v -0.6 2.7 -0.1
v -0.6 2.7 -0.2
v -0.5 0.5 1.2
v -0.5 0.5 1.1
v -0.5 0.7 1.2
v -0.5 0.7 1.1
v -0.5 1.1 -0.9
v -0.5 1.1 -1
v -0.5 1.4 -0.9
v -0.5 1.4 -1
v -0.5 2.1 -0.4
v -0.5 2.1 -0.6
v -0.5 2.1 -0.7
v -0.5 2.3 -0.6
v -0.5 2.3 -0.7
v -0.5 2.5 0.3
v -0.5 2.5 -0.1
v -0.5 2.5 -0.2
v -0.5 2.5 -0.4
v -0.5 2.5 -0.5
v -0.5 2.5 -0.6
v -0.5 2.7 0.3
v -0.5 2.7 -0.1
v -0.5 2.7 -0.2
v -0.5 2.7 -0.5
v -0.4 0 -1.2
v -0.4 0 -1.3
v -0.4 0.5 -1.1
v -0.4 0.5 -1.2
v -0.4 0.5 -1.3
v -0.4 0.7 -1.1
v -0.4 0.7 -1.2
v -0.4 1.1 0.9
v -0.4 1.1 0.8
v -0.4 1.4 0.9
v -0.4 1.4 0.8
v -0.4 2.1 0.5
v -0.4 2.1 0.4
v -0.4 2.1 0.3
v -0.4 2.1 -0.4
v -0.4 2.3 0.5
v -0.4 2.3 0.4
v -0.4 2.5 0.4
v -0.4 2.5 0.3
v -0.4 2.5 -0.4
v -0.4 2.7 0.4
v -0.4 2.7 0.3
v -0.3 2.1 0.6
v -0.3 2.1 0.5
v -0.3 2.1 -0.6
v -0.3 2.1 -0.7
v -0.3 2.3 0.6
v -0.3 2.3 0.5
v -0.3 2.3 -0.6
v -0.3 2.3 -0.7
v -0.3 2.7 0.2
v -0.3 2.7 -0.1
v -0.3 2.9 0.2
v -0.3 2.9 -0.1
v -0.2 0 1.4
v -0.2 0 1.2
v -0.2 0 -1.3
v -0.2 0 -1.5
v -0.2 0.2 1.4
v -0.2 0.2 1.3
v -0.2 0.5 1.3
v -0.2 0.5 1.2
v -0.2 0.5 1.1
v -0.2 0.5 -1.1
v -0.2 0.5 -1.3
v -0.2 0.5 -1.5
v -0.2 1.1 1.2
v -0.2 1.1 1.1
v -0.2 1.1 0.8
v -0.2 1.1 -1
v -0.2 1.1 -1.1
v -0.2 1.1 -1.3
v -0.2 1.4 -0.9
v -0.2 1.4 -1
v -0.2 1.6 1.1
v -0.2 1.6 0.8
v -0.2 1.6 0.7
v -0.2 1.6 -0.8
v -0.2 1.6 -0.9
v -0.2 1.6 -1.1
v -0.2 2.1 0.8
v -0.2 2.1 0.7
v -0.2 2.1 0.6
v -0.2 2.1 -0.7
v -0.2 2.1 -0.8
v -0.2 2.1 -0.9
v -0.2 2.3 0.6
v -0.2 2.3 0.4
v -0.2 2.3 -0.6
v -0.2 2.3 -0.7
v -0.2 2.5 -0.5
v -0.2 2.5 -0.6
v -0.2 2.7 0.7
v -0.2 2.7 0.4
v -0.2 2.7 0.2
v -0.2 2.7 -0.1
v -0.2 2.7 -0.4
v -0.2 2.7 -0.5
v -0.2 2.7 -0.8
v -0.2 2.9 0.2
v -0.2 2.9 -0.1
v -0.2 3 0.4
v -0.2 3 -0.4
v -0.1 1.6 0.9
v -0.1 1.6 0.8
v -0.1 1.8 0.9
v -0.1 1.8 0.8
v -0.1 2.7 -0.4
v -0.1 2.7 -0.5
v -0.1 2.9 -0.4
v -0.1 2.9 -0.5
v -0.1 3 0
v -0.1 3 -0.1
v -0.1 3.1 0
v -0.1 3.1 -0.1
v 0 0 -1.5
v 0 0 -1.6
v 0 0.2 -1.5
v 0 0.2 -1.6
v 0 1.6 1
v 0 1.6 0.9
v 0 1.8 1
v 0 1.8 0.9
v 0 2.7 0.5
v 0 2.7 0.4
v 0 2.9 0.5
v 0 2.9 0.4
v 0.1 3 -0.1
v 0.1 3 -0.2
v 0.1 3.1 -0.1
v 0.1 3.1 -0.2
v 0.2 0.5 -1.1
v 0.2 0.5 -1.2
v 0.2 0.9 -1.1
v 0.2 0.9 -1.2
v 0.2 1.1 1
v 0.2 1.1 0.8
v 0.2 1.1 -0.9
v 0.2 1.1 -1
v 0.2 1.4 1
v 0.2 1.4 0.8
v 0.2 1.4 -0.9
v 0.2 1.4 -1
v 0.2 2.1 0.6
v 0.2 2.1 0.5
v 0.2 2.1 -0.6
v 0.2 2.1 -0.7
v 0.2 2.3 -0.6
v 0.2 2.5 0.6
v 0.2 2.5 0.5
v 0.2 2.5 -0.6
v 0.2 2.5 -0.7
v 0.2 2.7 0.5
v 0.2 2.7 0.4
v 0.2 2.9 0.5
v 0.2 2.9 0.4
v 0.3 0.2 1.2
v 0.3 0.2 1.1
v 0.3 0.2 -1.1
v 0.3 0.2 -1.3
v 0.3 0.5 1.3
v 0.3 0.5 1.2
v 0.3 0.5 1.1
v 0.3 0.5 1
v 0.3 0.5 -1
v 0.3 0.5 -1.1
v 0.3 0.5 -1.3
v 0.3 0.7 1.3
v 0.3 0.7 1.2
v 0.3 0.9 1
v 0.3 0.9 0.8
v 0.3 0.9 -0.9
v 0.3 0.9 -1
v 0.3 1.1 1.1
v 0.3 1.1 0.8
v 0.3 1.1 0.7
v 0.3 1.1 -0.8
v 0.3 1.1 -0.9
v 0.3 1.1 -1.1
v 0.3 1.6 0.8
v 0.3 1.6 0.7
v 0.3 1.6 0.6
v 0.3 1.6 -0.7
v 0.3 1.6 -0.8
v 0.3 1.6 -0.9
v 0.3 1.8 0.6
v 0.3 1.8 0.5
v 0.3 1.8 -0.6
v 0.3 1.8 -0.7
v 0.3 2.1 0.7
v 0.3 2.1 0.5
v 0.3 2.1 0.4
v 0.3 2.1 -0.5
v 0.3 2.1 -0.6
v 0.3 2.1 -0.8
v 0.3 2.3 -0.5
v 0.3 2.3 -0.6
v 0.3 2.5 0.5
v 0.3 2.5 0.4
v 0.3 3 -0.2
v 0.3 3 -0.3
v 0.3 3.1 -0.2
v 0.3 3.1 -0.3
v 0.4 0.5 -1.1
v 0.4 0.5 -1.2
v 0.4 0.7 -1.1
v 0.4 0.7 -1.2
v 0.4 2.1 -0.4
v 0.4 2.1 -0.5
v 0.4 2.1 -0.6
v 0.4 2.1 -0.7
v 0.4 2.3 -0.6
v 0.4 2.3 -0.7
v 0.4 2.5 -0.4
v 0.4 2.5 -0.5
v 0.5 0.7 -1.1
v 0.5 0.7 -1.2
v 0.5 0.9 -1.1
v 0.5 0.9 -1.2
v 0.5 1.1 1
v 0.5 1.1 0.9
v 0.5 1.4 1
v 0.5 1.4 0.9
v 0.5 1.8 0.5
v 0.5 1.8 0.4
v 0.5 1.8 -0.4
v 0.5 1.8 -0.6
v 0.5 2.1 0.5
v 0.5 2.1 0.4
v 0.5 2.1 0.3
v 0.5 2.1 -0.4
v 0.5 2.1 -0.6
v 0.5 2.5 0.4
v 0.5 2.5 0.3
v 0.6 0 -1.2
v 0.6 0 -1.3
v 0.6 0.2 -1.2
v 0.6 0.2 -1.3
v 0.6 0.5 1.2
v 0.6 0.5 1.1
v 0.6 0.7 1.2
v 0.6 0.7 1.1
v 0.6 1.1 -0.9
v 0.6 1.1 -1
v 0.6 1.4 -0.9
v 0.6 1.4 -1
v 0.6 1.6 0.6
v 0.6 1.6 0.4
v 0.6 1.6 -0.4
v 0.6 1.6 -0.7
v 0.6 1.8 0.6
v 0.6 1.8 0.4
v 0.6 1.8 -0.4
v 0.6 1.8 -0.7
v 0.6 2.1 0.3
v 0.6 2.1 -0.3
v 0.6 2.5 0.3
v 0.6 2.5 -0.3
v 0.7 0.7 -1.1
v 0.7 0.7 -1.2
v 0.7 0.9 -1.1
v 0.7 0.9 -1.2
v 0.7 1.1 0.7
v 0.7 1.1 0.4
v 0.7 1.1 -0.4
v 0.7 1.1 -0.8
v 0.7 1.6 0.7
v 0.7 1.6 0.4
v 0.7 1.6 -0.4
v 0.7 1.6 -0.8
v 0.7 2.1 0.4
v 0.7 2.1 -0.4
v 0.8 0.5 -1.1
v 0.8 0.5 -1.2
v 0.8 0.7 -1.1
v 0.8 0.7 -1.2
v 0.8 0.9 0.8
v 0.8 0.9 0.4
v 0.8 0.9 -0.4
v 0.8 0.9 -0.9
v 0.8 1.1 0.8
v 0.8 1.1 0.4
v 0.8 1.1 0.3
v 0.8 1.1 -0.3
v 0.8 1.1 -0.4
v 0.8 1.1 -0.9
v 0.8 1.4 0.3
v 0.8 1.4 -0.3
v 0.8 1.6 0.4
v 0.8 1.6 -0.4
v 0.9 0.5 1
v 0.9 0.5 0.4
v 0.9 0.5 -0.4
v 0.9 0.5 -1
v 0.9 0.9 1
v 0.9 0.9 0.4
v 0.9 0.9 -0.4
v 0.9 0.9 -1
v 0.9 1.1 0.3
v 0.9 1.1 -0.3
v 0.9 1.4 0.3
v 0.9 1.4 -0.3
v 1 0.2 1.1
v 1 0.2 0.4
v 1 0.2 -0.4
v 1 0.2 -1.1
v 1 0.5 1.1
v 1 0.5 0.4
v 1 0.5 0.3
v 1 0.5 -0.3
v 1 0.5 -0.4
v 1 0.5 -1.1
v 1 0.9 0.3
v 1 0.9 -0.3
v 1 1.1 0.4
v 1 1.1 -0.4
v 1.1 0.5 0.3
v 1.1 0.5 -0.3
v 1.1 0.9 0.3
v 1.1 0.9 -0.3
v 1.2 0.2 0.4
v 1.2 0.2 -0.4
v 1.2 0.5 0.4
v 1.2 0.5 -0.4
v -1.2 0.2 0.4
v -1.2 0.2 -0.4
v -1.2 0.5 0.4
v -1.2 0.5 -0.4
v -1.1 0.5 0.3
v -1.1 0.5 -0.3
v -1.1 0.9 0.3
v -1.1 0.9 -0.3
v -0.9 0.2 1.1
v -0.9 0.2 0.4
v -0.9 0.2 -0.4
v -0.9 0.2 -1.1
v -0.9 0.5 1.1
v -0.9 0.5 0.4
v -0.9 0.5 0.3
v -0.9 0.5 -0.3
v -0.9 0.5 -0.4
v -0.9 0.5 -1.1
v -0.9 0.9 0.3
v -0.9 0.9 -0.3
v -0.9 1.1 0.4
v -0.9 1.1 -0.4
v -0.8 0.5 1
v -0.8 0.5 0.4
v -0.8 0.5 -0.4
v -0.8 0.5 -1
v -0.8 0.9 1
v -0.8 0.9 0.8
v -0.8 0.9 -0.9
v -0.8 0.9 -1
v -0.8 1.1 0.8
v -0.8 1.1 0.4
v -0.8 1.1 -0.4
v -0.8 1.1 -0.9
v -0.8 1.6 0.4
v -0.8 1.6 -0.4
v -0.7 1.1 0.7
v -0.7 1.1 0.4
v -0.7 1.1 -0.4
v -0.7 1.1 -0.8
v -0.7 1.4 0.7
v -0.7 1.4 0.4
v -0.7 1.4 -0.4
v -0.7 1.4 -0.8
v -0.7 1.6 0.3
v -0.7 1.6 -0.3
v -0.7 1.8 0.3
v -0.7 1.8 -0.3
v -0.6 0 -1.2
v -0.6 0 -1.3
v -0.6 0.2 -1.2
v -0.6 0.2 -1.3
v -0.6 1.4 0.7
v -0.6 1.4 0.4
v -0.6 1.4 -0.4
v -0.6 1.4 -0.8
v -0.6 1.6 0.7
v -0.6 1.6 0.4
v -0.6 1.6 0.3
v -0.6 1.6 -0.3
v -0.6 1.6 -0.4
v -0.6 1.6 -0.8
v -0.6 1.8 0.3
v -0.6 1.8 -0.3
v -0.6 2.1 0.4
v -0.6 2.1 -0.4
v -0.5 0.5 -1.1
v -0.5 0.5 -1.2
v -0.5 0.7 -1.1
v -0.5 0.7 -1.2
v -0.5 1.1 0.9
v -0.5 1.1 0.8
v -0.5 1.4 0.9
v -0.5 1.4 0.8
v -0.5 1.6 0.6
v -0.5 1.6 0.4
v -0.5 1.6 -0.4
v -0.5 1.6 -0.7
v -0.5 1.8 0.6
v -0.5 1.8 0.4
v -0.5 1.8 -0.6
v -0.5 1.8 -0.7
v -0.5 2.1 0.3
v -0.5 2.1 -0.4
v -0.5 2.1 -0.6
v -0.5 2.5 0.3
v -0.5 2.5 -0.4
v -0.4 0.5 1.2
v -0.4 0.5 1.1
v -0.4 0.7 1.2
v -0.4 0.7 1.1
v -0.4 2.1 -0.4
v -0.4 2.1 -0.5
v -0.4 2.1 -0.6
v -0.4 2.1 -0.7
v -0.4 2.3 -0.6
v -0.4 2.3 -0.7
v -0.4 2.5 -0.4
v -0.4 2.5 -0.5
v -0.3 0 1.3
v -0.3 0 1.2
v -0.3 0.2 1.3
v -0.3 0.2 1.2
v -0.3 0.5 -1.1
v -0.3 0.5 -1.2
v -0.3 0.7 -1.1
v -0.3 0.7 -1.2
v -0.3 1.1 0.9
v -0.3 1.1 0.8
v -0.3 1.4 0.9
v -0.3 1.4 0.8
v -0.2 0.2 1.2
v -0.2 0.2 1.1
v -0.2 0.2 -1.1
v -0.2 0.2 -1.3
v -0.2 0.5 1.2
v -0.2 0.5 1.1
v -0.2 0.5 1
v -0.2 0.5 -1
v -0.2 0.5 -1.1
v -0.2 0.5 -1.3
v -0.2 0.9 1
v -0.2 0.9 0.8
v -0.2 0.9 -0.9
v -0.2 0.9 -1
v -0.2 1.1 1.1
v -0.2 1.1 0.8
v -0.2 1.1 0.7
v -0.2 1.1 -0.8
v -0.2 1.1 -0.9
v -0.2 1.1 -1.1
v -0.2 1.6 0.8
v -0.2 1.6 0.7
v -0.2 1.6 0.6
v -0.2 1.6 -0.7
v -0.2 1.6 -0.8
v -0.2 1.6 -0.9
v -0.2 1.8 0.6
v -0.2 1.8 0.4
v -0.2 1.8 -0.6
v -0.2 1.8 -0.7
v -0.2 2.1 0.7
v -0.2 2.1 0.4
v -0.2 2.1 0.3
v -0.2 2.1 -0.5
v -0.2 2.1 -0.6
v -0.2 2.1 -0.8
v -0.2 2.3 -0.5
v -0.2 2.3 -0.6
v -0.2 2.5 0.4
v -0.2 2.5 0.3
v -0.1 0.5 -1.1
v -0.1 0.5 -1.2
v -0.1 0.9 -1.1
v -0.1 0.9 -1.2
v -0.1 1.1 1
v -0.1 1.1 0.8
v -0.1 1.1 -0.9
v -0.1 1.1 -1
v -0.1 1.4 1
v -0.1 1.4 0.8
v -0.1 1.4 -0.9
v -0.1 1.4 -1
v -0.1 2.1 0.6
v -0.1 2.1 0.4
v -0.1 2.1 -0.6
v -0.1 2.1 -0.7
v -0.1 2.3 -0.6
v -0.1 2.5 0.6
v -0.1 2.5 0.4
v -0.1 2.5 -0.6
v -0.1 2.5 -0.7
v 0 3 0
v 0 3 -0.1
v 0 3.1 0
v 0 3.1 -0.1
v 0.1 0 -1.5
v 0.1 0 -1.6
v 0.1 0.2 -1.5
v 0.1 0.2 -1.6
v 0.1 1.6 1
v 0.1 1.6 0.9
v 0.1 1.8 1
v 0.1 1.8 0.9
v 0.1 2.7 0.5
v 0.1 2.7 0.4
v 0.1 2.9 0.5
v 0.1 2.9 0.4
v 0.2 1.6 0.9
v 0.2 1.6 0.8
v 0.2 1.8 0.9
v 0.2 1.8 0.8
v 0.2 2.7 -0.4
v 0.2 2.7 -0.5
v 0.2 2.9 -0.4
v 0.2 2.9 -0.5
v 0.2 3 -0.1
v 0.2 3 -0.2
v 0.2 3.1 -0.1
v 0.2 3.1 -0.2
v 0.3 0 1.4
v 0.3 0 1.3
v 0.3 0 -1.3
v 0.3 0 -1.5
v 0.3 0.2 1.4
v 0.3 0.2 1.3
v 0.3 0.2 1.2
v 0.3 0.5 1.3
v 0.3 0.5 1.2
v 0.3 0.5 -1.1
v 0.3 0.5 -1.3
v 0.3 0.5 -1.5
v 0.3 0.7 1.2
v 0.3 0.7 1.1
v 0.3 1.1 1.2
v 0.3 1.1 1.1
v 0.3 1.1 0.9
v 0.3 1.1 -1
v 0.3 1.1 -1.1
v 0.3 1.1 -1.3
v 0.3 1.4 0.9
v 0.3 1.4 0.8
v 0.3 1.4 -0.9
v 0.3 1.4 -1
v 0.3 1.6 1.1
v 0.3 1.6 0.8
v 0.3 1.6 0.7
v 0.3 1.6 -0.8
v 0.3 1.6 -0.9
v 0.3 1.6 -1.1
v 0.3 2.1 0.8
v 0.3 2.1 0.7
v 0.3 2.1 0.5
v 0.3 2.1 -0.6
v 0.3 2.1 -0.8
v 0.3 2.1 -0.9
v 0.3 2.7 0.7
v 0.3 2.7 0.5
v 0.3 2.7 0.4
v 0.3 2.7 -0.6
v 0.3 2.7 -0.8
v 0.3 2.9 0.5
v 0.3 2.9 0.4
v 0.4 0 -1.2
v 0.4 0 -1.3
v 0.4 0.5 1.3
v 0.4 0.5 1.2
v 0.4 0.5 -1.2
v 0.4 0.5 -1.3
v 0.4 0.7 1.3
v 0.4 0.7 1.2
v 0.4 1.1 -0.9
v 0.4 1.1 -1
v 0.4 1.4 -0.9
v 0.4 1.4 -1
v 0.4 2.7 0.4
v 0.4 2.7 -0.4
v 0.4 3 0.4
v 0.4 3 -0.2
v 0.4 3 -0.3
v 0.4 3 -0.4
v 0.4 3.1 -0.2
v 0.4 3.1 -0.3
v 0.5 0.5 1.2
v 0.5 0.5 1.1
v 0.5 0.5 -1.1
v 0.5 0.5 -1.2
v 0.5 0.7 1.2
v 0.5 0.7 1.1
v 0.5 0.7 -1.1
v 0.5 0.7 -1.2
v 0.5 2.1 0.5
v 0.5 2.1 0.4
v 0.5 2.1 0.3
v 0.5 2.1 -0.3
v 0.5 2.1 -0.4
v 0.5 2.1 -0.5
v 0.5 2.1 -0.6
v 0.5 2.1 -0.7
v 0.5 2.3 -0.5
v 0.5 2.3 -0.6
v 0.5 2.3 -0.7
v 0.5 2.5 0.3
v 0.5 2.5 -0.3
v 0.5 2.7 0.5
v 0.5 2.7 0.4
v 0.5 2.7 -0.4
v 0.5 2.7 -0.6
v 0.6 0.7 -1.1
v 0.6 0.7 -1.2
v 0.6 0.9 -1.1
v 0.6 0.9 -1.2
v 0.6 1.1 1
v 0.6 1.1 0.9
v 0.6 1.4 1
v 0.6 1.4 0.9
v 0.6 2.1 -0.5
v 0.6 2.1 -0.6
v 0.6 2.3 -0.5
v 0.6 2.3 -0.6
v 0.7 1.1 -0.9
v 0.7 1.1 -1
v 0.7 1.4 -0.9
v 0.7 1.4 -1
v 0.7 1.6 0.7
v 0.7 1.6 0.4
v 0.7 1.6 -0.4
v 0.7 1.6 -0.8
v 0.7 2.1 0.7
v 0.7 2.1 0.4
v 0.7 2.1 -0.4
v 0.7 2.1 -0.8
v 0.7 2.7 0.4
v 0.7 2.7 -0.4
v 0.8 0 -1.2
v 0.8 0 -1.3
v 0.8 0.2 -1.2
v 0.8 0.2 -1.3
v 0.8 0.7 -1.1
v 0.8 0.7 -1.2
v 0.8 0.9 -1.1
v 0.8 0.9 -1.2
v 0.8 1.1 0.9
v 0.8 1.1 0.8
v 0.8 1.1 0.6
v 0.8 1.1 -0.5
v 0.8 1.1 -0.6
v 0.8 1.1 -0.7
v 0.8 1.1 -0.9
v 0.8 1.4 0.9
v 0.8 1.4 0.8
v 0.8 1.4 0.6
v 0.8 1.4 0.4
v 0.8 1.4 -0.4
v 0.8 1.4 -0.5
v 0.8 1.4 -0.6
v 0.8 1.4 -0.7
v 0.8 1.6 0.8
v 0.8 1.6 0.4
v 0.8 1.6 0.2
v 0.8 1.6 -0.2
v 0.8 1.6 -0.4
v 0.8 1.6 -0.9
v 0.8 1.8 0.2
v 0.8 1.8 -0.2
v 0.8 2.1 0.4
v 0.8 2.1 -0.4
v 0.9 0 1.3
v 0.9 0 1.2
v 0.9 0.2 1.3
v 0.9 0.2 1.2
v 0.9 0.5 1.2
v 0.9 0.5 1.1
v 0.9 0.5 -1.1
v 0.9 0.5 -1.2
v 0.9 0.7 1.2
v 0.9 0.7 1.1
v 0.9 0.7 -1.1
v 0.9 0.7 -1.2
v 0.9 1.1 0.6
v 0.9 1.1 0.4
v 0.9 1.1 -0.4
v 0.9 1.1 -0.5
v 0.9 1.1 -0.6
v 0.9 1.1 -0.7
v 0.9 1.4 0.6
v 0.9 1.4 0.4
v 0.9 1.4 -0.4
v 0.9 1.4 -0.5
v 0.9 1.4 -0.6
v 0.9 1.4 -0.7
v 0.9 1.6 0.2
v 0.9 1.6 -0.2
v 0.9 1.8 0.2
v 0.9 1.8 -0.2
v 1 0 -1.1
v 1 0 -1.2
v 1 0.5 1.1
v 1 0.5 0.4
v 1 0.5 -0.6
v 1 0.5 -1.1
v 1 0.5 -1.2
v 1 0.7 -0.4
v 1 0.7 -0.6
v 1 1.1 1.1
v 1 1.1 0.4
v 1 1.1 0.1
v 1 1.1 0
v 1 1.1 -0.4
v 1 1.1 -1.1
v 1 1.4 0.1
v 1 1.4 0
v 1 1.6 0.4
v 1 1.6 -0.4
v 1.1 0 1.2
v 1.1 0 1.1
v 1.1 0 1
v 1.1 0 0.8
v 1.1 0.2 1.1
v 1.1 0.2 1
v 1.1 0.2 0.8
v 1.1 0.2 0.6
v 1.1 0.5 1.2
v 1.1 0.5 0.6
v 1.1 0.5 -0.4
v 1.1 0.5 -0.6
v 1.1 0.7 -0.4
v 1.1 0.7 -0.6
v 1.1 1.1 0.1
v 1.1 1.1 0
v 1.1 1.4 0.1
v 1.1 1.4 0
v 1.2 0 1.1
v 1.2 0 1
v 1.2 0 0.8
v 1.2 0 0.6
v 1.2 0 0.4
v 1.2 0 -0.4
v 1.2 0 -0.6
v 1.2 0 -0.7
v 1.2 0 -0.8
v 1.2 0 -0.9
v 1.2 0 -1.1
v 1.2 0.2 1.1
v 1.2 0.2 1
v 1.2 0.2 0.8
v 1.2 0.2 0.6
v 1.2 0.2 -0.6
v 1.2 0.2 -0.7
v 1.2 0.2 -0.8
v 1.2 0.2 -0.9
v 1.2 0.5 0.6
v 1.2 0.5 0.4
v 1.2 0.5 -0.4
v 1.2 0.5 -1.1
v 1.2 1.1 0.4
v 1.2 1.1 -0.4
v 1.3 0 0.2
v 1.3 0 0
v 1.3 0 -0.2
v 1.3 0 -0.4
v 1.3 0 -0.6
v 1.3 0 -0.7
v 1.3 0 -0.8
v 1.3 0 -0.9
v 1.3 0.2 0.4
v 1.3 0.2 0.2
v 1.3 0.2 0
v 1.3 0.2 -0.2
v 1.3 0.2 -0.6
v 1.3 0.2 -0.7
v 1.3 0.2 -0.8
v 1.3 0.2 -0.9
v 1.3 0.5 0.4
v 1.3 0.5 -0.4
v 1.4 0 0.4
v 1.4 0 0.2
v 1.4 0 0
v 1.4 0 -0.2
v 1.4 0.2 0.4
v 1.4 0.2 0.2
v 1.4 0.2 0
v 1.4 0.2 -0.2
v -0.2 0 1.4
v -0.2 0.2 1.4
v 0.3 0 1.4
v 0.3 0.2 1.4
v -0.7 0 1.3
v -0.7 0.2 1.3
v -0.3 0 1.3
v -0.3 0.2 1.3
v -0.2 0.2 1.3
v -0.2 0.5 1.3
v 0.3 0 1.3
v 0.3 0.2 1.3
v 0.3 0.5 1.3
v 0.3 0.7 1.3
v 0.4 0.5 1.3
v 0.4 0.7 1.3
v 0.9 0 1.3
v 0.9 0.2 1.3
v -1 0 1.2
v -1 0.5 1.2
v -0.7 0 1.2
v -0.7 0.2 1.2
v -0.5 0.5 1.2
v -0.5 0.7 1.2
v -0.4 0.5 1.2
v -0.4 0.7 1.2
v -0.3 0 1.2
v -0.3 0.2 1.2
v -0.2 0 1.2
v -0.2 0.5 1.2
v -0.2 1.1 1.2
v 0.3 0.2 1.2
v 0.3 0.5 1.2
v 0.3 0.7 1.2
v 0.3 1.1 1.2
v 0.4 0.5 1.2
v 0.4 0.7 1.2
v 0.5 0.5 1.2
v 0.5 0.7 1.2
v 0.6 0.5 1.2
v 0.6 0.7 1.2
v 0.9 0 1.2
v 0.9 0.2 1.2
v 0.9 0.5 1.2
v 0.9 0.7 1.2
v 1.1 0 1.2
v 1.1 0.5 1.2
v -0.9 0.5 1.1
v -0.9 0.7 1.1
v -0.8 0.7 1.1
v -0.8 0.9 1.1
v -0.6 0.9 1.1
v -0.6 1.1 1.1
v -0.5 0.5 1.1
v -0.5 0.7 1.1
v -0.4 0.5 1.1
v -0.4 0.7 1.1
v -0.2 0.5 1.1
v -0.2 1.1 1.1
v -0.2 1.6 1.1
v 0.3 0.7 1.1
v 0.3 1.1 1.1
v 0.3 1.6 1.1
v 0.5 0.5 1.1
v 0.5 0.7 1.1
v 0.6 0.5 1.1
v 0.6 0.7 1.1
v 0.9 0.5 1.1
v 0.9 0.7 1.1
v 1 0.5 1.1
v 1 1.1 1.1
v 1.1 0 1.1
v 1.1 0.2 1.1
v 1.2 0 1.1
v 1.2 0.2 1.1
v -1.1 0 1
v -1.1 0.2 1
v -1 0 1
v -1 0.2 1
v -1 0.5 1
v -1 0.7 1
v -1 0.9 1
v -0.9 0.5 1
v -0.9 0.7 1
v -0.9 0.9 1
v -0.9 1.1 1
v -0.8 0.7 1
v -0.8 0.9 1
v -0.6 0.9 1
v -0.6 1.1 1
v 0 1.6 1
v 0 1.8 1
v 0.1 1.6 1
v 0.1 1.8 1
v 0.5 1.1 1
v 0.5 1.4 1
v 0.6 1.1 1
v 0.6 1.4 1
v -0.6 1.1 0.9
v -0.6 1.4 0.9
v -0.5 1.1 0.9
v -0.5 1.4 0.9
v -0.4 1.1 0.9
v -0.4 1.4 0.9
v -0.3 1.1 0.9
v -0.3 1.4 0.9
v -0.1 1.6 0.9
v -0.1 1.8 0.9
v 0 1.6 0.9
v 0 1.8 0.9
v 0.1 1.6 0.9
v 0.1 1.8 0.9
v 0.2 1.6 0.9
v 0.2 1.8 0.9
v 0.3 1.1 0.9
v 0.3 1.4 0.9
v 0.5 1.1 0.9
v 0.5 1.4 0.9
v 0.6 1.1 0.9
v 0.6 1.4 0.9
v 0.7 1.1 0.9
v 0.7 1.4 0.9
v 0.8 1.1 0.9
v 0.8 1.4 0.9
v -0.8 1.1 0.8
v -0.8 1.6 0.8
v -0.6 1.1 0.8
v -0.6 1.4 0.8
v -0.5 1.1 0.8
v -0.5 1.4 0.8
v -0.4 1.1 0.8
v -0.4 1.4 0.8
v -0.3 1.1 0.8
v -0.3 1.4 0.8
v -0.2 1.1 0.8
v -0.2 1.6 0.8
v -0.2 2.1 0.8
v -0.1 1.6 0.8
v -0.1 1.8 0.8
v 0.2 1.6 0.8
v 0.2 1.8 0.8
v 0.3 1.4 0.8
v 0.3 1.6 0.8
v 0.3 2.1 0.8
v 0.7 1.4 0.8
v 0.8 1.4 0.8
v 0.8 1.6 0.8
v 1.1 0 0.8
v 1.1 0.2 0.8
v 1.2 0 0.8
v 1.2 0.2 0.8
v -1.2 0 0.7
v -1.2 0.5 0.7
v -1 0 0.7
v -1 0.5 0.7
v -0.6 1.6 0.7
v -0.6 2.1 0.7
v -0.2 1.6 0.7
v -0.2 2.1 0.7
v -0.2 2.7 0.7
v 0.3 1.6 0.7
v 0.3 2.1 0.7
v 0.3 2.7 0.7
v 0.7 1.6 0.7
v 0.7 2.1 0.7
v -0.3 2.1 0.6
v -0.3 2.3 0.6
v -0.2 2.1 0.6
v -0.2 2.3 0.6
v 0.8 1.1 0.6
v 0.8 1.4 0.6
v 0.9 1.1 0.6
v 0.9 1.4 0.6
v 1.1 0.2 0.6
v 1.1 0.5 0.6
v 1.2 0.2 0.6
v 1.2 0.5 0.6
v -0.4 2.1 0.5
v -0.4 2.3 0.5
v -0.3 2.1 0.5
v -0.3 2.3 0.5
v 0 2.7 0.5
v 0 2.9 0.5
v 0.1 2.7 0.5
v 0.1 2.9 0.5
v 0.2 2.7 0.5
v 0.2 2.9 0.5
v 0.3 2.1 0.5
v 0.3 2.7 0.5
v 0.3 2.9 0.5
v 0.5 2.1 0.5
v 0.5 2.7 0.5
v -1.3 0 0.4
v -1.3 0.5 0.4
v -1.2 0 0.4
v -1.2 0.5 0.4
v -1.2 1.1 0.4
v -1 0.5 0.4
v -1 0.7 0.4
v -0.9 0.7 0.4
v -0.9 1.1 0.4
v -0.9 1.6 0.4
v -0.9 1.8 0.4
v -0.8 1.1 0.4
v -0.8 1.6 0.4
v -0.8 1.8 0.4
v -0.8 2.1 0.4
v -0.6 1.6 0.4
v -0.6 2.1 0.4
v -0.6 2.5 0.4
v -0.4 2.1 0.4
v -0.4 2.3 0.4
v -0.4 2.5 0.4
v -0.4 2.7 0.4
v -0.2 2.3 0.4
v -0.2 2.7 0.4
v -0.2 3 0.4
v 0 2.7 0.4
v 0 2.9 0.4
v 0.1 2.7 0.4
v 0.1 2.9 0.4
v 0.2 2.7 0.4
v 0.2 2.9 0.4
v 0.3 2.7 0.4
v 0.3 2.9 0.4
v 0.4 2.7 0.4
v 0.4 3 0.4
v 0.5 2.1 0.4
v 0.5 2.7 0.4
v 0.7 1.6 0.4
v 0.7 2.1 0.4
v 0.7 2.7 0.4
v 0.8 1.4 0.4
v 0.8 1.6 0.4
v 0.8 2.1 0.4
v 0.9 1.1 0.4
v 0.9 1.4 0.4
v 1 0.5 0.4
v 1 1.1 0.4
v 1 1.6 0.4
v 1.2 0 0.4
v 1.2 0.5 0.4
v 1.2 1.1 0.4
v 1.3 0 0.4
v 1.3 0.2 0.4
v 1.3 0.5 0.4
v 1.4 0 0.4
v 1.4 0.2 0.4
v -1.3 0.5 0.3
v -1.3 0.7 0.3
v -1.2 0.5 0.3
v -1.2 0.7 0.3
v -0.5 2.5 0.3
v -0.5 2.7 0.3
v -0.4 2.5 0.3
v -0.4 2.7 0.3
v -0.2 2.1 0.3
v -0.2 2.5 0.3
v 0.5 2.1 0.3
v 0.5 2.5 0.3
v -1.4 0 0.2
v -1.4 0.2 0.2
v -1.3 0 0.2
v -1.3 0.2 0.2
v -1 1.1 0.2
v -1 1.4 0.2
v -0.9 1.1 0.2
v -0.9 1.4 0.2
v -0.9 1.6 0.2
v -0.9 1.8 0.2
v -0.8 1.6 0.2
v -0.8 1.8 0.2
v -0.3 2.7 0.2
v -0.3 2.9 0.2
v -0.2 2.7 0.2
v -0.2 2.9 0.2
v 0.8 1.6 0.2
v 0.8 1.8 0.2
v 0.9 1.6 0.2
v 0.9 1.8 0.2
v 1 1.1 0.1
v 1 1.4 0.1
v 1.1 1.1 0.1
v 1.1 1.4 0.1
v -0.1 3 0
v -0.1 3.1 0
v 0 3 0
v 0 3.1 0
v 1.3 0 0
v 1.3 0.2 0
v 1.4 0 0
v 1.4 0.2 0
v -1 1.1 -0.1
v -1 1.4 -0.1
v -0.9 1.1 -0.1
v -0.9 1.4 -0.1
v -0.7 2.1 -0.1
v -0.7 2.3 -0.1
v -0.6 2.1 -0.1
v -0.6 2.3 -0.1
v -0.6 2.5 -0.1
v -0.6 2.7 -0.1
v -0.5 2.5 -0.1
v -0.5 2.7 -0.1
v 0.1 3 -0.1
v 0.1 3.1 -0.1
v 0.2 3 -0.1
v 0.2 3.1 -0.1
v 0.3 3 -0.2
v 0.3 3.1 -0.2
v 0.4 3 -0.2
v 0.4 3.1 -0.2
v -1.1 0.5 -0.3
v -1.1 0.9 -0.3
v -1 1.1 -0.3
v -1 1.4 -0.3
v -0.9 0.5 -0.3
v -0.9 0.9 -0.3
v -0.9 1.1 -0.3
v -0.9 1.4 -0.3
v -0.7 1.6 -0.3
v -0.7 1.8 -0.3
v -0.6 1.6 -0.3
v -0.6 1.8 -0.3
v 0.5 2.1 -0.3
v 0.5 2.5 -0.3
v 0.6 2.1 -0.3
v 0.6 2.5 -0.3
v 0.8 1.1 -0.3
v 0.8 1.4 -0.3
v 0.9 1.1 -0.3
v 0.9 1.4 -0.3
v 1 0.5 -0.3
v 1 0.9 -0.3
v 1.1 0.5 -0.3
v 1.1 0.9 -0.3
v -1.2 0.2 -0.4
v -1.2 0.5 -0.4
v -0.9 0.2 -0.4
v -0.9 0.5 -0.4
v -0.9 1.1 -0.4
v -0.8 0.5 -0.4
v -0.8 1.1 -0.4
v -0.8 1.6 -0.4
v -0.7 1.1 -0.4
v -0.7 1.4 -0.4
v -0.6 1.4 -0.4
v -0.6 1.6 -0.4
v -0.6 2.1 -0.4
v -0.5 1.6 -0.4
v -0.5 2.1 -0.4
v -0.5 2.5 -0.4
v -0.4 2.1 -0.4
v -0.4 2.5 -0.4
v 0.5 1.8 -0.4
v 0.5 2.1 -0.4
v 0.6 1.6 -0.4
v 0.6 1.8 -0.4
v 0.7 1.1 -0.4
v 0.7 1.6 -0.4
v 0.7 2.1 -0.4
v 0.8 0.9 -0.4
v 0.8 1.1 -0.4
v 0.8 1.6 -0.4
v 0.9 0.5 -0.4
v 0.9 0.9 -0.4
v 1 0.2 -0.4
v 1 0.5 -0.4
v 1 1.1 -0.4
v 1.2 0.2 -0.4
v 1.2 0.5 -0.4
v -0.9 1.1 -0.5
v -0.9 1.4 -0.5
v -0.8 1.1 -0.5
v -0.8 1.4 -0.5
v -0.4 2.1 -0.5
v -0.4 2.5 -0.5
v -0.2 2.1 -0.5
v -0.2 2.3 -0.5
v 0.3 2.1 -0.5
v 0.3 2.3 -0.5
v 0.4 2.1 -0.5
v 0.4 2.5 -0.5
v 0.5 2.1 -0.5
v 0.5 2.3 -0.5
v 0.6 2.1 -0.5
v 0.6 2.3 -0.5
v -1.2 0 -0.6
v -1.2 0.2 -0.6
v -1.1 0 -0.6
v -1.1 0.2 -0.6
v -0.5 1.8 -0.6
v -0.5 2.1 -0.6
v -0.2 1.8 -0.6
v -0.2 2.1 -0.6
v -0.2 2.3 -0.6
v -0.1 2.1 -0.6
v -0.1 2.3 -0.6
v 0.2 2.1 -0.6
v 0.2 2.3 -0.6
v 0.3 1.8 -0.6
v 0.3 2.1 -0.6
v 0.3 2.3 -0.6
v 0.5 1.8 -0.6
v 0.5 2.1 -0.6
v 0.8 1.1 -0.6
v 0.8 1.4 -0.6
v 0.9 1.1 -0.6
v 0.9 1.4 -0.6
v 1.2 0 -0.6
v 1.2 0.2 -0.6
v 1.3 0 -0.6
v 1.3 0.2 -0.6
v -0.5 1.6 -0.7
v -0.5 1.8 -0.7
v -0.2 1.6 -0.7
v -0.2 1.8 -0.7
v -0.1 2.1 -0.7
v -0.1 2.5 -0.7
v 0.2 2.1 -0.7
v 0.2 2.5 -0.7
v 0.3 1.6 -0.7
v 0.3 1.8 -0.7
v 0.6 1.6 -0.7
v 0.6 1.8 -0.7
v -1.2 0 -0.8
v -1.2 0.2 -0.8
v -1.1 0 -0.8
v -1.1 0.2 -0.8
v -0.7 1.1 -0.8
v -0.7 1.4 -0.8
v -0.6 1.4 -0.8
v -0.6 1.6 -0.8
v -0.2 1.1 -0.8
v -0.2 1.6 -0.8
v -0.2 2.1 -0.8
v 0.3 1.1 -0.8
v 0.3 1.6 -0.8
v 0.3 2.1 -0.8
v 0.7 1.1 -0.8
v 0.7 1.6 -0.8
v 1.2 0 -0.8
v 1.2 0.2 -0.8
v 1.3 0 -0.8
v 1.3 0.2 -0.8
v -0.8 0.9 -0.9
v -0.8 1.1 -0.9
v -0.2 0.9 -0.9
v -0.2 1.1 -0.9
v -0.2 1.6 -0.9
v -0.1 1.1 -0.9
v -0.1 1.4 -0.9
v 0.2 1.1 -0.9
v 0.2 1.4 -0.9
v 0.3 0.9 -0.9
v 0.3 1.1 -0.9
v 0.3 1.6 -0.9
v 0.8 0.9 -0.9
v 0.8 1.1 -0.9
v -0.8 0.5 -1
v -0.8 0.9 -1
v -0.2 0.5 -1
v -0.2 0.9 -1
v -0.1 1.1 -1
v -0.1 1.4 -1
v 0.2 1.1 -1
v 0.2 1.4 -1
v 0.3 0.5 -1
v 0.3 0.9 -1
v 0.9 0.5 -1
v 0.9 0.9 -1
v -0.9 0.2 -1.1
v -0.9 0.5 -1.1
v -0.2 0.2 -1.1
v -0.2 0.5 -1.1
v -0.2 1.1 -1.1
v -0.1 0.5 -1.1
v -0.1 0.9 -1.1
v 0.2 0.5 -1.1
v 0.2 0.9 -1.1
v 0.3 0.2 -1.1
v 0.3 0.5 -1.1
v 0.3 1.1 -1.1
v 1 0.2 -1.1
v 1 0.5 -1.1
v -0.1 0.5 -1.2
v -0.1 0.9 -1.2
v 0.2 0.5 -1.2
v 0.2 0.9 -1.2
v -0.2 0.2 -1.3
v -0.2 0.5 -1.3
v 0.3 0.2 -1.3
v 0.3 0.5 -1.3
v -0.2 0.2 1.2
v -0.2 0.5 1.2
v 0.3 0.2 1.2
v 0.3 0.5 1.2
v -0.9 0.2 1.1
v -0.9 0.5 1.1
v -0.2 0.2 1.1
v -0.2 0.5 1.1
v -0.2 1.1 1.1
v 0.3 0.2 1.1
v 0.3 0.5 1.1
v 0.3 1.1 1.1
v 1 0.2 1.1
v 1 0.5 1.1
v -0.8 0.5 1
v -0.8 0.9 1
v -0.2 0.5 1
v -0.2 0.9 1
v -0.1 1.1 1
v -0.1 1.4 1
v 0.2 1.1 1
v 0.2 1.4 1
v 0.3 0.5 1
v 0.3 0.9 1
v 0.9 0.5 1
v 0.9 0.9 1
v 1.1 0 1
v 1.1 0.2 1
v 1.2 0 1
v 1.2 0.2 1
v -1.1 0 0.8
v -1.1 0.2 0.8
v -1 0 0.8
v -1 0.2 0.8
v -1 0.7 0.8
v -1 0.9 0.8
v -0.9 0.7 0.8
v -0.9 0.9 0.8
v -0.8 0.9 0.8
v -0.8 1.1 0.8
v -0.2 0.9 0.8
v -0.2 1.1 0.8
v -0.2 1.6 0.8
v -0.1 1.1 0.8
v -0.1 1.4 0.8
v 0.2 1.1 0.8
v 0.2 1.4 0.8
v 0.3 0.9 0.8
v 0.3 1.1 0.8
v 0.3 1.6 0.8
v 0.8 0.9 0.8
v 0.8 1.1 0.8
v -0.7 1.1 0.7
v -0.7 1.4 0.7
v -0.6 1.4 0.7
v -0.6 1.6 0.7
v -0.2 1.1 0.7
v -0.2 1.6 0.7
v -0.2 2.1 0.7
v 0.3 1.1 0.7
v 0.3 1.6 0.7
v 0.3 2.1 0.7
v 0.7 1.1 0.7
v 0.7 1.6 0.7
v -0.5 1.6 0.6
v -0.5 1.8 0.6
v -0.2 1.6 0.6
v -0.2 1.8 0.6
v -0.1 2.1 0.6
v -0.1 2.5 0.6
v 0.2 2.1 0.6
v 0.2 2.5 0.6
v 0.3 1.6 0.6
v 0.3 1.8 0.6
v 0.6 1.6 0.6
v 0.6 1.8 0.6
v 0.2 2.1 0.5
v 0.2 2.5 0.5
v 0.3 1.8 0.5
v 0.3 2.1 0.5
v 0.3 2.5 0.5
v 0.5 1.8 0.5
v 0.5 2.1 0.5
v -1.2 0.2 0.4
v -1.2 0.5 0.4
v -0.9 0.2 0.4
v -0.9 0.5 0.4
v -0.9 1.1 0.4
v -0.8 0.5 0.4
v -0.8 1.1 0.4
v -0.8 1.6 0.4
v -0.7 1.1 0.4
v -0.7 1.4 0.4
v -0.6 1.4 0.4
v -0.6 1.6 0.4
v -0.6 2.1 0.4
v -0.5 1.6 0.4
v -0.5 1.8 0.4
v -0.2 1.8 0.4
v -0.2 2.1 0.4
v -0.2 2.5 0.4
v -0.1 2.1 0.4
v -0.1 2.5 0.4
v 0.3 2.1 0.4
v 0.3 2.5 0.4
v 0.5 1.8 0.4
v 0.5 2.1 0.4
v 0.5 2.5 0.4
v 0.6 1.6 0.4
v 0.6 1.8 0.4
v 0.7 1.1 0.4
v 0.7 1.6 0.4
v 0.7 2.1 0.4
v 0.8 0.9 0.4
v 0.8 1.1 0.4
v 0.8 1.6 0.4
v 0.9 0.5 0.4
v 0.9 0.9 0.4
v 1 0.2 0.4
v 1 0.5 0.4
v 1 1.1 0.4
v 1.2 0.2 0.4
v 1.2 0.5 0.4
v -1.1 0.5 0.3
v -1.1 0.9 0.3
v -0.9 0.5 0.3
v -0.9 0.9 0.3
v -0.9 1.6 0.3
v -0.9 1.8 0.3
v -0.8 1.6 0.3
v -0.8 1.8 0.3
v -0.7 1.6 0.3
v -0.7 1.8 0.3
v -0.6 1.6 0.3
v -0.6 1.8 0.3
v -0.5 2.1 0.3
v -0.5 2.5 0.3
v -0.4 2.1 0.3
v -0.4 2.5 0.3
v 0.5 2.1 0.3
v 0.5 2.5 0.3
v 0.6 2.1 0.3
v 0.6 2.5 0.3
v 0.8 1.1 0.3
v 0.8 1.4 0.3
v 0.9 1.1 0.3
v 0.9 1.4 0.3
v 1 0.5 0.3
v 1 0.9 0.3
v 1.1 0.5 0.3
v 1.1 0.9 0.3
v 1.3 0 0.2
v 1.3 0.2 0.2
v 1.4 0 0.2
v 1.4 0.2 0.2
v -1 1.1 0.1
v -1 1.4 0.1
v -0.9 1.1 0.1
v -0.9 1.4 0.1
v -1.4 0 0
v -1.4 0.2 0
v -1.3 0 0
v -1.3 0.2 0
v -0.9 1.6 0
v -0.9 1.8 0
v -0.8 1.6 0
v -0.8 1.8 0
v 1 1.1 0
v 1 1.4 0
v 1.1 1.1 0
v 1.1 1.4 0
v -0.3 2.7 -0.1
v -0.3 2.9 -0.1
v -0.2 2.7 -0.1
v -0.2 2.9 -0.1
v -0.1 3 -0.1
v -0.1 3.1 -0.1
v 0 3 -0.1
v 0 3.1 -0.1
v -1.3 0.5 -0.2
v -1.3 0.7 -0.2
v -1.2 0.5 -0.2
v -1.2 0.7 -0.2
v -1 1.1 -0.2
v -1 1.4 -0.2
v -0.9 1.1 -0.2
v -0.9 1.4 -0.2
v -0.6 2.5 -0.2
v -0.6 2.7 -0.2
v -0.5 2.5 -0.2
v -0.5 2.7 -0.2
v 0.1 3 -0.2
v 0.1 3.1 -0.2
v 0.2 3 -0.2
v 0.2 3.1 -0.2
v 0.8 1.6 -0.2
v 0.8 1.8 -0.2
v 0.9 1.6 -0.2
v 0.9 1.8 -0.2
v 1.3 0 -0.2
v 1.3 0.2 -0.2
v 1.4 0 -0.2
v 1.4 0.2 -0.2
v -0.7 2.1 -0.3
v -0.7 2.3 -0.3
v -0.6 2.1 -0.3
v -0.6 2.3 -0.3
v 0.3 3 -0.3
v 0.3 3.1 -0.3
v 0.4 3 -0.3
v 0.4 3.1 -0.3
v -1.3 0 -0.4
v -1.3 0.5 -0.4
v -1.2 0 -0.4
v -1.2 0.5 -0.4
v -1.2 1.1 -0.4
v -1 0.5 -0.4
v -1 0.7 -0.4
v -1 1.1 -0.4
v -1 1.4 -0.4
v -0.9 0.7 -0.4
v -0.9 1.1 -0.4
v -0.9 1.4 -0.4
v -0.9 1.6 -0.4
v -0.8 1.1 -0.4
v -0.8 1.6 -0.4
v -0.8 2.1 -0.4
v -0.6 1.6 -0.4
v -0.6 2.1 -0.4
v -0.6 2.5 -0.4
v -0.5 2.1 -0.4
v -0.5 2.5 -0.4
v -0.4 2.1 -0.4
v -0.4 2.5 -0.4
v -0.2 2.7 -0.4
v -0.2 3 -0.4
v -0.1 2.7 -0.4
v -0.1 2.9 -0.4
v 0.2 2.7 -0.4
v 0.2 2.9 -0.4
v 0.4 2.1 -0.4
v 0.4 2.5 -0.4
v 0.4 2.7 -0.4
v 0.4 3 -0.4
v 0.5 2.1 -0.4
v 0.5 2.7 -0.4
v 0.7 1.6 -0.4
v 0.7 2.1 -0.4
v 0.7 2.7 -0.4
v 0.8 1.4 -0.4
v 0.8 1.6 -0.4
v 0.8 2.1 -0.4
v 0.9 1.1 -0.4
v 0.9 1.4 -0.4
v 1 0.7 -0.4
v 1 1.1 -0.4
v 1 1.6 -0.4
v 1.1 0.5 -0.4
v 1.1 0.7 -0.4
v 1.2 0 -0.4
v 1.2 0.5 -0.4
v 1.2 1.1 -0.4
v 1.3 0 -0.4
v 1.3 0.5 -0.4
v -1.2 0 -0.5
v -1.2 0.5 -0.5
v -1.1 0 -0.5
v -1.1 0.5 -0.5
v -0.5 2.5 -0.5
v -0.5 2.7 -0.5
v -0.2 2.5 -0.5
v -0.2 2.7 -0.5
v -0.1 2.7 -0.5
v -0.1 2.9 -0.5
v 0.2 2.7 -0.5
v 0.2 2.9 -0.5
v 0.8 1.1 -0.5
v 0.8 1.4 -0.5
v 0.9 1.1 -0.5
v 0.9 1.4 -0.5
v -0.5 2.3 -0.6
v -0.5 2.5 -0.6
v -0.4 2.1 -0.6
v -0.4 2.3 -0.6
v -0.3 2.1 -0.6
v -0.3 2.3 -0.6
v -0.2 2.3 -0.6
v -0.2 2.5 -0.6
v -0.1 2.3 -0.6
v -0.1 2.5 -0.6
v 0.2 2.3 -0.6
v 0.2 2.5 -0.6
v 0.3 2.1 -0.6
v 0.3 2.7 -0.6
v 0.4 2.1 -0.6
v 0.4 2.3 -0.6
v 0.5 2.1 -0.6
v 0.5 2.3 -0.6
v 0.5 2.7 -0.6
v 0.6 2.1 -0.6
v 0.6 2.3 -0.6
v 1 0.5 -0.6
v 1 0.7 -0.6
v 1.1 0.5 -0.6
v 1.1 0.7 -0.6
v -1.2 0 -0.7
v -1.2 0.2 -0.7
v -1.1 0 -0.7
v -1.1 0.2 -0.7
v -0.5 2.1 -0.7
v -0.5 2.3 -0.7
v -0.4 2.1 -0.7
v -0.4 2.3 -0.7
v -0.3 2.1 -0.7
v -0.3 2.3 -0.7
v -0.2 2.1 -0.7
v -0.2 2.3 -0.7
v 0.4 2.1 -0.7
v 0.4 2.3 -0.7
v 0.5 2.1 -0.7
v 0.5 2.3 -0.7
v 0.8 1.1 -0.7
v 0.8 1.4 -0.7
v 0.9 1.1 -0.7
v 0.9 1.4 -0.7
v 1.2 0 -0.7
v 1.2 0.2 -0.7
v 1.3 0 -0.7
v 1.3 0.2 -0.7
v -0.9 1.1 -0.8
v -0.9 1.4 -0.8
v -0.8 1.1 -0.8
v -0.8 1.4 -0.8
v -0.6 1.6 -0.8
v -0.6 2.1 -0.8
v -0.2 1.6 -0.8
v -0.2 2.1 -0.8
v -0.2 2.7 -0.8
v 0.3 1.6 -0.8
v 0.3 2.1 -0.8
v 0.3 2.7 -0.8
v 0.7 1.6 -0.8
v 0.7 2.1 -0.8
v -1.2 0 -0.9
v -1.2 0.2 -0.9
v -1.1 0 -0.9
v -1.1 0.2 -0.9
v -1 0.5 -0.9
v -1 0.7 -0.9
v -0.9 0.5 -0.9
v -0.9 0.7 -0.9
v -0.8 1.1 -0.9
v -0.8 1.6 -0.9
v -0.5 1.1 -0.9
v -0.5 1.4 -0.9
v -0.2 1.4 -0.9
v -0.2 1.6 -0.9
v -0.2 2.1 -0.9
v 0.3 1.4 -0.9
v 0.3 1.6 -0.9
v 0.3 2.1 -0.9
v 0.4 1.1 -0.9
v 0.4 1.4 -0.9
v 0.6 1.1 -0.9
v 0.6 1.4 -0.9
v 0.7 1.1 -0.9
v 0.7 1.4 -0.9
v 0.8 1.1 -0.9
v 0.8 1.6 -0.9
v 1.2 0 -0.9
v 1.2 0.2 -0.9
v 1.3 0 -0.9
v 1.3 0.2 -0.9
v -0.5 1.1 -1
v -0.5 1.4 -1
v -0.2 1.1 -1
v -0.2 1.4 -1
v 0.3 1.1 -1
v 0.3 1.4 -1
v 0.4 1.1 -1
v 0.4 1.4 -1
v 0.6 1.1 -1
v 0.6 1.4 -1
v 0.7 1.1 -1
v 0.7 1.4 -1
v -0.9 0.5 -1.1
v -0.9 1.1 -1.1
v -0.8 0.5 -1.1
v -0.8 0.7 -1.1
v -0.5 0.5 -1.1
v -0.5 0.7 -1.1
v -0.4 0.5 -1.1
v -0.4 0.7 -1.1
v -0.3 0.5 -1.1
v -0.3 0.7 -1.1
v -0.2 0.5 -1.1
v -0.2 1.1 -1.1
v -0.2 1.6 -1.1
v 0.3 0.5 -1.1
v 0.3 1.1 -1.1
v 0.3 1.6 -1.1
v 0.4 0.5 -1.1
v 0.4 0.7 -1.1
v 0.5 0.5 -1.1
v 0.5 0.7 -1.1
v 0.5 0.9 -1.1
v 0.6 0.7 -1.1
v 0.6 0.9 -1.1
v 0.7 0.7 -1.1
v 0.7 0.9 -1.1
v 0.8 0.5 -1.1
v 0.8 0.7 -1.1
v 0.8 0.9 -1.1
v 0.9 0.5 -1.1
v 0.9 0.7 -1.1
v 1 0 -1.1
v 1 0.5 -1.1
v 1 1.1 -1.1
v 1.2 0 -1.1
v 1.2 0.5 -1.1
v -1.1 0 -1.2
v -1.1 0.5 -1.2
v -0.8 0 -1.2
v -0.8 0.2 -1.2
v -0.8 0.5 -1.2
v -0.8 0.7 -1.2
v -0.6 0 -1.2
v -0.6 0.2 -1.2
v -0.5 0.5 -1.2
v -0.5 0.7 -1.2
v -0.4 0 -1.2
v -0.4 0.5 -1.2
v -0.4 0.7 -1.2
v -0.3 0.5 -1.2
v -0.3 0.7 -1.2
v 0.4 0 -1.2
v 0.4 0.5 -1.2
v 0.4 0.7 -1.2
v 0.5 0.5 -1.2
v 0.5 0.7 -1.2
v 0.5 0.9 -1.2
v 0.6 0 -1.2
v 0.6 0.2 -1.2
v 0.6 0.7 -1.2
v 0.6 0.9 -1.2
v 0.7 0.7 -1.2
v 0.7 0.9 -1.2
v 0.8 0 -1.2
v 0.8 0.2 -1.2
v 0.8 0.5 -1.2
v 0.8 0.7 -1.2
v 0.8 0.9 -1.2
v 0.9 0.5 -1.2
v 0.9 0.7 -1.2
v 1 0 -1.2
v 1 0.5 -1.2
v -0.8 0 -1.3
v -0.8 0.2 -1.3
v -0.6 0 -1.3
v -0.6 0.2 -1.3
v -0.4 0 -1.3
v -0.4 0.5 -1.3
v -0.2 0 -1.3
v -0.2 0.5 -1.3
v -0.2 1.1 -1.3
v 0.3 0 -1.3
v 0.3 0.5 -1.3
v 0.3 1.1 -1.3
v 0.4 0 -1.3
v 0.4 0.5 -1.3
v 0.6 0 -1.3
v 0.6 0.2 -1.3
v 0.8 0 -1.3
v 0.8 0.2 -1.3
v -0.2 0 -1.5
v -0.2 0.5 -1.5
v 0 0 -1.5
v 0 0.2 -1.5
v 0.1 0 -1.5
v 0.1 0.2 -1.5
v 0.3 0 -1.5
v 0.3 0.5 -1.5
v 0 0 -1.6
v 0 0.2 -1.6
v 0.1 0 -1.6
v 0.1 0.2 -1.6
v -0.2 0 1.4
v 0.3 0 1.4
v -0.7 0 1.3
v -0.3 0 1.3
v 0.3 0 1.3
v 0.9 0 1.3
v -1 0 1.2
v -0.7 0 1.2
v -0.3 0 1.2
v -0.2 0 1.2
v 0.3 0 1.2
v 0.9 0 1.2
v 1.1 0 1.2
v 1.1 0 1.1
v 1.2 0 1.1
v -1.1 0 1
v -1 0 1
v 1.1 0 1
v 1.2 0 1
v -1.1 0 0.8
v -1 0 0.8
v 1.1 0 0.8
v 1.2 0 0.8
v -1.2 0 0.7
v -1 0 0.7
v 1.1 0 0.6
v 1.2 0 0.6
v -1.3 0 0.4
v -1.2 0 0.4
v 1.2 0 0.4
v 1.3 0 0.4
v 1.4 0 0.4
v -1.4 0 0.2
v -1.3 0 0.2
v 1.3 0 0.2
v 1.4 0 0.2
v -1.4 0 0
v -1.3 0 0
v 1.3 0 0
v 1.4 0 0
v 1.3 0 -0.2
v 1.4 0 -0.2
v -1.3 0 -0.4
v -1.2 0 -0.4
v 1.2 0 -0.4
v 1.3 0 -0.4
v -1.2 0 -0.5
v -1.1 0 -0.5
v -1.2 0 -0.6
v -1.1 0 -0.6
v 1.2 0 -0.6
v 1.3 0 -0.6
v -1.2 0 -0.7
v -1.1 0 -0.7
v 1.2 0 -0.7
v 1.3 0 -0.7
v -1.2 0 -0.8
v -1.1 0 -0.8
v 1.2 0 -0.8
v 1.3 0 -0.8
v -1.2 0 -0.9
v -1.1 0 -0.9
v 1.2 0 -0.9
v 1.3 0 -0.9
v 1 0 -1.1
v 1.2 0 -1.1
v -1.1 0 -1.2
v -0.8 0 -1.2
v -0.6 0 -1.2
v -0.4 0 -1.2
v 0.4 0 -1.2
v 0.6 0 -1.2
v 0.8 0 -1.2
v 1 0 -1.2
v -0.8 0 -1.3
v -0.6 0 -1.3
v -0.4 0 -1.3
v -0.2 0 -1.3
v 0.3 0 -1.3
v 0.4 0 -1.3
v 0.6 0 -1.3
v 0.8 0 -1.3
v -0.2 0 -1.5
v 0 0 -1.5
v 0.1 0 -1.5
v 0.3 0 -1.5
v 0 0 -1.6
v 0.1 0 -1.6
v 0.3 0.5 1.3
v 0.4 0.5 1.3
v -0.2 0.5 1.2
v 0.3 0.5 1.2
v 0.4 0.5 1.2
v -0.9 0.5 1.1
v -0.2 0.5 1.1
v 0.3 0.5 1.1
v 1 0.5 1.1
v -0.8 0.5 1
v -0.2 0.5 1
v 0.3 0.5 1
v 0.9 0.5 1
v -1.2 0.5 0.4
v -0.9 0.5 0.4
v -0.8 0.5 0.4
v 0.9 0.5 0.4
v 1 0.5 0.4
v 1.2 0.5 0.4
v -1.1 0.5 0.3
v -0.9 0.5 0.3
v 1 0.5 0.3
v 1.1 0.5 0.3
v -1.1 0.5 -0.3
v -0.9 0.5 -0.3
v 1 0.5 -0.3
v 1.1 0.5 -0.3
v -1.2 0.5 -0.4
v -0.9 0.5 -0.4
v -0.8 0.5 -0.4
v 0.9 0.5 -0.4
v 1 0.5 -0.4
v 1.2 0.5 -0.4
v -0.8 0.5 -1
v -0.2 0.5 -1
v 0.3 0.5 -1
v 0.9 0.5 -1
v -0.9 0.5 -1.1
v -0.2 0.5 -1.1
v -0.1 0.5 -1.1
v 0.2 0.5 -1.1
v 0.3 0.5 -1.1
v 1 0.5 -1.1
v -0.1 0.5 -1.2
v 0.2 0.5 -1.2
v -0.2 0.5 -1.3
v 0.3 0.5 -1.3
v 0.5 0.7 -1.1
v 0.6 0.7 -1.1
v 0.7 0.7 -1.1
v 0.8 0.7 -1.1
v 0.5 0.7 -1.2
v 0.6 0.7 -1.2
v 0.7 0.7 -1.2
v 0.8 0.7 -1.2
v -0.8 0.9 1
v -0.2 0.9 1
v 0.3 0.9 1
v 0.9 0.9 1
v -0.8 0.9 0.8
v -0.2 0.9 0.8
v 0.3 0.9 0.8
v 0.8 0.9 0.8
v 0.8 0.9 0.4
v 0.9 0.9 0.4
v -1.1 0.9 0.3
v -0.9 0.9 0.3
v 1 0.9 0.3
v 1.1 0.9 0.3
v -1.1 0.9 -0.3
v -0.9 0.9 -0.3
v 1 0.9 -0.3
v 1.1 0.9 -0.3
v 0.8 0.9 -0.4
v 0.9 0.9 -0.4
v -0.8 0.9 -0.9
v -0.2 0.9 -0.9
v 0.3 0.9 -0.9
v 0.8 0.9 -0.9
v -0.8 0.9 -1
v -0.2 0.9 -1
v 0.3 0.9 -1
v 0.9 0.9 -1
v -0.1 0.9 -1.1
v 0.2 0.9 -1.1
v -0.1 0.9 -1.2
v 0.2 0.9 -1.2
v -0.2 1.1 1.1
v 0.3 1.1 1.1
v -0.1 1.1 1
v 0.2 1.1 1
v -0.8 1.1 0.8
v -0.2 1.1 0.8
v -0.1 1.1 0.8
v 0.2 1.1 0.8
v 0.3 1.1 0.8
v 0.8 1.1 0.8
v -0.7 1.1 0.7
v -0.2 1.1 0.7
v 0.3 1.1 0.7
v 0.7 1.1 0.7
v -0.9 1.1 0.4
v -0.8 1.1 0.4
v -0.7 1.1 0.4
v 0.7 1.1 0.4
v 0.8 1.1 0.4
v 1 1.1 0.4
v 0.8 1.1 0.3
v 0.9 1.1 0.3
v 0.8 1.1 -0.3
v 0.9 1.1 -0.3
v -0.9 1.1 -0.4
v -0.8 1.1 -0.4
v -0.7 1.1 -0.4
v 0.7 1.1 -0.4
v 0.8 1.1 -0.4
v 1 1.1 -0.4
v -0.7 1.1 -0.8
v -0.2 1.1 -0.8
v 0.3 1.1 -0.8
v 0.7 1.1 -0.8
v -0.8 1.1 -0.9
v -0.2 1.1 -0.9
v -0.1 1.1 -0.9
v 0.2 1.1 -0.9
v 0.3 1.1 -0.9
v 0.8 1.1 -0.9
v -0.1 1.1 -1
v 0.2 1.1 -1
v -0.2 1.1 -1.1
v 0.3 1.1 -1.1
v -0.1 1.4 1
v 0.2 1.4 1
v -0.1 1.4 0.8
v 0.2 1.4 0.8
v -0.7 1.4 0.7
v -0.6 1.4 0.7
v -0.7 1.4 0.4
v -0.6 1.4 0.4
v 0.8 1.4 0.3
v 0.9 1.4 0.3
v 0.8 1.4 -0.3
v 0.9 1.4 -0.3
v -0.7 1.4 -0.4
v -0.6 1.4 -0.4
v -0.7 1.4 -0.8
v -0.6 1.4 -0.8
v -0.1 1.4 -0.9
v 0.2 1.4 -0.9
v -0.1 1.4 -1
v 0.2 1.4 -1
v -0.2 1.6 0.8
v 0.3 1.6 0.8
v -0.6 1.6 0.7
v -0.2 1.6 0.7
v 0.3 1.6 0.7
v 0.7 1.6 0.7
v -0.5 1.6 0.6
v -0.2 1.6 0.6
v 0.3 1.6 0.6
v 0.6 1.6 0.6
v -0.8 1.6 0.4
v -0.6 1.6 0.4
v -0.5 1.6 0.4
v 0.6 1.6 0.4
v 0.7 1.6 0.4
v 0.8 1.6 0.4
v -0.7 1.6 0.3
v -0.6 1.6 0.3
v -0.7 1.6 -0.3
v -0.6 1.6 -0.3
v -0.8 1.6 -0.4
v -0.6 1.6 -0.4
v -0.5 1.6 -0.4
v 0.6 1.6 -0.4
v 0.7 1.6 -0.4
v 0.8 1.6 -0.4
v -0.5 1.6 -0.7
v -0.2 1.6 -0.7
v 0.3 1.6 -0.7
v 0.6 1.6 -0.7
v -0.6 1.6 -0.8
v -0.2 1.6 -0.8
v 0.3 1.6 -0.8
v 0.7 1.6 -0.8
v -0.2 1.6 -0.9
v 0.3 1.6 -0.9
v -0.5 1.8 0.6
v -0.2 1.8 0.6
v 0.3 1.8 0.6
v 0.6 1.8 0.6
v 0.3 1.8 0.5
v 0.5 1.8 0.5
v -0.5 1.8 0.4
v -0.2 1.8 0.4
v 0.5 1.8 0.4
v 0.6 1.8 0.4
v -0.7 1.8 0.3
v -0.6 1.8 0.3
v -0.7 1.8 -0.3
v -0.6 1.8 -0.3
v 0.5 1.8 -0.4
v 0.6 1.8 -0.4
v -0.5 1.8 -0.6
v -0.2 1.8 -0.6
v 0.3 1.8 -0.6
v 0.5 1.8 -0.6
v -0.5 1.8 -0.7
v -0.2 1.8 -0.7
v 0.3 1.8 -0.7
v 0.6 1.8 -0.7
v -0.2 2.1 0.7
v 0.3 2.1 0.7
v -0.1 2.1 0.6
v 0.2 2.1 0.6
v 0.2 2.1 0.5
v 0.3 2.1 0.5
v 0.5 2.1 0.5
v -0.6 2.1 0.4
v -0.2 2.1 0.4
v -0.1 2.1 0.4
v 0.3 2.1 0.4
v 0.5 2.1 0.4
v 0.7 2.1 0.4
v -0.5 2.1 0.3
v -0.4 2.1 0.3
v -0.2 2.1 0.3
v 0.5 2.1 0.3
v 0.6 2.1 0.3
v 0.5 2.1 -0.3
v 0.6 2.1 -0.3
v -0.6 2.1 -0.4
v -0.5 2.1 -0.4
v -0.4 2.1 -0.4
v 0.4 2.1 -0.4
v 0.5 2.1 -0.4
v 0.7 2.1 -0.4
v -0.4 2.1 -0.5
v -0.2 2.1 -0.5
v 0.3 2.1 -0.5
v 0.4 2.1 -0.5
v -0.5 2.1 -0.6
v -0.2 2.1 -0.6
v -0.1 2.1 -0.6
v 0.2 2.1 -0.6
v 0.3 2.1 -0.6
v 0.5 2.1 -0.6
v -0.1 2.1 -0.7
v 0.2 2.1 -0.7
v -0.2 2.1 -0.8
v 0.3 2.1 -0.8
v -0.2 2.3 -0.5
v 0.3 2.3 -0.5
v -0.2 2.3 -0.6
v -0.1 2.3 -0.6
v 0.2 2.3 -0.6
v 0.3 2.3 -0.6
v -0.1 2.5 0.6
v 0.2 2.5 0.6
v 0.2 2.5 0.5
v 0.3 2.5 0.5
v -0.2 2.5 0.4
v -0.1 2.5 0.4
v 0.3 2.5 0.4
v 0.5 2.5 0.4
v -0.5 2.5 0.3
v -0.4 2.5 0.3
v -0.2 2.5 0.3
v 0.5 2.5 0.3
v 0.6 2.5 0.3
v 0.5 2.5 -0.3
v 0.6 2.5 -0.3
v -0.5 2.5 -0.4
v -0.4 2.5 -0.4
v 0.4 2.5 -0.4
v -0.4 2.5 -0.5
v 0.4 2.5 -0.5
v -0.1 2.5 -0.6
v 0.2 2.5 -0.6
v -0.1 2.5 -0.7
v 0.2 2.5 -0.7
v -0.2 0.2 1.4
v 0.3 0.2 1.4
v -0.7 0.2 1.3
v -0.3 0.2 1.3
v -0.2 0.2 1.3
v 0.3 0.2 1.3
v 0.9 0.2 1.3
v -0.7 0.2 1.2
v -0.3 0.2 1.2
v -0.2 0.2 1.2
v 0.3 0.2 1.2
v 0.9 0.2 1.2
v -0.9 0.2 1.1
v -0.2 0.2 1.1
v 0.3 0.2 1.1
v 1 0.2 1.1
v 1.1 0.2 1.1
v 1.2 0.2 1.1
v -1.1 0.2 1
v -1 0.2 1
v 1.1 0.2 1
v 1.2 0.2 1
v -1.1 0.2 0.8
v -1 0.2 0.8
v 1.1 0.2 0.8
v 1.2 0.2 0.8
v 1.1 0.2 0.6
v 1.2 0.2 0.6
v -1.2 0.2 0.4
v -0.9 0.2 0.4
v 1 0.2 0.4
v 1.2 0.2 0.4
v 1.3 0.2 0.4
v 1.4 0.2 0.4
v -1.4 0.2 0.2
v -1.3 0.2 0.2
v 1.3 0.2 0.2
v 1.4 0.2 0.2
v -1.4 0.2 0
v -1.3 0.2 0
v 1.3 0.2 0
v 1.4 0.2 0
v 1.3 0.2 -0.2
v 1.4 0.2 -0.2
v -1.2 0.2 -0.4
v -0.9 0.2 -0.4
v 1 0.2 -0.4
v 1.2 0.2 -0.4
v -1.2 0.2 -0.6
v -1.1 0.2 -0.6
v 1.2 0.2 -0.6
v 1.3 0.2 -0.6
v -1.2 0.2 -0.7
v -1.1 0.2 -0.7
v 1.2 0.2 -0.7
v 1.3 0.2 -0.7
v -1.2 0.2 -0.8
v -1.1 0.2 -0.8
v 1.2 0.2 -0.8
v 1.3 0.2 -0.8
v -1.2 0.2 -0.9
v -1.1 0.2 -0.9
v 1.2 0.2 -0.9
v 1.3 0.2 -0.9
v -0.9 0.2 -1.1
v -0.2 0.2 -1.1
v 0.3 0.2 -1.1
v 1 0.2 -1.1
v -0.8 0.2 -1.2
v -0.6 0.2 -1.2
v 0.6 0.2 -1.2
v 0.8 0.2 -1.2
v -0.8 0.2 -1.3
v -0.6 0.2 -1.3
v -0.2 0.2 -1.3
v 0.3 0.2 -1.3
v 0.6 0.2 -1.3
v 0.8 0.2 -1.3
v 0 0.2 -1.5
v 0.1 0.2 -1.5
v 0 0.2 -1.6
v 0.1 0.2 -1.6
v -0.2 0.5 1.3
v 0.3 0.5 1.3
v -1 0.5 1.2
v -0.5 0.5 1.2
v -0.4 0.5 1.2
v -0.2 0.5 1.2
v 0.3 0.5 1.2
v 0.5 0.5 1.2
v 0.6 0.5 1.2
v 0.9 0.5 1.2
v 1.1 0.5 1.2
v -0.9 0.5 1.1
v -0.5 0.5 1.1
v -0.4 0.5 1.1
v -0.2 0.5 1.1
v 0.5 0.5 1.1
v 0.6 0.5 1.1
v 0.9 0.5 1.1
v 1 0.5 1.1
v -1 0.5 1
v -0.9 0.5 1
v -1.2 0.5 0.7
v -1 0.5 0.7
v 1.1 0.5 0.6
v 1.2 0.5 0.6
v -1 0.5 0.5
v -1.3 0.5 0.4
v -1.2 0.5 0.4
v -1 0.5 0.4
v 1 0.5 0.4
v 1.2 0.5 0.4
v 1.3 0.5 0.4
v -1.3 0.5 0.3
v -1.2 0.5 0.3
v -1.3 0.5 -0.2
v -1.2 0.5 -0.2
v -1.3 0.5 -0.4
v -1.2 0.5 -0.4
v -1 0.5 -0.4
v 1.1 0.5 -0.4
v 1.2 0.5 -0.4
v 1.3 0.5 -0.4
v -1.2 0.5 -0.5
v -1.1 0.5 -0.5
v 1 0.5 -0.6
v 1.1 0.5 -0.6
v -1 0.5 -0.9
v -0.9 0.5 -0.9
v -0.9 0.5 -1.1
v -0.8 0.5 -1.1
v -0.5 0.5 -1.1
v -0.4 0.5 -1.1
v -0.3 0.5 -1.1
v -0.2 0.5 -1.1
v 0.3 0.5 -1.1
v 0.4 0.5 -1.1
v 0.5 0.5 -1.1
v 0.8 0.5 -1.1
v 0.9 0.5 -1.1
v 1 0.5 -1.1
v 1.2 0.5 -1.1
v -1.1 0.5 -1.2
v -0.8 0.5 -1.2
v -0.5 0.5 -1.2
v -0.4 0.5 -1.2
v -0.3 0.5 -1.2
v 0.4 0.5 -1.2
v 0.5 0.5 -1.2
v 0.8 0.5 -1.2
v 0.9 0.5 -1.2
v 1 0.5 -1.2
v -0.4 0.5 -1.3
v -0.2 0.5 -1.3
v 0.3 0.5 -1.3
v 0.4 0.5 -1.3
v -0.2 0.5 -1.5
v 0.3 0.5 -1.5
v 0.3 0.7 1.3
v 0.4 0.7 1.3
v -0.5 0.7 1.2
v -0.4 0.7 1.2
v 0.3 0.7 1.2
v 0.4 0.7 1.2
v 0.5 0.7 1.2
v 0.6 0.7 1.2
v 0.9 0.7 1.2
v -0.9 0.7 1.1
v -0.8 0.7 1.1
v -0.5 0.7 1.1
v -0.4 0.7 1.1
v 0.3 0.7 1.1
v 0.5 0.7 1.1
v 0.6 0.7 1.1
v 0.9 0.7 1.1
v -0.9 0.7 1
v -0.8 0.7 1
v -1 0.7 0.8
v -0.9 0.7 0.8
v -1 0.7 0.5
v -0.9 0.7 0.5
v -1 0.7 0.4
v -0.9 0.7 0.4
v -1.3 0.7 0.3
v -1.2 0.7 0.3
v -1.3 0.7 -0.2
v -1.2 0.7 -0.2
v -1 0.7 -0.4
v -0.9 0.7 -0.4
v 1 0.7 -0.4
v 1.1 0.7 -0.4
v 1 0.7 -0.6
v 1.1 0.7 -0.6
v -1 0.7 -0.9
v -0.9 0.7 -0.9
v -0.8 0.7 -1.1
v -0.5 0.7 -1.1
v -0.4 0.7 -1.1
v -0.3 0.7 -1.1
v 0.4 0.7 -1.1
v 0.5 0.7 -1.1
v 0.8 0.7 -1.1
v 0.9 0.7 -1.1
v -0.8 0.7 -1.2
v -0.5 0.7 -1.2
v -0.4 0.7 -1.2
v -0.3 0.7 -1.2
v 0.4 0.7 -1.2
v 0.5 0.7 -1.2
v 0.8 0.7 -1.2
v 0.9 0.7 -1.2
v -0.8 0.9 1.1
v -0.6 0.9 1.1
v -1 0.9 1
v -0.9 0.9 1
v -0.8 0.9 1
v -0.6 0.9 1
v -1 0.9 0.8
v -0.9 0.9 0.8
v 0.5 0.9 -1.1
v 0.6 0.9 -1.1
v 0.7 0.9 -1.1
v 0.8 0.9 -1.1
v 0.5 0.9 -1.2
v 0.6 0.9 -1.2
v 0.7 0.9 -1.2
v 0.8 0.9 -1.2
v -0.2 1.1 1.2
v 0.3 1.1 1.2
v -0.6 1.1 1.1
v -0.2 1.1 1.1
v 0.3 1.1 1.1
v 1 1.1 1.1
v -0.9 1.1 1
v -0.6 1.1 1
v 0.5 1.1 1
v 0.6 1.1 1
v -0.6 1.1 0.9
v -0.5 1.1 0.9
v -0.4 1.1 0.9
v -0.3 1.1 0.9
v 0.3 1.1 0.9
v 0.5 1.1 0.9
v 0.6 1.1 0.9
v 0.7 1.1 0.9
v 0.8 1.1 0.9
v -0.8 1.1 0.8
v -0.6 1.1 0.8
v -0.5 1.1 0.8
v -0.4 1.1 0.8
v -0.3 1.1 0.8
v -0.2 1.1 0.8
v 0.8 1.1 0.8
v 0.8 1.1 0.6
v 0.9 1.1 0.6
v -1.2 1.1 0.4
v -0.9 1.1 0.4
v -0.8 1.1 0.4
v 0.9 1.1 0.4
v 1 1.1 0.4
v 1.2 1.1 0.4
v -1 1.1 0.2
v -0.9 1.1 0.2
v -1 1.1 0.1
v -0.9 1.1 0.1
v 1 1.1 0.1
v 1.1 1.1 0.1
v 1 1.1 0
v 1.1 1.1 0
v -1 1.1 -0.1
v -0.9 1.1 -0.1
v -1 1.1 -0.2
v -0.9 1.1 -0.2
v -1 1.1 -0.3
v -0.9 1.1 -0.3
v -1.2 1.1 -0.4
v -1 1.1 -0.4
v -0.9 1.1 -0.4
v -0.8 1.1 -0.4
v 0.9 1.1 -0.4
v 1 1.1 -0.4
v 1.2 1.1 -0.4
v -0.9 1.1 -0.5
v -0.8 1.1 -0.5
v 0.8 1.1 -0.5
v 0.9 1.1 -0.5
v 0.8 1.1 -0.6
v 0.9 1.1 -0.6
v 0.8 1.1 -0.7
v 0.9 1.1 -0.7
v -0.9 1.1 -0.8
v -0.8 1.1 -0.8
v -0.8 1.1 -0.9
v -0.5 1.1 -0.9
v 0.4 1.1 -0.9
v 0.6 1.1 -0.9
v 0.7 1.1 -0.9
v 0.8 1.1 -0.9
v -0.5 1.1 -1
v -0.2 1.1 -1
v 0.3 1.1 -1
v 0.4 1.1 -1
v 0.6 1.1 -1
v 0.7 1.1 -1
v -0.9 1.1 -1.1
v -0.2 1.1 -1.1
v 0.3 1.1 -1.1
v 1 1.1 -1.1
v -0.2 1.1 -1.3
v 0.3 1.1 -1.3
v 0.5 1.4 1
v 0.6 1.4 1
v -0.6 1.4 0.9
v -0.5 1.4 0.9
v -0.4 1.4 0.9
v -0.3 1.4 0.9
v 0.3 1.4 0.9
v 0.5 1.4 0.9
v 0.6 1.4 0.9
v 0.7 1.4 0.9
v 0.8 1.4 0.9
v -0.6 1.4 0.8
v -0.5 1.4 0.8
v -0.4 1.4 0.8
v -0.3 1.4 0.8
v 0.3 1.4 0.8
v 0.7 1.4 0.8
v 0.8 1.4 0.8
v 0.8 1.4 0.6
v 0.9 1.4 0.6
v 0.8 1.4 0.4
v 0.9 1.4 0.4
v -1 1.4 0.2
v -0.9 1.4 0.2
v -1 1.4 0.1
v -0.9 1.4 0.1
v 1 1.4 0.1
v 1.1 1.4 0.1
v 1 1.4 0
v 1.1 1.4 0
v -1 1.4 -0.1
v -0.9 1.4 -0.1
v -1 1.4 -0.2
v -0.9 1.4 -0.2
v -1 1.4 -0.3
v -0.9 1.4 -0.3
v -1 1.4 -0.4
v -0.9 1.4 -0.4
v 0.8 1.4 -0.4
v 0.9 1.4 -0.4
v -0.9 1.4 -0.5
v -0.8 1.4 -0.5
v 0.8 1.4 -0.5
v 0.9 1.4 -0.5
v 0.8 1.4 -0.6
v 0.9 1.4 -0.6
v 0.8 1.4 -0.7
v 0.9 1.4 -0.7
v -0.9 1.4 -0.8
v -0.8 1.4 -0.8
v -0.5 1.4 -0.9
v -0.2 1.4 -0.9
v 0.3 1.4 -0.9
v 0.4 1.4 -0.9
v 0.6 1.4 -0.9
v 0.7 1.4 -0.9
v -0.5 1.4 -1
v -0.2 1.4 -1
v 0.3 1.4 -1
v 0.4 1.4 -1
v 0.6 1.4 -1
v 0.7 1.4 -1
v -0.2 1.6 1.1
v 0.3 1.6 1.1
v 0 1.6 1
v 0.1 1.6 1
v -0.1 1.6 0.9
v 0 1.6 0.9
v 0.1 1.6 0.9
v 0.2 1.6 0.9
v -0.8 1.6 0.8
v -0.2 1.6 0.8
v -0.1 1.6 0.8
v 0.2 1.6 0.8
v 0.3 1.6 0.8
v 0.8 1.6 0.8
v -0.6 1.6 0.7
v -0.2 1.6 0.7
v 0.3 1.6 0.7
v 0.7 1.6 0.7
v -0.8 1.6 0.4
v -0.6 1.6 0.4
v 0.7 1.6 0.4
v 0.8 1.6 0.4
v 1 1.6 0.4
v -0.9 1.6 0.3
v -0.8 1.6 0.3
v -0.9 1.6 0.2
v -0.8 1.6 0.2
v 0.8 1.6 0.2
v 0.9 1.6 0.2
v -0.9 1.6 0
v -0.8 1.6 0
v 0.8 1.6 -0.2
v 0.9 1.6 -0.2
v -0.9 1.6 -0.4
v -0.8 1.6 -0.4
v -0.6 1.6 -0.4
v 0.7 1.6 -0.4
v 0.8 1.6 -0.4
v 1 1.6 -0.4
v -0.6 1.6 -0.8
v -0.2 1.6 -0.8
v 0.3 1.6 -0.8
v 0.7 1.6 -0.8
v -0.8 1.6 -0.9
v -0.2 1.6 -0.9
v 0.3 1.6 -0.9
v 0.8 1.6 -0.9
v -0.2 1.6 -1.1
v 0.3 1.6 -1.1
v 0 1.8 1
v 0.1 1.8 1
v -0.1 1.8 0.9
v 0 1.8 0.9
v 0.1 1.8 0.9
v 0.2 1.8 0.9
v -0.1 1.8 0.8
v 0.2 1.8 0.8
v -0.9 1.8 0.4
v -0.8 1.8 0.4
v -0.9 1.8 0.3
v -0.8 1.8 0.3
v -0.9 1.8 0.2
v -0.8 1.8 0.2
v 0.8 1.8 0.2
v 0.9 1.8 0.2
v -0.9 1.8 0
v -0.8 1.8 0
v 0.8 1.8 -0.2
v 0.9 1.8 -0.2
v -0.2 2.1 0.8
v 0.3 2.1 0.8
v -0.6 2.1 0.7
v -0.2 2.1 0.7
v 0.3 2.1 0.7
v 0.7 2.1 0.7
v -0.3 2.1 0.6
v -0.2 2.1 0.6
v -0.4 2.1 0.5
v -0.3 2.1 0.5
v 0.3 2.1 0.5
v 0.5 2.1 0.5
v -0.8 2.1 0.4
v -0.6 2.1 0.4
v -0.4 2.1 0.4
v 0.5 2.1 0.4
v 0.7 2.1 0.4
v 0.8 2.1 0.4
v -0.7 2.1 -0.1
v -0.6 2.1 -0.1
v -0.7 2.1 -0.3
v -0.6 2.1 -0.3
v -0.8 2.1 -0.4
v -0.6 2.1 -0.4
v -0.5 2.1 -0.4
v 0.5 2.1 -0.4
v 0.7 2.1 -0.4
v 0.8 2.1 -0.4
v 0.5 2.1 -0.5
v 0.6 2.1 -0.5
v -0.5 2.1 -0.6
v -0.4 2.1 -0.6
v -0.3 2.1 -0.6
v 0.3 2.1 -0.6
v 0.4 2.1 -0.6
v 0.5 2.1 -0.6
v 0.6 2.1 -0.6
v -0.5 2.1 -0.7
v -0.4 2.1 -0.7
v -0.3 2.1 -0.7
v -0.2 2.1 -0.7
v 0.4 2.1 -0.7
v 0.5 2.1 -0.7
v -0.6 2.1 -0.8
v -0.2 2.1 -0.8
v 0.3 2.1 -0.8
v 0.7 2.1 -0.8
v -0.2 2.1 -0.9
v 0.3 2.1 -0.9
v -0.3 2.3 0.6
v -0.2 2.3 0.6
v -0.4 2.3 0.5
v -0.3 2.3 0.5
v -0.4 2.3 0.4
v -0.2 2.3 0.4
v -0.7 2.3 -0.1
v -0.6 2.3 -0.1
v -0.7 2.3 -0.3
v -0.6 2.3 -0.3
v 0.5 2.3 -0.5
v 0.6 2.3 -0.5
v -0.5 2.3 -0.6
v -0.4 2.3 -0.6
v -0.3 2.3 -0.6
v -0.2 2.3 -0.6
v 0.4 2.3 -0.6
v 0.5 2.3 -0.6
v 0.6 2.3 -0.6
v -0.5 2.3 -0.7
v -0.4 2.3 -0.7
v -0.3 2.3 -0.7
v -0.2 2.3 -0.7
v 0.4 2.3 -0.7
v 0.5 2.3 -0.7
v -0.6 2.5 0.4
v -0.4 2.5 0.4
v -0.5 2.5 0.3
v -0.4 2.5 0.3
v -0.6 2.5 -0.1
v -0.5 2.5 -0.1
v -0.6 2.5 -0.2
v -0.5 2.5 -0.2
v -0.6 2.5 -0.4
v -0.5 2.5 -0.4
v -0.5 2.5 -0.5
v -0.2 2.5 -0.5
v -0.5 2.5 -0.6
v -0.2 2.5 -0.6
v -0.2 2.7 0.7
v 0.3 2.7 0.7
v 0 2.7 0.5
v 0.1 2.7 0.5
v 0.2 2.7 0.5
v 0.3 2.7 0.5
v 0.5 2.7 0.5
v -0.4 2.7 0.4
v -0.2 2.7 0.4
v 0 2.7 0.4
v 0.1 2.7 0.4
v 0.2 2.7 0.4
v 0.3 2.7 0.4
v 0.4 2.7 0.4
v 0.5 2.7 0.4
v 0.7 2.7 0.4
v -0.5 2.7 0.3
v -0.4 2.7 0.3
v -0.3 2.7 0.2
v -0.2 2.7 0.2
v -0.6 2.7 -0.1
v -0.5 2.7 -0.1
v -0.3 2.7 -0.1
v -0.2 2.7 -0.1
v -0.6 2.7 -0.2
v -0.5 2.7 -0.2
v -0.2 2.7 -0.4
v -0.1 2.7 -0.4
v 0.2 2.7 -0.4
v 0.4 2.7 -0.4
v 0.5 2.7 -0.4
v 0.7 2.7 -0.4
v -0.5 2.7 -0.5
v -0.2 2.7 -0.5
v -0.1 2.7 -0.5
v 0.2 2.7 -0.5
v 0.3 2.7 -0.6
v 0.5 2.7 -0.6
v -0.2 2.7 -0.8
v 0.3 2.7 -0.8
v 0 2.9 0.5
v 0.1 2.9 0.5
v 0.2 2.9 0.5
v 0.3 2.9 0.5
v 0 2.9 0.4
v 0.1 2.9 0.4
v 0.2 2.9 0.4
v 0.3 2.9 0.4
v -0.3 2.9 0.2
v -0.2 2.9 0.2
v -0.3 2.9 -0.1
v -0.2 2.9 -0.1
v -0.1 2.9 -0.4
v 0.2 2.9 -0.4
v -0.1 2.9 -0.5
v 0.2 2.9 -0.5
v -0.2 3 0.4
v 0.4 3 0.4
v -0.1 3 0
v 0 3 0
v -0.1 3 -0.1
v 0 3 -0.1
v 0.1 3 -0.1
v 0.2 3 -0.1
v 0.1 3 -0.2
v 0.2 3 -0.2
v 0.3 3 -0.2
v 0.4 3 -0.2
v 0.3 3 -0.3
v 0.4 3 -0.3
v -0.2 3 -0.4
v 0.4 3 -0.4
v -0.1 3.1 0
v 0 3.1 0
v -0.1 3.1 -0.1
v 0 3.1 -0.1
v 0.1 3.1 -0.1
v 0.2 3.1 -0.1
v 0.1 3.1 -0.2
v 0.2 3.1 -0.2
v 0.3 3.1 -0.2
v 0.4 3.1 -0.2
v 0.3 3.1 -0.3
v 0.4 3.1 -0.3

# faces
f 3/1/1 2/1/1 1/1/1
f 4/1/1 2/1/1 3/1/1
f 9/2/1 6/2/1 5/2/1
f 10/2/1 8/2/1 7/2/1
f 11/2/1 9/2/1 5/2/1
f 11/2/1 10/2/1 9/2/1
f 12/2/1 10/2/1 11/2/1
f 13/2/1 8/2/1 10/2/1
f 13/2/1 10/2/1 12/2/1
f 14/2/1 8/2/1 13/2/1
f 15/1/1 13/1/1 12/1/1
f 16/1/1 13/1/1 15/1/1
f 25/1/1 22/1/1 21/1/1
f 26/1/1 22/1/1 25/1/1
f 27/1/1 24/1/1 23/1/1
f 28/1/1 24/1/1 27/1/1
f 29/2/1 18/2/1 17/2/1
f 30/2/1 18/2/1 29/2/1
f 33/2/1 20/2/1 19/2/1
f 34/2/1 20/2/1 33/2/1
f 35/2/1 31/2/1 30/2/1
f 36/2/1 33/2/1 32/2/1
f 37/2/1 35/2/1 30/2/1
f 37/2/1 36/2/1 35/2/1
f 38/2/1 33/2/1 36/2/1
f 38/2/1 36/2/1 37/2/1
f 47/1/1 40/1/1 39/1/1
f 48/1/1 40/1/1 47/1/1
f 49/2/1 42/2/1 41/2/1
f 50/2/1 44/2/1 43/2/1
f 51/2/1 44/2/1 50/2/1
f 52/2/1 46/2/1 45/2/1
f 53/2/1 51/2/1 50/2/1
f 53/2/1 52/2/1 51/2/1
f 53/2/1 49/2/1 41/2/1
f 53/2/1 50/2/1 49/2/1
f 54/2/1 46/2/1 52/2/1
f 54/2/1 52/2/1 53/2/1
f 59/2/1 56/2/1 55/2/1
f 60/2/1 58/2/1 57/2/1
f 61/2/1 59/2/1 55/2/1
f 61/2/1 60/2/1 59/2/1
f 62/2/1 60/2/1 61/2/1
f 63/2/1 58/2/1 60/2/1
f 63/2/1 60/2/1 62/2/1
f 68/2/1 63/2/1 62/2/1
f 68/2/1 64/2/1 63/2/1
f 69/2/1 64/2/1 68/2/1
f 70/1/1 65/1/1 64/1/1
f 70/2/1 64/2/1 69/2/1
f 71/1/1 65/1/1 70/1/1
f 72/1/1 67/1/1 66/1/1
f 73/1/1 67/1/1 72/1/1
f 74/1/1 69/1/1 68/1/1
f 75/1/1 69/1/1 74/1/1
f 82/1/1 77/1/1 76/1/1
f 83/1/1 77/1/1 82/1/1
f 84/1/1 79/1/1 78/1/1
f 85/1/1 79/1/1 84/1/1
f 86/1/1 81/1/1 80/1/1
f 87/1/1 81/1/1 86/1/1
f 92/2/1 89/2/1 88/2/1
f 93/2/1 89/2/1 92/2/1
f 98/2/1 91/2/1 90/2/1
f 100/2/1 96/2/1 95/2/1
f 100/2/1 95/2/1 94/2/1
f 101/2/1 100/2/1 99/2/1
f 102/2/1 96/2/1 100/2/1
f 102/2/1 100/2/1 101/2/1
f 108/2/1 98/2/1 97/2/1
f 109/2/1 98/2/1 108/2/1
f 110/2/1 98/2/1 109/2/1
f 111/2/1 91/2/1 98/2/1
f 111/2/1 98/2/1 110/2/1
f 112/2/1 103/2/1 102/2/1
f 113/2/1 105/2/1 104/2/1
f 114/2/1 105/2/1 113/2/1
f 115/2/1 107/2/1 106/2/1
f 116/2/1 107/2/1 115/2/1
f 118/1/1 110/1/1 109/1/1
f 119/1/1 110/1/1 118/1/1
f 120/2/1 117/2/1 116/2/1
f 120/2/1 114/2/1 113/2/1
f 120/2/1 112/2/1 102/2/1
f 120/2/1 116/2/1 115/2/1
f 120/2/1 115/2/1 114/2/1
f 120/2/1 113/2/1 112/2/1
f 121/2/1 117/2/1 120/2/1
f 122/2/1 117/2/1 121/2/1
f 123/2/1 117/2/1 122/2/1
f 124/2/1 117/2/1 123/2/1
f 125/1/1 121/1/1 120/1/1
f 126/1/1 121/1/1 125/1/1
f 127/1/1 123/1/1 122/1/1
f 128/1/1 123/1/1 127/1/1
f 131/1/1 130/1/1 129/1/1
f 132/1/1 130/1/1 131/1/1
f 137/1/1 134/1/1 133/1/1
f 138/1/1 134/1/1 137/1/1
f 139/2/1 136/2/1 135/2/1
f 140/2/1 136/2/1 139/2/1
f 147/2/1 144/2/1 143/2/1
f 148/2/1 146/2/1 145/2/1
f 149/2/1 142/2/1 141/2/1
f 150/2/1 142/2/1 149/2/1
f 154/2/1 148/2/1 147/2/1
f 154/2/1 147/2/1 143/2/1
f 155/2/1 146/2/1 148/2/1
f 155/2/1 148/2/1 154/2/1
f 157/2/1 152/2/1 151/2/1
f 158/2/1 152/2/1 157/2/1
f 159/2/1 154/2/1 153/2/1
f 160/2/1 158/2/1 157/2/1
f 160/2/1 159/2/1 158/2/1
f 160/2/1 157/2/1 156/2/1
f 161/2/1 154/2/1 159/2/1
f 161/2/1 159/2/1 160/2/1
f 164/1/1 163/1/1 162/1/1
f 165/1/1 163/1/1 164/1/1
f 168/1/1 167/1/1 166/1/1
f 169/1/1 167/1/1 168/1/1
f 172/2/1 171/2/1 170/2/1
f 173/2/1 171/2/1 172/2/1
f 176/1/1 175/1/1 174/1/1
f 177/1/1 175/1/1 176/1/1
f 182/2/1 179/2/1 178/2/1
f 183/2/1 179/2/1 182/2/1
f 186/2/1 181/2/1 180/2/1
f 187/2/1 181/2/1 186/2/1
f 188/2/1 184/2/1 183/2/1
f 189/2/1 186/2/1 185/2/1
f 190/2/1 188/2/1 183/2/1
f 190/2/1 189/2/1 188/2/1
f 191/2/1 189/2/1 190/2/1
f 192/2/1 189/2/1 191/2/1
f 193/2/1 186/2/1 189/2/1
f 193/2/1 189/2/1 192/2/1
f 194/1/1 192/1/1 191/1/1
f 195/1/1 192/1/1 194/1/1
f 198/1/1 197/1/1 196/1/1
f 199/1/1 197/1/1 198/1/1
f 202/1/1 201/1/1 200/1/1
f 203/1/1 201/1/1 202/1/1
f 207/2/1 205/2/1 204/2/1
f 207/1/1 206/1/1 205/1/1
f 208/1/1 206/1/1 207/1/1
f 212/2/1 207/2/1 204/2/1
f 213/2/1 207/2/1 212/2/1
f 214/2/1 207/2/1 213/2/1
f 215/2/1 210/2/1 209/2/1
f 216/2/1 210/2/1 215/2/1
f 217/2/1 212/2/1 211/2/1
f 217/2/1 213/2/1 212/2/1
f 218/2/1 213/2/1 217/2/1
f 222/2/1 220/2/1 219/2/1
f 223/2/1 220/2/1 222/2/1
f 224/1/1 222/1/1 221/1/1
f 225/1/1 222/1/1 224/1/1
f 228/1/1 227/1/1 226/1/1
f 229/1/1 227/1/1 228/1/1
f 234/1/1 231/1/1 230/1/1
f 235/1/1 231/1/1 234/1/1
f 237/2/1 233/2/1 232/2/1
f 238/2/1 233/2/1 237/2/1
f 239/2/1 237/2/1 236/2/1
f 240/2/1 237/2/1 239/2/1
f 245/1/1 242/1/1 241/1/1
f 246/1/1 242/1/1 245/1/1
f 247/1/1 244/1/1 243/1/1
f 248/1/1 244/1/1 247/1/1
f 251/1/1 250/1/1 249/1/1
f 252/1/1 250/1/1 251/1/1
f 257/2/1 254/2/1 253/2/1
f 258/2/1 254/2/1 257/2/1
f 259/2/1 254/2/1 258/2/1
f 260/2/1 254/2/1 259/2/1
f 263/2/1 256/2/1 255/2/1
f 264/2/1 256/2/1 263/2/1
f 265/2/1 261/2/1 260/2/1
f 266/2/1 261/2/1 265/2/1
f 269/2/1 263/2/1 262/2/1
f 270/2/1 263/2/1 269/2/1
f 272/2/1 269/2/1 268/2/1
f 273/2/1 267/2/1 266/2/1
f 274/2/1 267/2/1 273/2/1
f 277/2/1 272/2/1 271/2/1
f 278/2/1 269/2/1 272/2/1
f 278/2/1 272/2/1 277/2/1
f 279/2/1 275/2/1 274/2/1
f 280/2/1 275/2/1 279/2/1
f 283/2/1 277/2/1 276/2/1
f 284/2/1 277/2/1 283/2/1
f 285/2/1 281/2/1 280/2/1
f 288/2/1 283/2/1 282/2/1
f 290/2/1 288/2/1 287/2/1
f 291/2/1 286/2/1 285/2/1
f 291/2/1 285/2/1 280/2/1
f 292/2/1 286/2/1 291/2/1
f 296/2/1 290/2/1 289/2/1
f 297/2/1 288/2/1 290/2/1
f 297/2/1 290/2/1 296/2/1
f 297/2/1 283/2/1 288/2/1
f 298/2/1 293/2/1 292/2/1
f 299/2/1 295/2/1 294/2/1
f 300/2/1 298/2/1 292/2/1
f 300/2/1 299/2/1 298/2/1
f 301/2/1 295/2/1 299/2/1
f 301/2/1 299/2/1 300/2/1
f 304/1/1 303/1/1 302/1/1
f 305/1/1 303/1/1 304/1/1
f 308/1/1 307/1/1 306/1/1
f 309/1/1 307/1/1 308/1/1
f 312/1/1 311/1/1 310/1/1
f 313/1/1 311/1/1 312/1/1
f 316/1/1 315/1/1 314/1/1
f 317/1/1 315/1/1 316/1/1
f 320/1/1 319/1/1 318/1/1
f 321/1/1 319/1/1 320/1/1
f 324/1/1 323/1/1 322/1/1
f 325/1/1 323/1/1 324/1/1
f 328/1/1 327/1/1 326/1/1
f 329/1/1 327/1/1 328/1/1
f 332/2/1 331/2/1 330/2/1
f 333/2/1 331/2/1 332/2/1
f 338/2/1 335/2/1 334/2/1
f 339/2/1 335/2/1 338/2/1
f 340/2/1 337/2/1 336/2/1
f 341/2/1 337/2/1 340/2/1
f 346/2/1 345/2/1 344/2/1
f 347/2/1 343/2/1 342/2/1
f 348/2/1 343/2/1 347/2/1
f 349/2/1 345/2/1 346/2/1
f 350/2/1 345/2/1 349/2/1
f 353/1/1 352/1/1 351/1/1
f 354/1/1 352/1/1 353/1/1
f 360/2/1 356/2/1 355/2/1
f 361/2/1 356/2/1 360/2/1
f 364/2/1 358/2/1 357/2/1
f 365/2/1 358/2/1 364/2/1
f 366/1/1 360/1/1 359/1/1
f 367/1/1 360/1/1 366/1/1
f 368/2/1 362/2/1 361/2/1
f 371/2/1 364/2/1 363/2/1
f 372/2/1 369/2/1 368/2/1
f 372/2/1 368/2/1 361/2/1
f 373/2/1 369/2/1 372/2/1
f 376/2/1 371/2/1 370/2/1
f 377/2/1 364/2/1 371/2/1
f 377/2/1 371/2/1 376/2/1
f 378/2/1 374/2/1 373/2/1
f 379/2/1 374/2/1 378/2/1
f 382/2/1 376/2/1 375/2/1
f 383/2/1 376/2/1 382/2/1
f 384/2/1 380/2/1 379/2/1
f 387/2/1 382/2/1 381/2/1
f 388/2/1 385/2/1 384/2/1
f 388/2/1 384/2/1 379/2/1
f 389/2/1 385/2/1 388/2/1
f 392/2/1 387/2/1 386/2/1
f 393/2/1 382/2/1 387/2/1
f 393/2/1 387/2/1 392/2/1
f 394/2/1 392/2/1 391/2/1
f 395/2/1 392/2/1 394/2/1
f 396/2/1 390/2/1 389/2/1
f 397/2/1 390/2/1 396/2/1
f 400/1/1 399/1/1 398/1/1
f 401/1/1 399/1/1 400/1/1
f 404/1/1 403/1/1 402/1/1
f 405/1/1 403/1/1 404/1/1
f 410/1/1 409/1/1 408/1/1
f 411/1/1 409/1/1 410/1/1
f 412/2/1 407/2/1 406/2/1
f 413/2/1 407/2/1 412/2/1
f 416/1/1 415/1/1 414/1/1
f 417/1/1 415/1/1 416/1/1
f 420/1/1 419/1/1 418/1/1
f 421/1/1 419/1/1 420/1/1
f 426/2/1 423/2/1 422/2/1
f 427/2/1 423/2/1 426/2/1
f 429/2/1 425/2/1 424/2/1
f 430/2/1 425/2/1 429/2/1
f 431/2/1 428/2/1 427/2/1
f 432/2/1 428/2/1 431/2/1
f 435/1/1 434/1/1 433/1/1
f 436/1/1 434/1/1 435/1/1
f 439/1/1 438/1/1 437/1/1
f 440/1/1 438/1/1 439/1/1
f 443/1/1 442/1/1 441/1/1
f 444/1/1 442/1/1 443/1/1
f 449/2/1 446/2/1 445/2/1
f 450/2/1 446/2/1 449/2/1
f 451/2/1 448/2/1 447/2/1
f 452/2/1 448/2/1 451/2/1
f 455/2/1 454/2/1 453/2/1
f 456/2/1 454/2/1 455/2/1
f 459/1/1 458/1/1 457/1/1
f 460/1/1 458/1/1 459/1/1
f 465/2/1 462/2/1 461/2/1
f 466/2/1 462/2/1 465/2/1
f 467/2/1 464/2/1 463/2/1
f 468/2/1 464/2/1 467/2/1
f 469/2/1 467/2/1 466/2/1
f 470/2/1 467/2/1 469/2/1
f 473/1/1 472/1/1 471/1/1
f 474/1/1 472/1/1 473/1/1
f 479/2/1 476/2/1 475/2/1
f 480/2/1 476/2/1 479/2/1
f 483/2/1 478/2/1 477/2/1
f 484/2/1 478/2/1 483/2/1
f 485/2/1 481/2/1 480/2/1
f 486/2/1 483/2/1 482/2/1
f 487/2/1 485/2/1 480/2/1
f 487/2/1 486/2/1 485/2/1
f 488/2/1 483/2/1 486/2/1
f 488/2/1 486/2/1 487/2/1
f 493/2/1 490/2/1 489/2/1
f 494/2/1 490/2/1 493/2/1
f 495/2/1 492/2/1 491/2/1
f 496/2/1 492/2/1 495/2/1
f 499/2/1 498/2/1 497/2/1
f 500/2/1 498/2/1 499/2/1
f 505/2/1 502/2/1 501/2/1
f 506/2/1 502/2/1 505/2/1
f 509/2/1 504/2/1 503/2/1
f 510/2/1 504/2/1 509/2/1
f 511/2/1 507/2/1 506/2/1
f 512/2/1 509/2/1 508/2/1
f 513/2/1 511/2/1 506/2/1
f 513/2/1 512/2/1 511/2/1
f 514/2/1 509/2/1 512/2/1
f 514/2/1 512/2/1 513/2/1
f 517/2/1 516/2/1 515/2/1
f 518/2/1 516/2/1 517/2/1
f 521/2/1 520/2/1 519/2/1
f 522/2/1 520/2/1 521/2/1
f 523/2/2 524/2/2 525/2/2
f 525/2/2 524/2/2 526/2/2
f 527/2/2 528/2/2 529/2/2
f 529/2/2 528/2/2 530/2/2
f 531/2/2 532/2/2 535/2/2
f 535/2/2 532/2/2 536/2/2
f 533/2/2 534/2/2 539/2/2
f 539/2/2 534/2/2 540/2/2
f 536/2/2 537/2/2 541/2/2
f 538/2/2 539/2/2 542/2/2
f 536/2/2 541/2/2 543/2/2
f 541/2/2 542/2/2 543/2/2
f 542/2/2 539/2/2 544/2/2
f 543/2/2 542/2/2 544/2/2
f 545/2/2 546/2/2 549/2/2
f 549/2/2 546/2/2 550/2/2
f 547/2/2 548/2/2 551/2/2
f 551/2/2 548/2/2 552/2/2
f 550/2/2 546/2/2 553/2/2
f 553/2/2 546/2/2 554/2/2
f 547/2/2 551/2/2 555/2/2
f 555/2/2 551/2/2 556/2/2
f 554/2/2 555/2/2 557/2/2
f 557/2/2 555/2/2 558/2/2
f 559/2/2 560/2/2 563/2/2
f 563/2/2 560/2/2 564/2/2
f 561/2/2 562/2/2 565/2/2
f 565/2/2 562/2/2 566/2/2
f 567/2/2 568/2/2 569/2/2
f 569/2/2 568/2/2 570/2/2
f 571/1/2 572/1/2 573/1/2
f 573/1/2 572/1/2 574/1/2
f 575/2/2 576/2/2 579/2/2
f 579/2/2 576/2/2 580/2/2
f 577/2/2 578/2/2 583/2/2
f 583/2/2 578/2/2 584/2/2
f 580/2/2 581/2/2 585/2/2
f 582/2/2 583/2/2 586/2/2
f 580/2/2 585/2/2 587/2/2
f 585/2/2 586/2/2 587/2/2
f 586/2/2 583/2/2 588/2/2
f 587/2/2 586/2/2 588/2/2
f 589/1/2 590/1/2 591/1/2
f 591/1/2 590/1/2 592/1/2
f 593/1/2 594/1/2 595/1/2
f 595/1/2 594/1/2 596/1/2
f 597/2/2 598/2/2 601/2/2
f 601/2/2 598/2/2 602/2/2
f 599/2/2 600/2/2 603/2/2
f 603/2/2 600/2/2 604/2/2
f 599/2/2 603/2/2 606/2/2
f 606/2/2 603/2/2 607/2/2
f 605/2/2 606/2/2 608/2/2
f 608/2/2 606/2/2 609/2/2
f 610/1/2 611/1/2 612/1/2
f 612/1/2 611/1/2 613/1/2
f 616/1/2 617/1/2 618/1/2
f 618/1/2 617/1/2 619/1/2
f 614/2/2 615/2/2 620/2/2
f 620/2/2 615/2/2 621/2/2
f 622/1/2 623/1/2 624/1/2
f 624/1/2 623/1/2 625/1/2
f 626/1/2 627/1/2 628/1/2
f 628/1/2 627/1/2 629/1/2
f 630/1/2 631/1/2 632/1/2
f 632/1/2 631/1/2 633/1/2
f 634/2/2 635/2/2 638/2/2
f 638/2/2 635/2/2 639/2/2
f 636/2/2 637/2/2 642/2/2
f 642/2/2 637/2/2 643/2/2
f 639/2/2 640/2/2 644/2/2
f 641/2/2 642/2/2 647/2/2
f 644/2/2 645/2/2 648/2/2
f 639/2/2 644/2/2 648/2/2
f 648/2/2 645/2/2 649/2/2
f 646/2/2 647/2/2 652/2/2
f 647/2/2 642/2/2 653/2/2
f 652/2/2 647/2/2 653/2/2
f 649/2/2 650/2/2 654/2/2
f 654/2/2 650/2/2 655/2/2
f 651/2/2 652/2/2 658/2/2
f 658/2/2 652/2/2 659/2/2
f 655/2/2 656/2/2 660/2/2
f 657/2/2 658/2/2 663/2/2
f 660/2/2 661/2/2 664/2/2
f 655/2/2 660/2/2 664/2/2
f 664/2/2 661/2/2 665/2/2
f 662/2/2 663/2/2 668/2/2
f 663/2/2 658/2/2 669/2/2
f 668/2/2 663/2/2 669/2/2
f 667/2/2 668/2/2 670/2/2
f 670/2/2 668/2/2 671/2/2
f 665/2/2 666/2/2 672/2/2
f 672/2/2 666/2/2 673/2/2
f 674/2/2 675/2/2 676/2/2
f 676/2/2 675/2/2 677/2/2
f 678/2/2 679/2/2 682/2/2
f 682/2/2 679/2/2 683/2/2
f 680/2/2 681/2/2 684/2/2
f 684/2/2 681/2/2 685/2/2
f 688/2/2 689/2/2 690/2/2
f 686/2/2 687/2/2 691/2/2
f 691/2/2 687/2/2 692/2/2
f 690/2/2 689/2/2 693/2/2
f 693/2/2 689/2/2 694/2/2
f 695/1/2 696/1/2 697/1/2
f 697/1/2 696/1/2 698/1/2
f 699/1/2 700/1/2 701/1/2
f 701/1/2 700/1/2 702/1/2
f 703/1/2 704/1/2 705/1/2
f 705/1/2 704/1/2 706/1/2
f 707/1/2 708/1/2 709/1/2
f 709/1/2 708/1/2 710/1/2
f 711/1/2 712/1/2 713/1/2
f 713/1/2 712/1/2 714/1/2
f 715/1/2 716/1/2 717/1/2
f 717/1/2 716/1/2 718/1/2
f 719/1/2 720/1/2 721/1/2
f 721/1/2 720/1/2 722/1/2
f 723/2/2 724/2/2 727/2/2
f 727/2/2 724/2/2 728/2/2
f 728/2/2 729/2/2 730/2/2
f 730/2/2 729/2/2 731/2/2
f 725/2/2 726/2/2 733/2/2
f 733/2/2 726/2/2 734/2/2
f 735/2/2 736/2/2 737/2/2
f 737/2/2 736/2/2 738/2/2
f 732/2/2 733/2/2 741/2/2
f 741/2/2 733/2/2 742/2/2
f 738/2/2 739/2/2 743/2/2
f 740/2/2 741/2/2 746/2/2
f 743/2/2 744/2/2 747/2/2
f 738/2/2 743/2/2 747/2/2
f 747/2/2 744/2/2 748/2/2
f 745/2/2 746/2/2 751/2/2
f 746/2/2 741/2/2 752/2/2
f 751/2/2 746/2/2 752/2/2
f 748/2/2 749/2/2 753/2/2
f 753/2/2 749/2/2 754/2/2
f 750/2/2 751/2/2 757/2/2
f 757/2/2 751/2/2 758/2/2
f 754/2/2 755/2/2 759/2/2
f 759/2/2 755/2/2 760/2/2
f 756/2/2 757/2/2 762/2/2
f 762/2/2 757/2/2 763/2/2
f 760/1/2 761/1/2 764/1/2
f 764/1/2 761/1/2 765/1/2
f 766/2/2 767/2/2 770/2/2
f 770/2/2 767/2/2 771/2/2
f 768/1/2 769/1/2 772/1/2
f 772/1/2 769/1/2 773/1/2
f 774/1/2 775/1/2 776/1/2
f 776/1/2 775/1/2 777/1/2
f 778/2/2 779/2/2 780/2/2
f 780/2/2 779/2/2 781/2/2
f 781/2/2 779/2/2 782/2/2
f 782/2/2 779/2/2 783/2/2
f 781/1/2 782/1/2 784/1/2
f 784/1/2 782/1/2 785/1/2
f 786/1/2 787/1/2 790/1/2
f 790/1/2 787/1/2 791/1/2
f 788/1/2 789/1/2 792/1/2
f 792/1/2 789/1/2 793/1/2
f 798/2/2 799/2/2 802/2/2
f 800/1/2 801/1/2 803/1/2
f 803/1/2 801/1/2 804/1/2
f 796/2/2 797/2/2 805/2/2
f 805/2/2 797/2/2 806/2/2
f 794/2/2 795/2/2 807/2/2
f 807/2/2 795/2/2 808/2/2
f 798/2/2 802/2/2 809/2/2
f 802/2/2 803/2/2 809/2/2
f 809/2/2 803/2/2 810/2/2
f 811/1/2 812/1/2 813/1/2
f 813/1/2 812/1/2 814/1/2
f 815/1/2 816/1/2 817/1/2
f 817/1/2 816/1/2 818/1/2
f 819/1/2 820/1/2 821/1/2
f 821/1/2 820/1/2 822/1/2
f 823/1/2 824/1/2 825/1/2
f 825/1/2 824/1/2 826/1/2
f 827/2/2 828/2/2 831/2/2
f 831/2/2 828/2/2 832/2/2
f 829/2/2 830/2/2 833/2/2
f 833/2/2 830/2/2 834/2/2
f 832/2/2 833/2/2 835/2/2
f 835/2/2 833/2/2 836/2/2
f 837/1/2 838/1/2 839/1/2
f 839/1/2 838/1/2 840/1/2
f 841/1/2 842/1/2 843/1/2
f 843/1/2 842/1/2 844/1/2
f 845/1/2 846/1/2 852/1/2
f 846/2/2 847/2/2 853/2/2
f 852/1/2 846/1/2 853/1/2
f 853/2/2 847/2/2 854/2/2
f 848/2/2 849/2/2 857/2/2
f 857/2/2 849/2/2 858/2/2
f 850/2/2 851/2/2 859/2/2
f 854/2/2 855/2/2 860/2/2
f 853/2/2 854/2/2 860/2/2
f 860/2/2 855/2/2 861/2/2
f 857/2/2 858/2/2 864/2/2
f 858/2/2 859/2/2 864/2/2
f 856/2/2 857/2/2 864/2/2
f 859/2/2 851/2/2 865/2/2
f 864/2/2 859/2/2 865/2/2
f 861/2/2 862/2/2 866/2/2
f 863/2/2 864/2/2 867/2/2
f 861/2/2 866/2/2 868/2/2
f 866/2/2 867/2/2 868/2/2
f 867/2/2 864/2/2 869/2/2
f 868/2/2 867/2/2 869/2/2
f 870/1/2 871/1/2 872/1/2
f 872/1/2 871/1/2 873/1/2
f 874/1/2 875/1/2 878/1/2
f 878/1/2 875/1/2 879/1/2
f 876/1/2 877/1/2 880/1/2
f 880/1/2 877/1/2 881/1/2
f 882/1/2 883/1/2 888/1/2
f 888/1/2 883/1/2 889/1/2
f 884/1/2 885/1/2 890/1/2
f 890/1/2 885/1/2 891/1/2
f 886/1/2 887/1/2 892/1/2
f 892/1/2 887/1/2 893/1/2
f 894/1/2 895/1/2 896/1/2
f 896/1/2 895/1/2 897/1/2
f 898/2/2 899/2/2 903/2/2
f 903/2/2 899/2/2 904/2/2
f 902/2/2 903/2/2 906/2/2
f 900/2/2 901/2/2 907/2/2
f 907/2/2 901/2/2 908/2/2
f 905/2/2 906/2/2 911/2/2
f 906/2/2 903/2/2 912/2/2
f 911/2/2 906/2/2 912/2/2
f 908/2/2 909/2/2 913/2/2
f 910/2/2 911/2/2 914/2/2
f 908/2/2 913/2/2 915/2/2
f 913/2/2 914/2/2 915/2/2
f 914/2/2 911/2/2 916/2/2
f 915/2/2 914/2/2 916/2/2
f 917/2/2 918/2/2 921/2/2
f 919/2/2 920/2/2 922/2/2
f 922/2/2 920/2/2 923/2/2
f 917/2/2 921/2/2 925/2/2
f 923/2/2 924/2/2 925/2/2
f 922/2/2 923/2/2 925/2/2
f 921/2/2 922/2/2 925/2/2
f 925/2/2 924/2/2 926/2/2
f 927/1/2 928/1/2 929/1/2
f 929/1/2 928/1/2 930/1/2
f 931/1/2 932/1/2 933/1/2
f 933/1/2 932/1/2 934/1/2
f 935/1/2 936/1/2 946/1/2
f 946/1/2 936/1/2 947/1/2
f 937/1/2 938/1/2 948/1/2
f 938/2/2 939/2/2 949/2/2
f 948/1/2 938/1/2 949/1/2
f 940/2/2 941/2/2 950/2/2
f 942/2/2 943/2/2 951/2/2
f 951/2/2 943/2/2 952/2/2
f 944/2/2 945/2/2 953/2/2
f 949/2/2 939/2/2 954/2/2
f 954/2/2 939/2/2 955/2/2
f 951/2/2 952/2/2 956/2/2
f 952/2/2 953/2/2 956/2/2
f 940/2/2 950/2/2 956/2/2
f 950/2/2 951/2/2 956/2/2
f 953/2/2 945/2/2 957/2/2
f 956/2/2 953/2/2 957/2/2
f 955/2/2 956/2/2 958/2/2
f 958/2/2 956/2/2 959/2/2
f 960/2/2 961/2/2 969/2/2
f 969/2/2 961/2/2 970/2/2
f 962/2/2 963/2/2 971/2/2
f 964/1/2 965/1/2 972/1/2
f 972/1/2 965/1/2 973/1/2
f 966/1/2 967/1/2 974/1/2
f 974/1/2 967/1/2 975/1/2
f 969/2/2 970/2/2 976/2/2
f 970/2/2 971/2/2 976/2/2
f 968/2/2 969/2/2 976/2/2
f 971/2/2 963/2/2 977/2/2
f 976/2/2 971/2/2 977/2/2
f 978/1/2 979/1/2 982/1/2
f 982/1/2 979/1/2 983/1/2
f 980/1/2 981/1/2 984/1/2
f 984/1/2 981/1/2 985/1/2
f 988/2/3 987/2/3 986/2/3
f 989/2/3 987/2/3 988/2/3
f 992/1/3 991/1/3 990/1/3
f 993/1/3 991/1/3 992/1/3
f 997/2/3 995/2/3 994/2/3
f 998/2/3 995/2/3 997/2/3
f 1000/1/3 999/1/3 998/1/3
f 1001/1/3 999/1/3 1000/1/3
f 1002/1/3 997/1/3 996/1/3
f 1003/1/3 997/1/3 1002/1/3
f 1006/2/3 1005/2/3 1004/2/3
f 1007/2/3 1005/2/3 1006/2/3
f 1008/2/3 1005/2/3 1007/2/3
f 1010/2/3 1008/2/3 1007/2/3
f 1010/1/3 1009/1/3 1008/1/3
f 1011/1/3 1009/1/3 1010/1/3
f 1013/2/3 1010/2/3 1007/2/3
f 1014/2/3 1013/2/3 1012/2/3
f 1015/2/3 1010/2/3 1013/2/3
f 1015/2/3 1013/2/3 1014/2/3
f 1018/2/3 1016/2/3 1015/2/3
f 1019/2/3 1016/2/3 1018/2/3
f 1020/2/3 1016/2/3 1019/2/3
f 1021/2/3 1018/2/3 1017/2/3
f 1023/2/3 1021/2/3 1017/2/3
f 1023/1/3 1022/1/3 1021/1/3
f 1024/1/3 1022/1/3 1023/1/3
f 1025/2/3 1023/2/3 1017/2/3
f 1028/2/3 1025/2/3 1017/2/3
f 1029/1/3 1026/1/3 1025/1/3
f 1029/2/3 1025/2/3 1028/2/3
f 1030/1/3 1026/1/3 1029/1/3
f 1031/2/3 1028/2/3 1027/2/3
f 1031/2/3 1029/2/3 1028/2/3
f 1032/2/3 1029/2/3 1031/2/3
f 1035/2/3 1034/2/3 1033/2/3
f 1037/2/3 1036/2/3 1035/2/3
f 1039/2/3 1035/2/3 1033/2/3
f 1039/2/3 1038/2/3 1037/2/3
f 1039/2/3 1037/2/3 1035/2/3
f 1040/2/3 1038/2/3 1039/2/3
f 1042/2/3 1038/2/3 1040/2/3
f 1043/2/3 1042/2/3 1041/2/3
f 1044/2/3 1038/2/3 1042/2/3
f 1044/2/3 1042/2/3 1043/2/3
f 1047/2/3 1045/2/3 1044/2/3
f 1048/2/3 1045/2/3 1047/2/3
f 1050/2/3 1047/2/3 1046/2/3
f 1051/2/3 1050/2/3 1049/2/3
f 1052/2/3 1047/2/3 1050/2/3
f 1052/2/3 1050/2/3 1051/2/3
f 1054/2/3 1047/2/3 1052/2/3
f 1055/2/3 1054/2/3 1053/2/3
f 1056/2/3 1047/2/3 1054/2/3
f 1056/2/3 1054/2/3 1055/2/3
f 1059/1/3 1058/1/3 1057/1/3
f 1060/1/3 1058/1/3 1059/1/3
f 1063/1/3 1062/1/3 1061/1/3
f 1064/1/3 1062/1/3 1063/1/3
f 1068/2/3 1066/2/3 1065/2/3
f 1069/1/3 1067/1/3 1066/1/3
f 1069/2/3 1066/2/3 1068/2/3
f 1070/1/3 1067/1/3 1069/1/3
f 1072/2/3 1071/2/3 1070/2/3
f 1072/2/3 1070/2/3 1069/2/3
f 1073/2/3 1071/2/3 1072/2/3
f 1074/2/3 1071/2/3 1073/2/3
f 1075/2/3 1071/2/3 1074/2/3
f 1078/1/3 1077/1/3 1076/1/3
f 1079/1/3 1077/1/3 1078/1/3
f 1082/1/3 1081/1/3 1080/1/3
f 1083/1/3 1081/1/3 1082/1/3
f 1086/1/3 1085/1/3 1084/1/3
f 1087/1/3 1085/1/3 1086/1/3
f 1090/1/3 1089/1/3 1088/1/3
f 1091/1/3 1089/1/3 1090/1/3
f 1094/1/3 1093/1/3 1092/1/3
f 1095/1/3 1093/1/3 1094/1/3
f 1098/1/3 1097/1/3 1096/1/3
f 1099/1/3 1097/1/3 1098/1/3
f 1102/2/3 1101/2/3 1100/2/3
f 1103/2/3 1101/2/3 1102/2/3
f 1106/2/3 1105/2/3 1104/2/3
f 1107/2/3 1105/2/3 1106/2/3
f 1108/1/3 1107/1/3 1106/1/3
f 1109/1/3 1107/1/3 1108/1/3
f 1112/2/3 1111/2/3 1110/2/3
f 1113/2/3 1111/2/3 1112/2/3
f 1115/2/3 1111/2/3 1113/2/3
f 1116/2/3 1115/2/3 1114/2/3
f 1117/2/3 1111/2/3 1115/2/3
f 1117/2/3 1115/2/3 1116/2/3
f 1119/2/3 1111/2/3 1117/2/3
f 1120/2/3 1119/2/3 1118/2/3
f 1121/2/3 1111/2/3 1119/2/3
f 1121/2/3 1119/2/3 1120/2/3
f 1123/2/3 1122/2/3 1121/2/3
f 1124/2/3 1122/2/3 1123/2/3
f 1126/2/3 1122/2/3 1124/2/3
f 1128/2/3 1126/2/3 1125/2/3
f 1129/2/3 1122/2/3 1126/2/3
f 1129/2/3 1126/2/3 1128/2/3
f 1130/2/3 1128/2/3 1127/2/3
f 1131/2/3 1128/2/3 1130/2/3
f 1132/2/3 1128/2/3 1131/2/3
f 1135/1/3 1134/1/3 1133/1/3
f 1136/1/3 1134/1/3 1135/1/3
f 1139/2/3 1138/2/3 1137/2/3
f 1140/2/3 1138/2/3 1139/2/3
f 1143/2/3 1142/2/3 1141/2/3
f 1144/2/3 1142/2/3 1143/2/3
f 1147/2/3 1145/2/3 1144/2/3
f 1148/2/3 1145/2/3 1147/2/3
f 1149/2/3 1147/2/3 1146/2/3
f 1150/2/3 1147/2/3 1149/2/3
f 1153/1/3 1152/1/3 1151/1/3
f 1154/1/3 1152/1/3 1153/1/3
f 1157/1/3 1156/1/3 1155/1/3
f 1158/1/3 1156/1/3 1157/1/3
f 1161/2/3 1160/2/3 1159/2/3
f 1162/2/3 1160/2/3 1161/2/3
f 1165/1/3 1164/1/3 1163/1/3
f 1166/1/3 1164/1/3 1165/1/3
f 1169/1/3 1168/1/3 1167/1/3
f 1170/1/3 1168/1/3 1169/1/3
f 1174/1/3 1172/1/3 1171/1/3
f 1175/1/3 1172/1/3 1174/1/3
f 1176/2/3 1174/2/3 1173/2/3
f 1177/2/3 1174/2/3 1176/2/3
f 1180/2/3 1179/2/3 1178/2/3
f 1181/2/3 1179/2/3 1180/2/3
f 1183/2/3 1182/2/3 1181/2/3
f 1184/2/3 1182/2/3 1183/2/3
f 1185/2/3 1182/2/3 1184/2/3
f 1186/2/3 1182/2/3 1185/2/3
f 1189/2/3 1187/2/3 1186/2/3
f 1190/1/3 1188/1/3 1187/1/3
f 1190/2/3 1187/2/3 1189/2/3
f 1191/1/3 1188/1/3 1190/1/3
f 1193/2/3 1192/2/3 1191/2/3
f 1193/2/3 1191/2/3 1190/2/3
f 1194/2/3 1192/2/3 1193/2/3
f 1196/2/3 1195/2/3 1194/2/3
f 1197/2/3 1195/2/3 1196/2/3
f 1198/2/3 1195/2/3 1197/2/3
f 1200/2/3 1199/2/3 1198/2/3
f 1200/2/3 1198/2/3 1197/2/3
f 1201/2/3 1199/2/3 1200/2/3
f 1203/2/3 1202/2/3 1201/2/3
f 1204/2/3 1202/2/3 1203/2/3
f 1206/2/3 1202/2/3 1204/2/3
f 1207/2/3 1206/2/3 1205/2/3
f 1208/2/3 1202/2/3 1206/2/3
f 1208/2/3 1206/2/3 1207/2/3
f 1210/2/3 1202/2/3 1208/2/3
f 1211/2/3 1210/2/3 1209/2/3
f 1212/2/3 1202/2/3 1210/2/3
f 1212/2/3 1210/2/3 1211/2/3
f 1216/2/3 1214/2/3 1213/2/3
f 1217/2/3 1214/2/3 1216/2/3
f 1219/2/3 1216/2/3 1215/2/3
f 1220/2/3 1216/2/3 1219/2/3
f 1222/2/3 1219/2/3 1218/2/3
f 1224/2/3 1222/2/3 1221/2/3
f 1225/2/3 1219/2/3 1222/2/3
f 1225/2/3 1222/2/3 1224/2/3
f 1227/2/3 1224/2/3 1223/2/3
f 1228/2/3 1224/2/3 1227/2/3
f 1229/2/3 1227/2/3 1226/2/3
f 1230/2/3 1227/2/3 1229/2/3
f 1231/2/3 1227/2/3 1230/2/3
f 1232/1/3 1230/1/3 1229/1/3
f 1233/1/3 1230/1/3 1232/1/3
f 1236/1/3 1235/1/3 1234/1/3
f 1237/1/3 1235/1/3 1236/1/3
f 1240/2/3 1239/2/3 1238/2/3
f 1241/2/3 1239/2/3 1240/2/3
f 1244/2/3 1243/2/3 1242/2/3
f 1245/2/3 1243/2/3 1244/2/3
f 1248/1/3 1247/1/3 1246/1/3
f 1249/1/3 1247/1/3 1248/1/3
f 1252/1/3 1251/1/3 1250/1/3
f 1253/1/3 1251/1/3 1252/1/3
f 1256/1/3 1255/1/3 1254/1/3
f 1257/1/3 1255/1/3 1256/1/3
f 1260/1/3 1259/1/3 1258/1/3
f 1261/1/3 1259/1/3 1260/1/3
f 1264/1/3 1263/1/3 1262/1/3
f 1265/1/3 1263/1/3 1264/1/3
f 1268/1/3 1267/1/3 1266/1/3
f 1269/1/3 1267/1/3 1268/1/3
f 1272/1/3 1271/1/3 1270/1/3
f 1273/1/3 1271/1/3 1272/1/3
f 1276/1/3 1275/1/3 1274/1/3
f 1277/1/3 1275/1/3 1276/1/3
f 1280/1/3 1279/1/3 1278/1/3
f 1281/1/3 1279/1/3 1280/1/3
f 1284/1/3 1283/1/3 1282/1/3
f 1285/1/3 1283/1/3 1284/1/3
f 1288/1/3 1287/1/3 1286/1/3
f 1289/1/3 1287/1/3 1288/1/3
f 1292/1/3 1291/1/3 1290/1/3
f 1293/1/3 1291/1/3 1292/1/3
f 1296/1/3 1295/1/3 1294/1/3
f 1297/1/3 1295/1/3 1296/1/3
f 1302/2/3 1299/2/3 1298/2/3
f 1303/2/3 1299/2/3 1302/2/3
f 1304/1/3 1301/1/3 1300/1/3
f 1305/1/3 1301/1/3 1304/1/3
f 1308/2/3 1307/2/3 1306/2/3
f 1309/2/3 1307/2/3 1308/2/3
f 1312/2/3 1311/2/3 1310/2/3
f 1313/2/3 1311/2/3 1312/2/3
f 1316/2/3 1315/2/3 1314/2/3
f 1317/2/3 1315/2/3 1316/2/3
f 1320/2/3 1319/2/3 1318/2/3
f 1321/2/3 1319/2/3 1320/2/3
f 1324/2/3 1323/2/3 1322/2/3
f 1325/2/3 1323/2/3 1324/2/3
f 1327/2/3 1326/2/3 1325/2/3
f 1328/2/3 1326/2/3 1327/2/3
f 1330/2/3 1329/2/3 1328/2/3
f 1331/2/3 1329/2/3 1330/2/3
f 1332/2/3 1329/2/3 1331/2/3
f 1333/2/3 1329/2/3 1332/2/3
f 1335/2/3 1334/2/3 1333/2/3
f 1336/2/3 1334/2/3 1335/2/3
f 1338/2/3 1337/2/3 1336/2/3
f 1339/2/3 1337/2/3 1338/2/3
f 1343/2/3 1341/2/3 1340/2/3
f 1345/2/3 1343/2/3 1342/2/3
f 1346/2/3 1341/2/3 1343/2/3
f 1346/2/3 1343/2/3 1345/2/3
f 1348/2/3 1345/2/3 1344/2/3
f 1349/2/3 1345/2/3 1348/2/3
f 1351/2/3 1348/2/3 1347/2/3
f 1353/2/3 1351/2/3 1350/2/3
f 1354/2/3 1348/2/3 1351/2/3
f 1354/2/3 1351/2/3 1353/2/3
f 1355/2/3 1353/2/3 1352/2/3
f 1356/2/3 1353/2/3 1355/2/3
f 1359/1/3 1358/1/3 1357/1/3
f 1360/1/3 1358/1/3 1359/1/3
f 1363/2/3 1362/2/3 1361/2/3
f 1364/2/3 1362/2/3 1363/2/3
f 1366/2/3 1362/2/3 1364/2/3
f 1367/2/3 1366/2/3 1365/2/3
f 1368/2/3 1362/2/3 1366/2/3
f 1368/2/3 1366/2/3 1367/2/3
f 1371/1/3 1370/1/3 1369/1/3
f 1372/1/3 1370/1/3 1371/1/3
f 1375/1/3 1374/1/3 1373/1/3
f 1376/1/3 1374/1/3 1375/1/3
f 1379/2/3 1378/2/3 1377/2/3
f 1380/2/3 1378/2/3 1379/2/3
f 1382/2/3 1381/2/3 1380/2/3
f 1383/2/3 1381/2/3 1382/2/3
f 1387/2/3 1385/2/3 1384/2/3
f 1388/2/3 1385/2/3 1387/2/3
f 1389/2/3 1387/2/3 1386/2/3
f 1390/2/3 1387/2/3 1389/2/3
f 1393/1/3 1392/1/3 1391/1/3
f 1394/1/3 1392/1/3 1393/1/3
f 1397/1/3 1396/1/3 1395/1/3
f 1398/1/3 1396/1/3 1397/1/3
f 1401/2/3 1400/2/3 1399/2/3
f 1402/2/3 1400/2/3 1401/2/3
f 1405/2/3 1404/2/3 1403/2/3
f 1406/2/3 1404/2/3 1405/2/3
f 1409/2/3 1408/2/3 1407/2/3
f 1410/2/3 1408/2/3 1409/2/3
f 1413/1/3 1412/1/3 1411/1/3
f 1414/1/3 1412/1/3 1413/1/3
f 1417/2/3 1416/2/3 1415/2/3
f 1419/2/3 1417/2/3 1415/2/3
f 1419/2/3 1418/2/3 1417/2/3
f 1420/2/3 1418/2/3 1419/2/3
f 1423/2/3 1421/2/3 1420/2/3
f 1424/2/3 1421/2/3 1423/2/3
f 1425/2/3 1423/2/3 1422/2/3
f 1426/2/3 1423/2/3 1425/2/3
f 1429/1/3 1428/1/3 1427/1/3
f 1430/1/3 1428/1/3 1429/1/3
f 1433/2/3 1432/2/3 1431/2/3
f 1434/2/3 1432/2/3 1433/2/3
f 1436/2/3 1435/2/3 1434/2/3
f 1437/2/3 1435/2/3 1436/2/3
f 1439/2/3 1435/2/3 1437/2/3
f 1441/2/3 1439/2/3 1438/2/3
f 1442/2/3 1435/2/3 1439/2/3
f 1442/2/3 1439/2/3 1441/2/3
f 1443/2/3 1441/2/3 1440/2/3
f 1444/2/3 1441/2/3 1443/2/3
f 1447/2/3 1446/2/3 1445/2/3
f 1448/2/3 1446/2/3 1447/2/3
f 1451/2/3 1450/2/3 1449/2/3
f 1452/2/3 1450/2/3 1451/2/3
f 1455/2/3 1454/2/3 1453/2/3
f 1456/2/3 1454/2/3 1455/2/3
f 1459/2/3 1458/2/3 1457/2/3
f 1460/2/3 1458/2/3 1459/2/3
f 1462/2/3 1461/2/3 1460/2/3
f 1463/2/3 1461/2/3 1462/2/3
f 1465/2/3 1461/2/3 1463/2/3
f 1467/2/3 1465/2/3 1464/2/3
f 1468/2/3 1461/2/3 1465/2/3
f 1468/2/3 1465/2/3 1467/2/3
f 1469/2/3 1467/2/3 1466/2/3
f 1470/2/3 1467/2/3 1469/2/3
f 1473/2/3 1472/2/3 1471/2/3
f 1474/2/3 1472/2/3 1473/2/3
f 1477/2/3 1476/2/3 1475/2/3
f 1478/2/3 1476/2/3 1477/2/3
f 1479/2/4 1480/2/4 1481/2/4
f 1481/2/4 1480/2/4 1482/2/4
f 1483/2/4 1484/2/4 1485/2/4
f 1485/2/4 1484/2/4 1486/2/4
f 1486/2/4 1487/2/4 1489/2/4
f 1489/2/4 1487/2/4 1490/2/4
f 1488/2/4 1489/2/4 1491/2/4
f 1491/2/4 1489/2/4 1492/2/4
f 1493/2/4 1494/2/4 1495/2/4
f 1495/2/4 1494/2/4 1496/2/4
f 1497/2/4 1498/2/4 1499/2/4
f 1499/2/4 1498/2/4 1500/2/4
f 1501/2/4 1502/2/4 1503/2/4
f 1503/2/4 1502/2/4 1504/2/4
f 1505/1/4 1506/1/4 1507/1/4
f 1507/1/4 1506/1/4 1508/1/4
f 1509/1/4 1510/1/4 1511/1/4
f 1511/1/4 1510/1/4 1512/1/4
f 1513/1/4 1514/1/4 1515/1/4
f 1515/1/4 1514/1/4 1516/1/4
f 1517/2/4 1518/2/4 1519/2/4
f 1519/2/4 1518/2/4 1520/2/4
f 1520/2/4 1521/2/4 1522/2/4
f 1522/2/4 1521/2/4 1523/2/4
f 1523/2/4 1521/2/4 1525/2/4
f 1524/2/4 1525/2/4 1527/2/4
f 1525/2/4 1521/2/4 1528/2/4
f 1527/2/4 1525/2/4 1528/2/4
f 1526/2/4 1527/2/4 1529/2/4
f 1529/2/4 1527/2/4 1530/2/4
f 1531/2/4 1532/2/4 1533/2/4
f 1531/2/4 1533/2/4 1535/2/4
f 1533/2/4 1534/2/4 1535/2/4
f 1535/2/4 1534/2/4 1536/2/4
f 1536/2/4 1537/2/4 1539/2/4
f 1539/2/4 1537/2/4 1540/2/4
f 1538/2/4 1539/2/4 1541/2/4
f 1541/2/4 1539/2/4 1542/2/4
f 1543/2/4 1544/2/4 1545/2/4
f 1545/2/4 1544/2/4 1546/2/4
f 1547/2/4 1548/2/4 1549/2/4
f 1549/2/4 1548/2/4 1550/2/4
f 1551/2/4 1552/2/4 1553/2/4
f 1553/2/4 1552/2/4 1554/2/4
f 1555/2/4 1556/2/4 1558/2/4
f 1558/2/4 1556/2/4 1559/2/4
f 1557/2/4 1558/2/4 1560/2/4
f 1560/2/4 1558/2/4 1561/2/4
f 1562/2/4 1563/2/4 1564/2/4
f 1564/2/4 1563/2/4 1565/2/4
f 1565/2/4 1566/2/4 1567/2/4
f 1567/2/4 1566/2/4 1568/2/4
f 1568/2/4 1569/2/4 1570/2/4
f 1570/2/4 1569/2/4 1571/2/4
f 1571/2/4 1569/2/4 1572/2/4
f 1572/2/4 1569/2/4 1573/2/4
f 1573/2/4 1574/2/4 1575/2/4
f 1575/2/4 1574/2/4 1576/2/4
f 1576/2/4 1574/2/4 1577/2/4
f 1577/2/4 1574/2/4 1578/2/4
f 1578/2/4 1579/2/4 1580/2/4
f 1580/2/4 1579/2/4 1581/2/4
f 1582/2/4 1583/2/4 1585/2/4
f 1585/2/4 1583/2/4 1586/2/4
f 1584/2/4 1585/2/4 1588/2/4
f 1587/2/4 1588/2/4 1590/2/4
f 1588/2/4 1585/2/4 1591/2/4
f 1590/2/4 1588/2/4 1591/2/4
f 1589/2/4 1590/2/4 1593/2/4
f 1593/2/4 1590/2/4 1594/2/4
f 1592/2/4 1593/2/4 1596/2/4
f 1595/2/4 1596/2/4 1598/2/4
f 1596/2/4 1593/2/4 1599/2/4
f 1598/2/4 1596/2/4 1599/2/4
f 1597/2/4 1598/2/4 1600/2/4
f 1600/2/4 1598/2/4 1601/2/4
f 1602/2/4 1603/2/4 1604/2/4
f 1604/2/4 1603/2/4 1605/2/4
f 1606/1/4 1607/1/4 1608/1/4
f 1608/1/4 1607/1/4 1609/1/4
f 1610/2/4 1611/2/4 1612/2/4
f 1612/2/4 1611/2/4 1613/2/4
f 1614/2/4 1615/2/4 1616/2/4
f 1616/2/4 1615/2/4 1617/2/4
f 1618/2/4 1619/2/4 1620/2/4
f 1620/2/4 1619/2/4 1621/2/4
f 1622/2/4 1623/2/4 1624/2/4
f 1624/2/4 1623/2/4 1625/2/4
f 1626/2/4 1627/2/4 1628/2/4
f 1628/2/4 1627/2/4 1629/2/4
f 1630/1/4 1631/1/4 1632/1/4
f 1632/1/4 1631/1/4 1633/1/4
f 1634/1/4 1635/1/4 1636/1/4
f 1636/1/4 1635/1/4 1637/1/4
f 1638/1/4 1639/1/4 1640/1/4
f 1640/1/4 1639/1/4 1641/1/4
f 1642/1/4 1643/1/4 1644/1/4
f 1644/1/4 1643/1/4 1645/1/4
f 1646/1/4 1647/1/4 1648/1/4
f 1648/1/4 1647/1/4 1649/1/4
f 1650/1/4 1651/1/4 1652/1/4
f 1652/1/4 1651/1/4 1653/1/4
f 1654/1/4 1655/1/4 1656/1/4
f 1656/1/4 1655/1/4 1657/1/4
f 1658/1/4 1659/1/4 1660/1/4
f 1660/1/4 1659/1/4 1661/1/4
f 1662/1/4 1663/1/4 1664/1/4
f 1664/1/4 1663/1/4 1665/1/4
f 1666/1/4 1667/1/4 1668/1/4
f 1668/1/4 1667/1/4 1669/1/4
f 1670/1/4 1671/1/4 1672/1/4
f 1672/1/4 1671/1/4 1673/1/4
f 1674/1/4 1675/1/4 1676/1/4
f 1676/1/4 1675/1/4 1677/1/4
f 1678/1/4 1679/1/4 1680/1/4
f 1680/1/4 1679/1/4 1681/1/4
f 1682/1/4 1683/1/4 1684/1/4
f 1684/1/4 1683/1/4 1685/1/4
f 1686/1/4 1687/1/4 1688/1/4
f 1688/1/4 1687/1/4 1689/1/4
f 1690/2/4 1691/2/4 1692/2/4
f 1692/2/4 1691/2/4 1693/2/4
f 1693/2/4 1694/2/4 1695/2/4
f 1695/2/4 1694/2/4 1696/2/4
f 1696/2/4 1694/2/4 1697/2/4
f 1696/2/4 1697/2/4 1699/2/4
f 1697/1/4 1698/1/4 1700/1/4
f 1699/2/4 1697/2/4 1700/2/4
f 1700/1/4 1698/1/4 1701/1/4
f 1701/2/4 1702/2/4 1703/2/4
f 1700/2/4 1701/2/4 1703/2/4
f 1703/2/4 1702/2/4 1704/2/4
f 1704/2/4 1705/2/4 1706/2/4
f 1706/2/4 1705/2/4 1707/2/4
f 1707/2/4 1708/2/4 1709/2/4
f 1709/2/4 1708/2/4 1710/2/4
f 1713/2/4 1714/2/4 1715/2/4
f 1715/2/4 1714/2/4 1716/2/4
f 1716/2/4 1714/2/4 1718/2/4
f 1711/2/4 1712/2/4 1719/2/4
f 1719/2/4 1712/2/4 1720/2/4
f 1717/2/4 1718/2/4 1721/2/4
f 1718/2/4 1714/2/4 1722/2/4
f 1721/2/4 1718/2/4 1722/2/4
f 1723/2/4 1724/2/4 1726/2/4
f 1726/2/4 1724/2/4 1727/2/4
f 1725/2/4 1726/2/4 1729/2/4
f 1729/2/4 1726/2/4 1730/2/4
f 1728/2/4 1729/2/4 1732/2/4
f 1731/2/4 1732/2/4 1734/2/4
f 1732/2/4 1729/2/4 1735/2/4
f 1734/2/4 1732/2/4 1735/2/4
f 1733/2/4 1734/2/4 1737/2/4
f 1736/2/4 1737/2/4 1739/2/4
f 1737/2/4 1734/2/4 1740/2/4
f 1739/2/4 1737/2/4 1740/2/4
f 1738/2/4 1739/2/4 1741/2/4
f 1741/2/4 1739/2/4 1742/2/4
f 1743/2/4 1744/2/4 1745/2/4
f 1745/2/4 1744/2/4 1746/2/4
f 1747/2/4 1748/2/4 1749/2/4
f 1749/2/4 1748/2/4 1750/2/4
f 1751/1/4 1752/1/4 1753/1/4
f 1753/1/4 1752/1/4 1754/1/4
f 1755/1/4 1756/1/4 1757/1/4
f 1757/1/4 1756/1/4 1758/1/4
f 1759/2/4 1760/2/4 1762/2/4
f 1761/2/4 1762/2/4 1763/2/4
f 1762/2/4 1760/2/4 1764/2/4
f 1763/2/4 1762/2/4 1764/2/4
f 1764/2/4 1760/2/4 1765/2/4
f 1765/2/4 1760/2/4 1766/2/4
f 1767/2/4 1768/2/4 1769/2/4
f 1769/2/4 1768/2/4 1770/2/4
f 1771/2/4 1772/2/4 1773/2/4
f 1773/2/4 1772/2/4 1774/2/4
f 1774/2/4 1772/2/4 1776/2/4
f 1776/2/4 1772/2/4 1777/2/4
f 1775/1/4 1776/1/4 1778/1/4
f 1778/1/4 1776/1/4 1779/1/4
f 1780/1/4 1781/1/4 1782/1/4
f 1782/1/4 1781/1/4 1783/1/4
f 1784/1/4 1785/1/4 1786/1/4
f 1786/1/4 1785/1/4 1787/1/4
f 1788/1/4 1789/1/4 1790/1/4
f 1790/1/4 1789/1/4 1791/1/4
f 1792/1/4 1793/1/4 1794/1/4
f 1794/1/4 1793/1/4 1795/1/4
f 1796/1/4 1797/1/4 1798/1/4
f 1798/1/4 1797/1/4 1799/1/4
f 1800/1/4 1801/1/4 1802/1/4
f 1802/1/4 1801/1/4 1803/1/4
f 1804/1/4 1805/1/4 1806/1/4
f 1806/1/4 1805/1/4 1807/1/4
f 1808/1/4 1809/1/4 1810/1/4
f 1810/1/4 1809/1/4 1811/1/4
f 1812/2/4 1813/2/4 1814/2/4
f 1814/2/4 1813/2/4 1815/2/4
f 1815/2/4 1816/2/4 1818/2/4
f 1818/2/4 1816/2/4 1819/2/4
f 1817/2/4 1818/2/4 1820/2/4
f 1820/2/4 1818/2/4 1821/2/4
f 1822/1/4 1823/1/4 1824/1/4
f 1824/1/4 1823/1/4 1825/1/4
f 1826/1/4 1827/1/4 1828/1/4
f 1828/1/4 1827/1/4 1829/1/4
f 1830/2/4 1831/2/4 1832/2/4
f 1832/2/4 1831/2/4 1833/2/4
f 1833/2/4 1831/2/4 1834/2/4
f 1834/2/4 1831/2/4 1835/2/4
f 1835/2/4 1836/2/4 1838/2/4
f 1838/2/4 1836/2/4 1839/2/4
f 1837/2/4 1838/2/4 1841/2/4
f 1840/2/4 1841/2/4 1842/2/4
f 1841/2/4 1838/2/4 1843/2/4
f 1842/2/4 1841/2/4 1843/2/4
f 1843/2/4 1838/2/4 1845/2/4
f 1844/2/4 1845/2/4 1846/2/4
f 1845/2/4 1838/2/4 1847/2/4
f 1846/2/4 1845/2/4 1847/2/4
f 1848/1/4 1849/1/4 1850/1/4
f 1850/1/4 1849/1/4 1851/1/4
f 1852/1/4 1853/1/4 1854/1/4
f 1854/1/4 1853/1/4 1855/1/4
f 1856/1/4 1857/1/4 1858/1/4
f 1858/1/4 1857/1/4 1859/1/4
f 1860/1/4 1861/1/4 1862/1/4
f 1862/1/4 1861/1/4 1863/1/4
f 1864/2/4 1865/2/4 1866/2/4
f 1866/2/4 1865/2/4 1867/2/4
f 1867/2/4 1865/2/4 1869/2/4
f 1868/2/4 1869/2/4 1870/2/4
f 1869/2/4 1865/2/4 1871/2/4
f 1870/2/4 1869/2/4 1871/2/4
f 1871/2/4 1865/2/4 1873/2/4
f 1872/2/4 1873/2/4 1874/2/4
f 1873/2/4 1865/2/4 1875/2/4
f 1874/2/4 1873/2/4 1875/2/4
f 1875/2/4 1876/2/4 1878/2/4
f 1878/2/4 1876/2/4 1879/2/4
f 1877/2/4 1878/2/4 1880/2/4
f 1880/2/4 1878/2/4 1881/2/4
f 1881/2/4 1878/2/4 1883/2/4
f 1883/2/4 1878/2/4 1884/2/4
f 1882/2/4 1883/2/4 1885/2/4
f 1884/2/4 1878/2/4 1886/2/4
f 1882/2/4 1885/2/4 1887/2/4
f 1885/2/4 1886/2/4 1887/2/4
f 1886/2/4 1878/2/4 1888/2/4
f 1887/2/4 1886/2/4 1888/2/4
f 1882/2/4 1887/2/4 1889/2/4
f 1889/2/4 1887/2/4 1890/2/4
f 1888/2/4 1878/2/4 1891/2/4
f 1890/2/4 1891/2/4 1893/2/4
f 1892/2/4 1893/2/4 1895/2/4
f 1891/2/4 1878/2/4 1896/2/4
f 1893/2/4 1891/2/4 1896/2/4
f 1895/2/4 1893/2/4 1896/2/4
f 1894/2/4 1895/2/4 1897/2/4
f 1897/2/4 1895/2/4 1898/2/4
f 1899/2/4 1900/2/4 1901/2/4
f 1901/2/4 1900/2/4 1902/2/4
f 1902/2/4 1900/2/4 1903/2/4
f 1902/2/4 1903/2/4 1906/2/4
f 1903/1/4 1904/1/4 1907/1/4
f 1905/2/4 1906/2/4 1907/2/4
f 1906/2/4 1903/2/4 1907/2/4
f 1907/1/4 1904/1/4 1908/1/4
f 1905/2/4 1907/2/4 1909/2/4
f 1909/2/4 1907/2/4 1910/2/4
f 1910/1/4 1911/1/4 1912/1/4
f 1912/1/4 1911/1/4 1913/1/4
f 1914/2/4 1915/2/4 1917/2/4
f 1915/1/4 1916/1/4 1917/1/4
f 1917/1/4 1916/1/4 1918/1/4
f 1914/2/4 1917/2/4 1920/2/4
f 1920/2/4 1917/2/4 1921/2/4
f 1918/1/4 1919/1/4 1922/1/4
f 1922/1/4 1919/1/4 1923/1/4
f 1921/2/4 1917/2/4 1927/2/4
f 1927/2/4 1917/2/4 1928/2/4
f 1924/1/4 1925/1/4 1929/1/4
f 1929/1/4 1925/1/4 1930/1/4
f 1927/2/4 1928/2/4 1931/2/4
f 1926/2/4 1927/2/4 1931/2/4
f 1928/1/4 1929/1/4 1931/1/4
f 1931/1/4 1929/1/4 1932/1/4
f 1926/2/4 1931/2/4 1933/2/4
f 1933/2/4 1931/2/4 1934/2/4
f 1935/1/4 1936/1/4 1937/1/4
f 1937/1/4 1936/1/4 1938/1/4
f 1939/2/4 1940/2/4 1941/2/4
f 1941/2/4 1940/2/4 1942/2/4
f 1942/2/4 1943/2/4 1945/2/4
f 1945/2/4 1943/2/4 1946/2/4
f 1944/2/4 1945/2/4 1947/2/4
f 1947/2/4 1945/2/4 1948/2/4
f 1949/1/4 1950/1/4 1951/1/4
f 1951/1/4 1950/1/4 1952/1/4
f 1953/2/4 1954/2/4 1955/2/4
f 1955/2/4 1954/2/4 1956/2/4
f 1956/2/4 1954/2/4 1958/2/4
f 1957/2/4 1958/2/4 1959/2/4
f 1958/2/4 1954/2/4 1960/2/4
f 1959/2/4 1958/2/4 1960/2/4
f 1961/1/4 1962/1/4 1963/1/4
f 1963/1/4 1962/1/4 1964/1/4
f 1969/2/5 1966/2/5 1965/2/5
f 1972/1/5 1968/1/5 1967/1/5
f 1973/1/5 1968/1/5 1972/1/5
f 1974/2/5 1969/2/5 1965/2/5
f 1975/1/5 1970/1/5 1969/1/5
f 1975/2/5 1969/2/5 1974/2/5
f 1976/1/5 1970/1/5 1975/1/5
f 1978/2/5 1974/2/5 1973/2/5
f 1978/2/5 1977/2/5 1976/2/5
f 1978/2/5 1976/2/5 1975/2/5
f 1978/2/5 1975/2/5 1974/2/5
f 1978/2/5 1973/2/5 1972/2/5
f 1978/2/5 1972/2/5 1971/2/5
f 1981/2/5 1978/2/5 1971/2/5
f 1982/1/5 1979/1/5 1978/1/5
f 1982/2/5 1978/2/5 1981/2/5
f 1983/1/5 1979/1/5 1982/1/5
f 1984/1/5 1981/1/5 1980/1/5
f 1985/2/5 1982/2/5 1981/2/5
f 1985/1/5 1981/1/5 1984/1/5
f 1986/2/5 1982/2/5 1985/2/5
f 1989/2/5 1986/2/5 1985/2/5
f 1990/1/5 1987/1/5 1986/1/5
f 1990/2/5 1989/2/5 1988/2/5
f 1990/2/5 1986/2/5 1989/2/5
f 1991/1/5 1987/1/5 1990/1/5
f 1993/2/5 1990/2/5 1988/2/5
f 1993/2/5 1991/2/5 1990/2/5
f 1994/2/5 1991/2/5 1993/2/5
f 1998/2/5 1994/2/5 1993/2/5
f 1998/2/5 1993/2/5 1992/2/5
f 1998/2/5 1995/2/5 1994/2/5
f 1999/1/5 1996/1/5 1995/1/5
f 1999/2/5 1995/2/5 1998/2/5
f 2000/1/5 1996/1/5 1999/1/5
f 2001/1/5 1998/1/5 1997/1/5
f 2002/2/5 1999/2/5 1998/2/5
f 2002/1/5 1998/1/5 2001/1/5
f 2003/2/5 1999/2/5 2002/2/5
f 2005/1/5 2004/1/5 2003/1/5
f 2005/2/5 2003/2/5 2002/2/5
f 2006/1/5 2004/1/5 2005/1/5
f 2007/2/5 2005/2/5 2002/2/5
f 2008/2/5 2005/2/5 2007/2/5
f 2009/2/5 2005/2/5 2008/2/5
f 2010/2/5 2005/2/5 2009/2/5
f 2011/2/5 2009/2/5 2008/2/5
f 2012/2/5 2009/2/5 2011/2/5
f 2014/2/5 2009/2/5 2012/2/5
f 2015/2/5 2009/2/5 2014/2/5
f 2017/1/5 2014/1/5 2013/1/5
f 2018/2/5 2015/2/5 2014/2/5
f 2018/1/5 2014/1/5 2017/1/5
f 2019/1/5 2016/1/5 2015/1/5
f 2019/2/5 2015/2/5 2018/2/5
f 2020/1/5 2016/1/5 2019/1/5
f 2022/2/5 2019/2/5 2018/2/5
f 2023/2/5 2019/2/5 2022/2/5
f 2025/1/5 2022/1/5 2021/1/5
f 2026/2/5 2023/2/5 2022/2/5
f 2026/1/5 2022/1/5 2025/1/5
f 2027/1/5 2024/1/5 2023/1/5
f 2027/2/5 2023/2/5 2026/2/5
f 2028/1/5 2024/1/5 2027/1/5
f 2029/2/5 2027/2/5 2026/2/5
f 2030/2/5 2027/2/5 2029/2/5
f 2031/2/5 2029/2/5 2026/2/5
f 2032/2/5 2029/2/5 2031/2/5
f 2033/2/5 2029/2/5 2032/2/5
f 2034/2/5 2029/2/5 2033/2/5
f 2035/2/5 2029/2/5 2034/2/5
f 2036/2/5 2029/2/5 2035/2/5
f 2037/2/5 2029/2/5 2036/2/5
f 2038/2/5 2029/2/5 2037/2/5
f 2039/1/5 2033/1/5 2032/1/5
f 2040/1/5 2033/1/5 2039/1/5
f 2041/2/5 2035/2/5 2034/2/5
f 2042/2/5 2035/2/5 2041/2/5
f 2043/2/5 2035/2/5 2042/2/5
f 2044/2/5 2035/2/5 2043/2/5
f 2045/1/5 2037/1/5 2036/1/5
f 2046/1/5 2037/1/5 2045/1/5
f 2047/2/5 2043/2/5 2042/2/5
f 2048/2/5 2043/2/5 2047/2/5
f 2049/2/5 2043/2/5 2048/2/5
f 2050/2/5 2043/2/5 2049/2/5
f 2051/1/5 2049/1/5 2048/1/5
f 2052/1/5 2049/1/5 2051/1/5
f 2056/1/5 2054/1/5 2053/1/5
f 2057/1/5 2054/1/5 2056/1/5
f 2059/2/5 2056/2/5 2055/2/5
f 2060/2/5 2056/2/5 2059/2/5
f 2062/2/5 2059/2/5 2058/2/5
f 2063/2/5 2059/2/5 2062/2/5
f 2064/2/5 2061/2/5 2060/2/5
f 2065/2/5 2061/2/5 2064/2/5
f 2067/2/5 2062/2/5 2058/2/5
f 2068/2/5 2062/2/5 2067/2/5
f 2069/2/5 2061/2/5 2065/2/5
f 2070/2/5 2061/2/5 2069/2/5
f 2072/2/5 2067/2/5 2066/2/5
f 2073/2/5 2067/2/5 2072/2/5
f 2074/2/5 2071/2/5 2070/2/5
f 2075/2/5 2071/2/5 2074/2/5
f 2076/2/5 2072/2/5 2066/2/5
f 2079/2/5 2071/2/5 2075/2/5
f 2080/2/5 2077/2/5 2076/2/5
f 2080/2/5 2076/2/5 2066/2/5
f 2081/2/5 2077/2/5 2080/2/5
f 2084/2/5 2079/2/5 2078/2/5
f 2085/2/5 2071/2/5 2079/2/5
f 2085/2/5 2079/2/5 2084/2/5
f 2086/2/5 2082/2/5 2081/2/5
f 2089/2/5 2084/2/5 2083/2/5
f 2090/2/5 2087/2/5 2086/2/5
f 2090/2/5 2086/2/5 2081/2/5
f 2091/2/5 2087/2/5 2090/2/5
f 2094/2/5 2089/2/5 2088/2/5
f 2095/2/5 2084/2/5 2089/2/5
f 2095/2/5 2089/2/5 2094/2/5
f 2096/2/5 2092/2/5 2091/2/5
f 2097/2/5 2094/2/5 2093/2/5
f 2098/2/5 2096/2/5 2091/2/5
f 2098/2/5 2097/2/5 2096/2/5
f 2099/2/5 2094/2/5 2097/2/5
f 2099/2/5 2097/2/5 2098/2/5
f 2104/1/5 2101/1/5 2100/1/5
f 2105/1/5 2101/1/5 2104/1/5
f 2106/1/5 2103/1/5 2102/1/5
f 2107/1/5 2103/1/5 2106/1/5
f 2112/2/5 2109/2/5 2108/2/5
f 2113/2/5 2109/2/5 2112/2/5
f 2114/2/5 2111/2/5 2110/2/5
f 2115/2/5 2111/2/5 2114/2/5
f 2116/2/5 2111/2/5 2115/2/5
f 2117/2/5 2111/2/5 2116/2/5
f 2122/2/5 2119/2/5 2118/2/5
f 2123/2/5 2119/2/5 2122/2/5
f 2124/2/5 2121/2/5 2120/2/5
f 2125/2/5 2121/2/5 2124/2/5
f 2131/2/5 2127/2/5 2126/2/5
f 2132/2/5 2129/2/5 2128/2/5
f 2133/2/5 2129/2/5 2132/2/5
f 2134/2/5 2131/2/5 2130/2/5
f 2135/2/5 2127/2/5 2131/2/5
f 2135/2/5 2131/2/5 2134/2/5
f 2138/2/5 2137/2/5 2136/2/5
f 2139/2/5 2137/2/5 2138/2/5
f 2142/2/5 2141/2/5 2140/2/5
f 2143/2/5 2141/2/5 2142/2/5
f 2145/2/5 2142/2/5 2140/2/5
f 2146/2/5 2142/2/5 2145/2/5
f 2147/2/5 2141/2/5 2143/2/5
f 2148/2/5 2141/2/5 2147/2/5
f 2150/2/5 2145/2/5 2144/2/5
f 2151/2/5 2145/2/5 2150/2/5
f 2152/2/5 2149/2/5 2148/2/5
f 2153/2/5 2149/2/5 2152/2/5
f 2155/2/5 2150/2/5 2144/2/5
f 2156/2/5 2150/2/5 2155/2/5
f 2157/2/5 2149/2/5 2153/2/5
f 2158/2/5 2149/2/5 2157/2/5
f 2160/2/5 2159/2/5 2158/2/5
f 2161/2/5 2159/2/5 2160/2/5
f 2163/2/5 2159/2/5 2161/2/5
f 2164/2/5 2155/2/5 2154/2/5
f 2165/2/5 2155/2/5 2164/2/5
f 2168/2/5 2163/2/5 2162/2/5
f 2169/2/5 2159/2/5 2163/2/5
f 2169/2/5 2163/2/5 2168/2/5
f 2170/2/5 2166/2/5 2165/2/5
f 2173/2/5 2168/2/5 2167/2/5
f 2174/2/5 2171/2/5 2170/2/5
f 2174/2/5 2170/2/5 2165/2/5
f 2175/2/5 2171/2/5 2174/2/5
f 2178/2/5 2173/2/5 2172/2/5
f 2179/2/5 2168/2/5 2173/2/5
f 2179/2/5 2173/2/5 2178/2/5
f 2180/2/5 2176/2/5 2175/2/5
f 2181/2/5 2178/2/5 2177/2/5
f 2182/2/5 2180/2/5 2175/2/5
f 2182/2/5 2181/2/5 2180/2/5
f 2183/2/5 2178/2/5 2181/2/5
f 2183/2/5 2181/2/5 2182/2/5
f 2186/2/5 2185/2/5 2184/2/5
f 2187/2/5 2185/2/5 2186/2/5
f 2190/2/5 2189/2/5 2188/2/5
f 2191/2/5 2189/2/5 2190/2/5
f 2194/2/5 2193/2/5 2192/2/5
f 2195/2/5 2193/2/5 2194/2/5
f 2198/2/5 2197/2/5 2196/2/5
f 2199/2/5 2197/2/5 2198/2/5
f 2202/2/5 2201/2/5 2200/2/5
f 2203/2/5 2201/2/5 2202/2/5
f 2207/2/5 2205/2/5 2204/2/5
f 2208/2/5 2205/2/5 2207/2/5
f 2210/2/5 2207/2/5 2206/2/5
f 2211/2/5 2207/2/5 2210/2/5
f 2212/2/5 2209/2/5 2208/2/5
f 2213/2/5 2209/2/5 2212/2/5
f 2215/2/5 2210/2/5 2206/2/5
f 2216/2/5 2210/2/5 2215/2/5
f 2217/2/5 2209/2/5 2213/2/5
f 2218/2/5 2209/2/5 2217/2/5
f 2220/2/5 2215/2/5 2214/2/5
f 2221/2/5 2215/2/5 2220/2/5
f 2222/2/5 2220/2/5 2214/2/5
f 2224/2/5 2222/2/5 2214/2/5
f 2224/2/5 2223/2/5 2222/2/5
f 2225/2/5 2223/2/5 2224/2/5
f 2228/2/5 2219/2/5 2218/2/5
f 2229/2/5 2219/2/5 2228/2/5
f 2230/2/5 2226/2/5 2225/2/5
f 2233/2/5 2228/2/5 2227/2/5
f 2234/2/5 2231/2/5 2230/2/5
f 2234/2/5 2230/2/5 2225/2/5
f 2235/2/5 2231/2/5 2234/2/5
f 2236/2/5 2233/2/5 2232/2/5
f 2237/2/5 2228/2/5 2233/2/5
f 2237/2/5 2233/2/5 2236/2/5
f 2238/2/5 2236/2/5 2235/2/5
f 2239/2/5 2236/2/5 2238/2/5
f 2244/2/5 2243/2/5 2242/2/5
f 2245/2/5 2243/2/5 2244/2/5
f 2246/2/5 2241/2/5 2240/2/5
f 2247/2/5 2241/2/5 2246/2/5
f 2248/2/5 2243/2/5 2245/2/5
f 2249/2/5 2243/2/5 2248/2/5
f 2252/2/5 2251/2/5 2250/2/5
f 2253/2/5 2251/2/5 2252/2/5
f 2259/2/5 2255/2/5 2254/2/5
f 2260/2/5 2257/2/5 2256/2/5
f 2261/2/5 2257/2/5 2260/2/5
f 2262/2/5 2259/2/5 2258/2/5
f 2263/2/5 2255/2/5 2259/2/5
f 2263/2/5 2259/2/5 2262/2/5
f 2266/2/5 2265/2/5 2264/2/5
f 2267/2/5 2265/2/5 2266/2/5
f 2268/2/5 2265/2/5 2267/2/5
f 2269/2/5 2265/2/5 2268/2/5
f 2272/2/5 2266/2/5 2264/2/5
f 2273/2/5 2266/2/5 2272/2/5
f 2274/2/5 2270/2/5 2269/2/5
f 2275/2/5 2270/2/5 2274/2/5
f 2277/2/5 2272/2/5 2271/2/5
f 2278/2/5 2272/2/5 2277/2/5
f 2279/2/5 2272/2/5 2278/2/5
f 2280/2/5 2276/2/5 2275/2/5
f 2281/2/5 2276/2/5 2280/2/5
f 2282/2/5 2279/2/5 2278/2/5
f 2282/2/5 2280/2/5 2279/2/5
f 2283/2/5 2276/2/5 2281/2/5
f 2284/2/5 2277/2/5 2271/2/5
f 2285/2/5 2277/2/5 2284/2/5
f 2286/2/5 2282/2/5 2278/2/5
f 2286/2/5 2283/2/5 2282/2/5
f 2287/2/5 2283/2/5 2286/2/5
f 2288/2/5 2283/2/5 2287/2/5
f 2289/2/5 2276/2/5 2283/2/5
f 2289/2/5 2283/2/5 2288/2/5
f 2290/2/5 2286/2/5 2285/2/5
f 2293/2/5 2288/2/5 2287/2/5
f 2294/2/5 2291/2/5 2290/2/5
f 2294/2/5 2290/2/5 2285/2/5
f 2295/2/5 2291/2/5 2294/2/5
f 2298/2/5 2293/2/5 2292/2/5
f 2299/2/5 2288/2/5 2293/2/5
f 2299/2/5 2293/2/5 2298/2/5
f 2300/2/5 2296/2/5 2295/2/5
f 2301/2/5 2298/2/5 2297/2/5
f 2302/2/5 2300/2/5 2295/2/5
f 2302/2/5 2301/2/5 2300/2/5
f 2303/2/5 2298/2/5 2301/2/5
f 2303/2/5 2301/2/5 2302/2/5
f 2306/2/5 2305/2/5 2304/2/5
f 2307/2/5 2305/2/5 2306/2/5
f 2308/2/5 2305/2/5 2307/2/5
f 2309/2/5 2305/2/5 2308/2/5
f 2312/2/5 2311/2/5 2310/2/5
f 2315/2/5 2312/2/5 2310/2/5
f 2315/2/5 2313/2/5 2312/2/5
f 2316/2/5 2313/2/5 2315/2/5
f 2320/2/5 2315/2/5 2314/2/5
f 2320/2/5 2316/2/5 2315/2/5
f 2320/2/5 2317/2/5 2316/2/5
f 2321/2/5 2317/2/5 2320/2/5
f 2323/2/5 2322/2/5 2321/2/5
f 2324/2/5 2322/2/5 2323/2/5
f 2325/2/5 2319/2/5 2318/2/5
f 2326/2/5 2319/2/5 2325/2/5
f 2328/2/5 2327/2/5 2326/2/5
f 2329/2/5 2327/2/5 2328/2/5
f 2332/2/5 2331/2/5 2330/2/5
f 2333/2/5 2331/2/5 2332/2/5
f 2334/2/6 2335/2/6 2338/2/6
f 2338/2/6 2335/2/6 2339/2/6
f 2336/1/6 2337/1/6 2341/1/6
f 2341/1/6 2337/1/6 2342/1/6
f 2339/1/6 2340/1/6 2344/1/6
f 2344/1/6 2340/1/6 2345/1/6
f 2343/2/6 2344/2/6 2347/2/6
f 2347/2/6 2344/2/6 2348/2/6
f 2350/1/6 2351/1/6 2354/1/6
f 2354/1/6 2351/1/6 2355/1/6
f 2352/1/6 2353/1/6 2356/1/6
f 2356/1/6 2353/1/6 2357/1/6
f 2358/1/6 2359/1/6 2360/1/6
f 2360/1/6 2359/1/6 2361/1/6
f 2347/2/6 2348/2/6 2363/2/6
f 2346/2/6 2347/2/6 2363/2/6
f 2348/2/6 2349/2/6 2363/2/6
f 2363/2/6 2349/2/6 2364/2/6
f 2366/1/6 2367/1/6 2370/1/6
f 2370/1/6 2367/1/6 2371/1/6
f 2368/1/6 2369/1/6 2372/1/6
f 2372/1/6 2369/1/6 2373/1/6
f 2374/1/6 2375/1/6 2376/1/6
f 2376/1/6 2375/1/6 2377/1/6
f 2364/2/6 2365/2/6 2378/2/6
f 2363/2/6 2364/2/6 2378/2/6
f 2362/2/6 2363/2/6 2378/2/6
f 2378/2/6 2365/2/6 2379/2/6
f 2379/2/6 2365/2/6 2380/2/6
f 2380/2/6 2365/2/6 2381/2/6
f 2382/1/6 2383/1/6 2386/1/6
f 2386/1/6 2383/1/6 2387/1/6
f 2384/1/6 2385/1/6 2388/1/6
f 2388/1/6 2385/1/6 2389/1/6
f 2390/1/6 2391/1/6 2394/1/6
f 2394/1/6 2391/1/6 2395/1/6
f 2392/1/6 2393/1/6 2396/1/6
f 2396/1/6 2393/1/6 2397/1/6
f 2379/2/6 2380/2/6 2398/2/6
f 2398/2/6 2380/2/6 2399/2/6
f 2399/2/6 2380/2/6 2400/2/6
f 2400/2/6 2380/2/6 2401/2/6
f 2402/1/6 2403/1/6 2406/1/6
f 2406/1/6 2403/1/6 2407/1/6
f 2399/2/6 2400/2/6 2408/2/6
f 2408/2/6 2400/2/6 2409/2/6
f 2404/1/6 2405/1/6 2410/1/6
f 2410/1/6 2405/1/6 2411/1/6
f 2412/1/6 2413/1/6 2414/1/6
f 2414/1/6 2413/1/6 2415/1/6
f 2416/2/6 2417/2/6 2421/2/6
f 2421/2/6 2417/2/6 2422/2/6
f 2418/2/6 2419/2/6 2427/2/6
f 2427/2/6 2419/2/6 2428/2/6
f 2420/2/6 2421/2/6 2429/2/6
f 2429/2/6 2421/2/6 2430/2/6
f 2423/2/6 2424/2/6 2431/2/6
f 2431/2/6 2424/2/6 2432/2/6
f 2425/2/6 2426/2/6 2433/2/6
f 2433/2/6 2426/2/6 2434/2/6
f 2418/2/6 2427/2/6 2435/2/6
f 2435/2/6 2427/2/6 2436/2/6
f 2434/2/6 2426/2/6 2439/2/6
f 2437/2/6 2438/2/6 2441/2/6
f 2437/2/6 2441/2/6 2443/2/6
f 2443/2/6 2441/2/6 2444/2/6
f 2439/2/6 2440/2/6 2445/2/6
f 2434/2/6 2439/2/6 2445/2/6
f 2445/2/6 2440/2/6 2446/2/6
f 2442/2/6 2443/2/6 2448/2/6
f 2448/2/6 2443/2/6 2449/2/6
f 2450/2/6 2451/2/6 2452/2/6
f 2452/2/6 2451/2/6 2453/2/6
f 2446/2/6 2447/2/6 2456/2/6
f 2456/2/6 2447/2/6 2457/2/6
f 2453/2/6 2454/2/6 2458/2/6
f 2458/2/6 2454/2/6 2459/2/6
f 2455/2/6 2456/2/6 2461/2/6
f 2459/2/6 2454/2/6 2462/2/6
f 2462/2/6 2463/2/6 2464/2/6
f 2460/2/6 2461/2/6 2475/2/6
f 2461/2/6 2456/2/6 2476/2/6
f 2475/2/6 2461/2/6 2476/2/6
f 2459/2/6 2462/2/6 2477/2/6
f 2462/2/6 2464/2/6 2477/2/6
f 2464/2/6 2465/2/6 2477/2/6
f 2477/2/6 2465/2/6 2478/2/6
f 2466/2/6 2467/2/6 2479/2/6
f 2479/2/6 2467/2/6 2480/2/6
f 2468/2/6 2469/2/6 2481/2/6
f 2470/2/6 2471/2/6 2482/2/6
f 2472/2/6 2473/2/6 2483/2/6
f 2483/2/6 2473/2/6 2484/2/6
f 2474/2/6 2475/2/6 2485/2/6
f 2485/2/6 2475/2/6 2486/2/6
f 2480/2/6 2481/2/6 2487/2/6
f 2481/2/6 2469/2/6 2488/2/6
f 2487/2/6 2481/2/6 2488/2/6
f 2470/2/6 2482/2/6 2489/2/6
f 2489/2/6 2482/2/6 2490/2/6
f 2488/2/6 2489/2/6 2491/2/6
f 2491/2/6 2489/2/6 2492/2/6
f 2493/1/6 2494/1/6 2497/1/6
f 2497/1/6 2494/1/6 2498/1/6
f 2495/1/6 2496/1/6 2504/1/6
f 2504/1/6 2496/1/6 2505/1/6
f 2497/1/6 2498/1/6 2506/1/6
f 2498/1/6 2499/1/6 2506/1/6
f 2506/1/6 2499/1/6 2507/1/6
f 2500/1/6 2501/1/6 2508/1/6
f 2508/1/6 2501/1/6 2509/1/6
f 2502/2/6 2503/2/6 2510/2/6
f 2510/2/6 2503/2/6 2511/2/6
f 2512/2/6 2513/2/6 2514/2/6
f 2514/2/6 2513/2/6 2515/2/6
f 2514/1/6 2515/1/6 2516/1/6
f 2516/1/6 2515/1/6 2517/1/6
f 2518/1/6 2519/1/6 2520/1/6
f 2520/1/6 2519/1/6 2521/1/6
f 2524/1/6 2525/1/6 2526/1/6
f 2526/1/6 2525/1/6 2527/1/6
f 2522/1/6 2523/1/6 2528/1/6
f 2528/1/6 2523/1/6 2529/1/6
f 2530/1/6 2531/1/6 2538/1/6
f 2538/1/6 2531/1/6 2539/1/6
f 2532/1/6 2533/1/6 2540/1/6
f 2540/1/6 2533/1/6 2541/1/6
f 2534/1/6 2535/1/6 2542/1/6
f 2542/1/6 2535/1/6 2543/1/6
f 2536/1/6 2537/1/6 2544/1/6
f 2544/1/6 2537/1/6 2545/1/6
f 2546/2/6 2547/2/6 2550/2/6
f 2550/2/6 2547/2/6 2551/2/6
f 2548/1/6 2549/1/6 2552/1/6
f 2552/1/6 2549/1/6 2553/1/6
f 2554/1/6 2555/1/6 2558/1/6
f 2558/1/6 2555/1/6 2559/1/6
f 2556/1/6 2557/1/6 2560/1/6
f 2560/1/6 2557/1/6 2561/1/6
f 2562/2/6 2563/2/6 2565/2/6
f 2565/2/6 2563/2/6 2566/2/6
f 2564/2/6 2565/2/6 2569/2/6
f 2566/2/6 2567/2/6 2570/2/6
f 2570/2/6 2567/2/6 2571/2/6
f 2568/2/6 2569/2/6 2572/2/6
f 2569/2/6 2565/2/6 2572/2/6
f 2572/2/6 2565/2/6 2573/2/6
f 2573/2/6 2565/2/6 2574/2/6
f 2574/2/6 2565/2/6 2575/2/6
f 2566/2/6 2570/2/6 2576/2/6
f 2576/2/6 2570/2/6 2577/2/6
f 2571/2/6 2567/2/6 2578/2/6
f 2578/2/6 2567/2/6 2579/2/6
f 2579/2/6 2567/2/6 2580/2/6
f 2568/2/6 2572/2/6 2581/2/6
f 2581/2/6 2572/2/6 2582/2/6
f 2573/2/6 2574/2/6 2583/2/6
f 2583/2/6 2574/2/6 2584/2/6
f 2575/2/6 2565/2/6 2585/2/6
f 2585/2/6 2565/2/6 2586/2/6
f 2580/2/6 2567/2/6 2587/2/6
f 2587/2/6 2567/2/6 2588/2/6
f 2588/2/6 2567/2/6 2589/2/6
f 2568/2/6 2581/2/6 2591/2/6
f 2591/2/6 2581/2/6 2592/2/6
f 2589/2/6 2567/2/6 2593/2/6
f 2593/2/6 2567/2/6 2594/2/6
f 2590/2/6 2591/2/6 2596/2/6
f 2596/2/6 2591/2/6 2597/2/6
f 2590/2/6 2596/2/6 2598/2/6
f 2594/2/6 2595/2/6 2600/2/6
f 2600/2/6 2595/2/6 2601/2/6
f 2601/2/6 2595/2/6 2603/2/6
f 2598/2/6 2599/2/6 2604/2/6
f 2590/2/6 2598/2/6 2604/2/6
f 2604/2/6 2599/2/6 2605/2/6
f 2590/2/6 2604/2/6 2606/2/6
f 2590/2/6 2606/2/6 2608/2/6
f 2606/2/6 2607/2/6 2608/2/6
f 2608/2/6 2607/2/6 2609/2/6
f 2590/2/6 2608/2/6 2610/2/6
f 2610/2/6 2608/2/6 2611/2/6
f 2602/2/6 2603/2/6 2615/2/6
f 2603/2/6 2595/2/6 2616/2/6
f 2615/2/6 2603/2/6 2616/2/6
f 2612/2/6 2613/2/6 2617/2/6
f 2617/2/6 2613/2/6 2618/2/6
f 2614/2/6 2615/2/6 2620/2/6
f 2619/2/6 2620/2/6 2621/2/6
f 2620/2/6 2615/2/6 2622/2/6
f 2621/2/6 2620/2/6 2622/2/6
f 2622/2/6 2615/2/6 2624/2/6
f 2625/2/6 2626/2/6 2627/2/6
f 2623/2/6 2624/2/6 2632/2/6
f 2627/2/6 2628/2/6 2633/2/6
f 2629/2/6 2630/2/6 2636/2/6
f 2636/2/6 2630/2/6 2637/2/6
f 2631/2/6 2632/2/6 2638/2/6
f 2633/2/6 2634/2/6 2639/2/6
f 2625/2/6 2627/2/6 2639/2/6
f 2627/2/6 2633/2/6 2639/2/6
f 2639/2/6 2634/2/6 2640/2/6
f 2637/2/6 2638/2/6 2641/2/6
f 2636/2/6 2637/2/6 2641/2/6
f 2635/2/6 2636/2/6 2641/2/6
f 2624/2/6 2615/2/6 2642/2/6
f 2638/2/6 2632/2/6 2642/2/6
f 2641/2/6 2638/2/6 2642/2/6
f 2632/2/6 2624/2/6 2642/2/6
f 2640/2/6 2641/2/6 2643/2/6
f 2643/2/6 2641/2/6 2644/2/6
f 2645/1/6 2646/1/6 2652/1/6
f 2652/1/6 2646/1/6 2653/1/6
f 2647/1/6 2648/1/6 2656/1/6
f 2656/1/6 2648/1/6 2657/1/6
f 2649/1/6 2650/1/6 2658/1/6
f 2658/1/6 2650/1/6 2659/1/6
f 2651/2/6 2652/2/6 2660/2/6
f 2652/2/6 2653/2/6 2660/2/6
f 2653/2/6 2654/2/6 2660/2/6
f 2654/1/6 2655/1/6 2661/1/6
f 2660/2/6 2654/2/6 2661/2/6
f 2661/1/6 2655/1/6 2662/1/6
f 2663/1/6 2664/1/6 2665/1/6
f 2665/1/6 2664/1/6 2666/1/6
f 2667/1/6 2668/1/6 2669/1/6
f 2669/1/6 2668/1/6 2670/1/6
f 2671/1/6 2672/1/6 2673/1/6
f 2673/1/6 2672/1/6 2674/1/6
f 2675/1/6 2676/1/6 2677/1/6
f 2677/1/6 2676/1/6 2678/1/6
f 2679/1/6 2680/1/6 2681/1/6
f 2681/1/6 2680/1/6 2682/1/6
f 2683/1/6 2684/1/6 2687/1/6
f 2687/1/6 2684/1/6 2688/1/6
f 2689/1/6 2690/1/6 2691/1/6
f 2691/1/6 2690/1/6 2692/1/6
f 2685/1/6 2686/1/6 2693/1/6
f 2693/1/6 2686/1/6 2694/1/6
f 2695/1/6 2696/1/6 2701/1/6
f 2701/1/6 2696/1/6 2702/1/6
f 2697/1/6 2698/1/6 2703/1/6
f 2703/1/6 2698/1/6 2704/1/6
f 2699/1/6 2700/1/6 2705/1/6
f 2705/1/6 2700/1/6 2706/1/6
f 2707/2/6 2708/2/6 2709/2/6
f 2709/2/6 2708/2/6 2710/2/6
f 2707/2/6 2709/2/6 2711/2/6
f 2711/2/6 2709/2/6 2712/2/6
f 2710/2/6 2708/2/6 2713/2/6
f 2713/2/6 2708/2/6 2714/2/6
f 2707/2/6 2711/2/6 2716/2/6
f 2716/2/6 2711/2/6 2717/2/6
f 2714/2/6 2708/2/6 2718/2/6
f 2718/2/6 2708/2/6 2719/2/6
f 2715/2/6 2716/2/6 2721/2/6
f 2721/2/6 2716/2/6 2722/2/6
f 2719/2/6 2720/2/6 2723/2/6
f 2723/2/6 2720/2/6 2724/2/6
f 2715/2/6 2721/2/6 2725/2/6
f 2725/2/6 2721/2/6 2726/2/6
f 2724/2/6 2720/2/6 2727/2/6
f 2727/2/6 2720/2/6 2728/2/6
f 2730/2/6 2731/2/6 2732/2/6
f 2732/2/6 2731/2/6 2733/2/6
f 2728/2/6 2729/2/6 2734/2/6
f 2734/2/6 2729/2/6 2735/2/6
f 2735/2/6 2729/2/6 2739/2/6
f 2736/2/6 2737/2/6 2740/2/6
f 2740/2/6 2737/2/6 2741/2/6
f 2738/2/6 2739/2/6 2744/2/6
f 2739/2/6 2729/2/6 2745/2/6
f 2744/2/6 2739/2/6 2745/2/6
f 2741/2/6 2742/2/6 2746/2/6
f 2743/2/6 2744/2/6 2749/2/6
f 2746/2/6 2747/2/6 2750/2/6
f 2741/2/6 2746/2/6 2750/2/6
f 2750/2/6 2747/2/6 2751/2/6
f 2748/2/6 2749/2/6 2752/2/6
f 2749/2/6 2744/2/6 2753/2/6
f 2752/2/6 2749/2/6 2753/2/6
f 2751/2/6 2752/2/6 2754/2/6
f 2754/2/6 2752/2/6 2755/2/6
f 2756/1/6 2757/1/6 2759/1/6
f 2759/1/6 2757/1/6 2760/1/6
f 2758/1/6 2759/1/6 2762/1/6
f 2760/1/6 2761/1/6 2762/1/6
f 2759/1/6 2760/1/6 2762/1/6
f 2762/1/6 2761/1/6 2763/1/6
f 2764/1/6 2765/1/6 2766/1/6
f 2766/1/6 2765/1/6 2767/1/6
f 2768/1/6 2769/1/6 2772/1/6
f 2772/1/6 2769/1/6 2773/1/6
f 2770/1/6 2771/1/6 2774/1/6
f 2774/1/6 2771/1/6 2775/1/6
f 2776/2/6 2777/2/6 2779/2/6
f 2779/2/6 2777/2/6 2780/2/6
f 2778/2/6 2779/2/6 2782/2/6
f 2782/2/6 2779/2/6 2783/2/6
f 2778/2/6 2782/2/6 2784/2/6
f 2784/2/6 2782/2/6 2785/2/6
f 2780/2/6 2781/2/6 2786/2/6
f 2786/2/6 2781/2/6 2787/2/6
f 2778/2/6 2784/2/6 2789/2/6
f 2789/2/6 2784/2/6 2790/2/6
f 2787/2/6 2781/2/6 2791/2/6
f 2791/2/6 2781/2/6 2792/2/6
f 2788/2/6 2789/2/6 2794/2/6
f 2794/2/6 2789/2/6 2795/2/6
f 2788/2/6 2794/2/6 2796/2/6
f 2788/2/6 2796/2/6 2798/2/6
f 2796/2/6 2797/2/6 2798/2/6
f 2798/2/6 2797/2/6 2799/2/6
f 2792/2/6 2793/2/6 2802/2/6
f 2802/2/6 2793/2/6 2803/2/6
f 2801/2/6 2802/2/6 2804/2/6
f 2804/2/6 2802/2/6 2805/2/6
f 2799/2/6 2800/2/6 2806/2/6
f 2805/2/6 2802/2/6 2812/2/6
f 2799/2/6 2806/2/6 2813/2/6
f 2807/2/6 2808/2/6 2814/2/6
f 2814/2/6 2808/2/6 2815/2/6
f 2809/2/6 2810/2/6 2817/2/6
f 2811/2/6 2812/2/6 2818/2/6
f 2815/2/6 2816/2/6 2819/2/6
f 2799/2/6 2813/2/6 2819/2/6
f 2813/2/6 2814/2/6 2819/2/6
f 2814/2/6 2815/2/6 2819/2/6
f 2819/2/6 2816/2/6 2820/2/6
f 2817/2/6 2818/2/6 2821/2/6
f 2809/2/6 2817/2/6 2821/2/6
f 2818/2/6 2812/2/6 2822/2/6
f 2812/2/6 2802/2/6 2822/2/6
f 2821/2/6 2818/2/6 2822/2/6
f 2820/2/6 2821/2/6 2823/2/6
f 2823/2/6 2821/2/6 2824/2/6
f 2825/1/6 2826/1/6 2828/1/6
f 2827/1/6 2828/1/6 2829/1/6
f 2828/1/6 2826/1/6 2830/1/6
f 2829/1/6 2828/1/6 2830/1/6
f 2831/1/6 2832/1/6 2833/1/6
f 2833/1/6 2832/1/6 2834/1/6
f 2835/1/6 2836/1/6 2842/1/6
f 2842/1/6 2836/1/6 2843/1/6
f 2837/1/6 2838/1/6 2844/1/6
f 2844/1/6 2838/1/6 2845/1/6
f 2839/1/6 2840/1/6 2846/1/6
f 2846/1/6 2840/1/6 2847/1/6
f 2841/1/6 2842/1/6 2848/1/6
f 2848/1/6 2842/1/6 2849/1/6
f 2850/2/6 2851/2/6 2852/2/6
f 2852/2/6 2851/2/6 2853/2/6
f 2850/2/6 2852/2/6 2854/2/6
f 2854/2/6 2852/2/6 2855/2/6
f 2856/2/6 2857/2/6 2858/2/6
f 2858/2/6 2857/2/6 2859/2/6
f 2860/2/6 2861/2/6 2862/2/6
f 2862/2/6 2861/2/6 2863/2/6
f 2864/2/6 2865/2/6 2866/2/6
f 2866/2/6 2865/2/6 2867/2/6
f 2867/2/6 2865/2/6 2868/2/6
f 2868/2/6 2865/2/6 2869/2/6
f 2864/2/6 2866/2/6 2872/2/6
f 2872/2/6 2866/2/6 2873/2/6
f 2867/2/6 2868/2/6 2874/2/6
f 2874/2/6 2868/2/6 2875/2/6
f 2869/2/6 2870/2/6 2876/2/6
f 2876/2/6 2870/2/6 2877/2/6
f 2877/2/6 2870/2/6 2878/2/6
f 2871/2/6 2872/2/6 2881/2/6
f 2881/2/6 2872/2/6 2882/2/6
f 2880/2/6 2881/2/6 2882/2/6
f 2882/2/6 2872/2/6 2883/2/6
f 2880/2/6 2882/2/6 2885/2/6
f 2885/2/6 2882/2/6 2886/2/6
f 2884/1/6 2885/1/6 2888/1/6
f 2886/2/6 2887/2/6 2889/2/6
f 2888/1/6 2885/1/6 2889/1/6
f 2885/2/6 2886/2/6 2889/2/6
f 2889/2/6 2887/2/6 2890/2/6
f 2878/2/6 2879/2/6 2893/2/6
f 2877/2/6 2878/2/6 2893/2/6
f 2893/2/6 2879/2/6 2894/2/6
f 2894/2/6 2879/2/6 2895/2/6
f 2890/2/6 2891/2/6 2896/2/6
f 2889/2/6 2890/2/6 2896/2/6
f 2896/2/6 2891/2/6 2897/2/6
f 2897/2/6 2891/2/6 2898/2/6
f 2893/2/6 2894/2/6 2899/2/6
f 2892/2/6 2893/2/6 2899/2/6
f 2897/2/6 2898/2/6 2900/2/6
f 2898/2/6 2899/2/6 2900/2/6
f 2899/2/6 2894/2/6 2900/2/6
f 2900/2/6 2894/2/6 2901/2/6
f 2897/2/6 2900/2/6 2902/2/6
f 2902/2/6 2900/2/6 2903/2/6
f 2904/1/6 2905/1/6 2908/1/6
f 2908/1/6 2905/1/6 2909/1/6
f 2906/1/6 2907/1/6 2910/1/6
f 2910/1/6 2907/1/6 2911/1/6
f 2912/1/6 2913/1/6 2914/1/6
f 2914/1/6 2913/1/6 2915/1/6
f 2916/1/6 2917/1/6 2918/1/6
f 2918/1/6 2917/1/6 2919/1/6
f 2920/2/6 2921/2/6 2922/2/6
f 2922/2/6 2921/2/6 2923/2/6
f 2920/2/6 2922/2/6 2924/2/6
f 2923/2/6 2921/2/6 2925/2/6
f 2925/2/6 2921/2/6 2926/2/6
f 2926/2/6 2921/2/6 2927/2/6
f 2924/2/6 2925/2/6 2928/2/6
f 2925/2/6 2926/2/6 2928/2/6
f 2927/2/6 2921/2/6 2929/2/6
f 2929/2/6 2921/2/6 2930/2/6
f 2930/2/6 2921/2/6 2931/2/6
f 2928/2/6 2929/2/6 2932/2/6
f 2929/2/6 2930/2/6 2932/2/6
f 2920/2/6 2924/2/6 2934/2/6
f 2932/2/6 2933/2/6 2934/2/6
f 2928/2/6 2932/2/6 2934/2/6
f 2924/2/6 2928/2/6 2934/2/6
f 2934/2/6 2933/2/6 2935/2/6
f 2936/1/6 2937/1/6 2938/1/6
f 2938/1/6 2937/1/6 2939/1/6
f 2940/1/6 2941/1/6 2942/1/6
f 2942/1/6 2941/1/6 2943/1/6
f 2944/1/6 2945/1/6 2946/1/6
f 2946/1/6 2945/1/6 2947/1/6
