# MagicaVoxel @ Ephtracy

# group
o 

# material
mtllib SuperHumano-2.mtl
usemtl palette

# normals
vn -1 0 0
vn 1 0 0
vn 0 0 1
vn 0 0 -1
vn 0 -1 0
vn 0 1 0

# texcoords
vt 0.951172 0.5
vt 0.974609 0.5

# verts
v -0.2 0 -0.1
v -0.2 0 -0.4
v -0.2 0.2 -0.1
v -0.2 0.2 -0.4
v 0 0.2 -0.1
v 0 0.2 -0.4
v 0 0.5 -0.1
v 0 0.5 -0.4
v 0 0.9 -0.1
v 0 0.9 -0.4
v 0.3 0 -0.1
v 0.3 0 -0.4
v 0.3 0.3 -0.1
v 0.3 0.3 -0.4
v 0.3 0.7 -0.1
v 0.3 0.7 -0.4
v 0.3 0.9 -0.1
v 0.3 0.9 -0.4
v 0.4 0.3 -0.1
v 0.4 0.3 -0.4
v 0.4 0.5 -0.1
v 0.4 0.5 -0.4
v 0.4 0.7 -0.1
v 0.4 0.7 -0.4
v -0.2 0 -0.1
v -0.2 0.2 -0.1
v 0 0.2 -0.1
v 0 0.5 -0.1
v 0 0.9 -0.1
v 0.3 0 -0.1
v 0.3 0.3 -0.1
v 0.3 0.7 -0.1
v 0.3 0.9 -0.1
v 0.4 0.3 -0.1
v 0.4 0.5 -0.1
v 0.4 0.7 -0.1
v -0.2 0 -0.4
v -0.2 0.2 -0.4
v 0 0.2 -0.4
v 0 0.5 -0.4
v 0 0.9 -0.4
v 0.3 0 -0.4
v 0.3 0.3 -0.4
v 0.3 0.7 -0.4
v 0.3 0.9 -0.4
v 0.4 0.3 -0.4
v 0.4 0.5 -0.4
v 0.4 0.7 -0.4
v -0.2 0 -0.1
v 0.3 0 -0.1
v -0.2 0 -0.4
v 0.3 0 -0.4
v 0.3 0.3 -0.1
v 0.4 0.3 -0.1
v 0.3 0.3 -0.4
v 0.4 0.3 -0.4
v -0.2 0.2 -0.1
v 0 0.2 -0.1
v -0.2 0.2 -0.4
v 0 0.2 -0.4
v 0.3 0.7 -0.1
v 0.4 0.7 -0.1
v 0.3 0.7 -0.4
v 0.4 0.7 -0.4
v 0 0.9 -0.1
v 0.3 0.9 -0.1
v 0 0.9 -0.4
v 0.3 0.9 -0.4

# faces
f 3/2/1 2/2/1 1/2/1
f 4/2/1 2/2/1 3/2/1
f 7/2/1 6/2/1 5/2/1
f 8/2/1 6/2/1 7/2/1
f 9/1/1 8/1/1 7/1/1
f 10/1/1 8/1/1 9/1/1
f 11/2/2 12/2/2 13/2/2
f 13/2/2 12/2/2 14/2/2
f 15/1/2 16/1/2 17/1/2
f 17/1/2 16/1/2 18/1/2
f 19/2/2 20/2/2 21/2/2
f 21/2/2 20/2/2 22/2/2
f 21/1/2 22/1/2 23/1/2
f 23/1/2 22/1/2 24/1/2
f 27/2/3 26/2/3 25/2/3
f 30/2/3 27/2/3 25/2/3
f 30/2/3 28/2/3 27/2/3
f 31/2/3 28/2/3 30/2/3
f 32/1/3 29/1/3 28/1/3
f 33/1/3 29/1/3 32/1/3
f 34/2/3 28/2/3 31/2/3
f 35/1/3 32/1/3 28/1/3
f 35/2/3 28/2/3 34/2/3
f 36/1/3 32/1/3 35/1/3
f 37/2/4 38/2/4 39/2/4
f 37/2/4 39/2/4 42/2/4
f 39/2/4 40/2/4 42/2/4
f 42/2/4 40/2/4 43/2/4
f 40/1/4 41/1/4 44/1/4
f 44/1/4 41/1/4 45/1/4
f 43/2/4 40/2/4 46/2/4
f 40/1/4 44/1/4 47/1/4
f 46/2/4 40/2/4 47/2/4
f 47/1/4 44/1/4 48/1/4
f 51/2/5 50/2/5 49/2/5
f 52/2/5 50/2/5 51/2/5
f 55/2/5 54/2/5 53/2/5
f 56/2/5 54/2/5 55/2/5
f 57/2/6 58/2/6 59/2/6
f 59/2/6 58/2/6 60/2/6
f 61/1/6 62/1/6 63/1/6
f 63/1/6 62/1/6 64/1/6
f 65/1/6 66/1/6 67/1/6
f 67/1/6 66/1/6 68/1/6
