%YAML 1.1
%TAG !u! tag:unity3d.com,2011:
--- !u!1045 &1
EditorBuildSettings:
  m_ObjectHideFlags: 0
  serializedVersion: 2
  m_Scenes:
  - enabled: 1
    path: Assets/BatallaPorOniria/Menu e Interfaz/Escenas/Menu.unity
    guid: e4be906a602c8ce478a8d20d966dabc0
  - enabled: 1
    path: Assets/BatallaPorOniria/Todo Ensamblado/EscenaJuegoTripleEstrell.unity
    guid: 2172898c98a860f4dbc0a6a1a8693fc4
  - enabled: 1
    path: Assets/BatallaPorOniria/Todo Ensamblado/EscenaOniricos.unity
    guid: 52572b3a222a6c74f8ae80af78b01761
  - enabled: 1
    path: Assets/BatallaPorOniria/Todo Ensamblado/EscenaJuegoShowcase.unity
    guid: 7ddc9370fc3cc4549bd6bace7e8a0eef
  m_configObjects: {}
