# Exported by VoxEdit Beta e2de1723 - 6 textured quads.

g Model
mtllib SueloHumano.mtl
usemtl PlainTexture

# Left faces

v -16.0 -0.128 16.0
vt 0.0078125 0.51171875
v -16.0 0.128 16.0
vt 0.01171875 0.51171875
v -16.0 0.128 -16.0
vt 0.01171875 1.0
v -16.0 -0.128 -16.0
vt 0.0078125 1.0
f 1/1 2/2 3/3 4/4

# Right faces

v 16.0 -0.128 -16.0
vt 0.0234375 1.0
v 16.0 0.128 -16.0
vt 0.02734375 1.0
v 16.0 0.128 16.0
vt 0.02734375 0.51171875
v 16.0 -0.128 16.0
vt 0.0234375 0.51171875
f 5/5 6/6 7/7 8/8

# Bottom faces

v -16.0 -0.128 -16.0
vt 0.0 0.5078125
v 16.0 -0.128 -16.0
vt 0.48828125 0.5078125
v 16.0 -0.128 16.0
vt 0.48828125 0.01953125
v -16.0 -0.128 16.0
vt 0.0 0.01953125
f 9/9 10/10 11/11 12/12

# Top faces

v -16.0 0.128 16.0
vt 0.4921875 0.51171875
v 16.0 0.128 16.0
vt 0.98046875 0.51171875
v 16.0 0.128 -16.0
vt 0.98046875 1.0
v -16.0 0.128 -16.0
vt 0.4921875 1.0
f 13/13 14/14 15/15 16/16

# Front faces

v -16.0 0.128 -16.0
vt 0.00390625 0.51171875
v 16.0 0.128 -16.0
vt 0.00390625 1.0
v 16.0 -0.128 -16.0
vt 0.0 1.0
v -16.0 -0.128 -16.0
vt 0.0 0.51171875
f 17/17 18/18 19/19 20/20

# Back faces

v -16.0 -0.128 16.0
vt 0.015625 0.51171875
v 16.0 -0.128 16.0
vt 0.015625 1.0
v 16.0 0.128 16.0
vt 0.01953125 1.0
v -16.0 0.128 16.0
vt 0.01953125 0.51171875
f 21/21 22/22 23/23 24/24

